<?xml version="1.0" encoding="UTF-8" standalone="no"?>
<!-- Created with Inkscape (http://www.inkscape.org/) -->

<svg
   xmlns:dc="http://purl.org/dc/elements/1.1/"
   xmlns:cc="http://creativecommons.org/ns#"
   xmlns:rdf="http://www.w3.org/1999/02/22-rdf-syntax-ns#"
   xmlns:svg="http://www.w3.org/2000/svg"
   xmlns="http://www.w3.org/2000/svg"
   xmlns:xlink="http://www.w3.org/1999/xlink"
   xmlns:sodipodi="http://sodipodi.sourceforge.net/DTD/sodipodi-0.dtd"
   xmlns:inkscape="http://www.inkscape.org/namespaces/inkscape"
   width="48"
   height="48"
   id="svg3098"
   version="1.1"
   inkscape:version="0.91 r13725"
   sodipodi:docname="unetbootin.svg">
  <defs
     id="defs3100">
    <linearGradient
       id="linearGradient3800">
      <stop
         style="stop-color:white;stop-opacity:0;"
         offset="0"
         id="stop3802" />
      <stop
         id="stop3809"
         offset="0.5"
         style="stop-color:white;stop-opacity:0.50196081;" />
      <stop
         style="stop-color:white;stop-opacity:0;"
         offset="1"
         id="stop3804" />
    </linearGradient>
    <linearGradient
       id="linearGradient3806">
      <stop
         style="stop-color:#bd0000;stop-opacity:1;"
         offset="0"
         id="stop3808" />
      <stop
         style="stop-color:#ff9601;stop-opacity:1;"
         offset="1"
         id="stop3810" />
    </linearGradient>
    <linearGradient
       gradientTransform="translate(-40.372881,0)"
       y2="37.287701"
       y1="43.8284"
       x2="29.636"
       x1="17.391701"
       id="linearGradient4241"
       gradientUnits="userSpaceOnUse">
      <stop
         style="stop-color:#a2a2a2;stop-opacity:1;"
         id="stop4243"
         stop-opacity=".706"
         offset="0" />
      <stop
         style="stop-color:white;stop-opacity:1;"
         id="stop4245"
         stop-opacity=".353"
         offset="1" />
    </linearGradient>
    <linearGradient
       inkscape:collect="always"
       xlink:href="#linearGradient4241"
       id="linearGradient4328"
       gradientUnits="userSpaceOnUse"
       gradientTransform="matrix(0.0709376,0,0,0.14831795,14.340287,-1013.806)"
       x1="62.785175"
       y1="28.122362"
       x2="62.785175"
       y2="10.960209" />
    <linearGradient
       gradientUnits="userSpaceOnUse"
       id="linearGradient4523-7"
       x2="55.123547"
       xlink:href="#linearGradient4050-3"
       y1="10.121364"
       y2="35.878941"
       gradientTransform="matrix(0.86206897,0,0,1.32,-32.520299,1002.002)"
       x1="55.123547" />
    <linearGradient
       id="linearGradient4050-3">
      <stop
         offset="0"
         stop-color="#fff"
         stop-opacity=".669"
         id="stop3495-5" />
      <stop
         id="stop4185"
         stop-opacity=".669"
         stop-color="#fff"
         offset="0.46130949"
         style="stop-color:#ffffff;stop-opacity:0" />
      <stop
         offset="1"
         stop-color="#fff"
         stop-opacity="0"
         id="stop3497-9"
         style="stop-color:#ffffff;stop-opacity:0.27979276" />
    </linearGradient>
    <linearGradient
       y2="10.960209"
       x2="62.785175"
       y1="28.122362"
       x1="62.785175"
       gradientTransform="matrix(0.4019798,0,0,0.40787423,-5.2383718,1001.8919)"
       gradientUnits="userSpaceOnUse"
       id="linearGradient3096"
       xlink:href="#linearGradient4241"
       inkscape:collect="always" />
    <linearGradient
       inkscape:collect="always"
       xlink:href="#linearGradient3806"
       id="linearGradient3812"
       x1="40.027779"
       y1="1030.6223"
       x2="54.472225"
       y2="1030.6223"
       gradientUnits="userSpaceOnUse"
       gradientTransform="matrix(1.7999999,0,0,1.0789987,-61.049997,-79.074383)" />
    <linearGradient
       inkscape:collect="always"
       xlink:href="#linearGradient4241"
       id="linearGradient3830"
       gradientUnits="userSpaceOnUse"
       gradientTransform="matrix(0.0709376,0,0,0.14831795,23.340287,-1013.806)"
       x1="62.785175"
       y1="28.122362"
       x2="62.785175"
       y2="10.960209" />
    <linearGradient
       inkscape:collect="always"
       xlink:href="#linearGradient3806-4"
       id="linearGradient3812-4"
       x1="40.027779"
       y1="1030.6223"
       x2="54.472225"
       y2="1030.6223"
       gradientUnits="userSpaceOnUse"
       gradientTransform="matrix(1.7999999,0,0,1.0430315,-61.049997,-42.609284)" />
    <linearGradient
       id="linearGradient3806-4">
      <stop
         style="stop-color:#bd0000;stop-opacity:1;"
         offset="0"
         id="stop3808-1" />
      <stop
         style="stop-color:#ff9601;stop-opacity:1;"
         offset="1"
         id="stop3810-5" />
    </linearGradient>
    <linearGradient
       id="linearGradient5048-8">
      <stop
         id="stop5050-4"
         style="stop-color:#000000;stop-opacity:0"
         offset="0" />
      <stop
         id="stop5056-7"
         style="stop-color:#000000;stop-opacity:1"
         offset="0.5" />
      <stop
         id="stop5052-0-1"
         style="stop-color:#000000;stop-opacity:0"
         offset="1" />
    </linearGradient>
    <linearGradient
       id="linearGradient5060-29">
      <stop
         id="stop5062-9"
         style="stop-color:#000000;stop-opacity:1"
         offset="0" />
      <stop
         id="stop5064-08"
         style="stop-color:#000000;stop-opacity:0"
         offset="1" />
    </linearGradient>
    <radialGradient
       inkscape:collect="always"
       xlink:href="#linearGradient5060-29"
       id="radialGradient4058"
       gradientUnits="userSpaceOnUse"
       gradientTransform="matrix(0.06214224,0,0,0.02900085,1.6365015,28.953157)"
       cx="605.71429"
       cy="486.64789"
       fx="605.71429"
       fy="486.64789"
       r="117.14286" />
    <linearGradient
       inkscape:collect="always"
       xlink:href="#linearGradient5048-8"
       id="linearGradient4060"
       gradientUnits="userSpaceOnUse"
       gradientTransform="matrix(0.06214224,0,0,0.02900085,1.6242719,28.953157)"
       x1="302.85715"
       y1="366.64789"
       x2="302.85715"
       y2="609.50507" />
    <radialGradient
       inkscape:collect="always"
       xlink:href="#linearGradient5060-29"
       id="radialGradient4062"
       gradientUnits="userSpaceOnUse"
       gradientTransform="matrix(-0.06214224,0,0,0.02900085,46.53201,28.953157)"
       cx="605.71429"
       cy="486.64789"
       fx="605.71429"
       fy="486.64789"
       r="117.14286" />
    <linearGradient
       inkscape:collect="always"
       xlink:href="#linearGradient3800"
       id="linearGradient3807"
       x1="13"
       y1="42.5"
       x2="31"
       y2="42.5"
       gradientUnits="userSpaceOnUse"
       gradientTransform="matrix(0.77777778,0,0,0.79999304,2.8888888,1013.3624)" />
  </defs>
  <sodipodi:namedview
     id="base"
     pagecolor="#ffffff"
     bordercolor="#666666"
     borderopacity="1.0"
     inkscape:pageopacity="0.0"
     inkscape:pageshadow="2"
     inkscape:zoom="11.2"
     inkscape:cx="34.50601"
     inkscape:cy="23.287858"
     inkscape:document-units="px"
     inkscape:current-layer="capa1"
     showgrid="true"
     inkscape:window-width="1366"
     inkscape:window-height="704"
     inkscape:window-x="0"
     inkscape:window-y="27"
     inkscape:window-maximized="1"
     showguides="true"
     inkscape:guide-bbox="true"
     inkscape:snap-bbox="true">
    <inkscape:grid
       type="xygrid"
       id="grid3106"
       empspacing="5"
       visible="true"
       enabled="true"
       snapvisiblegridlinesonly="true" />
  </sodipodi:namedview>
  <metadata
     id="metadata3103">
    <rdf:RDF>
      <cc:Work
         rdf:about="">
        <dc:format>image/svg+xml</dc:format>
        <dc:type
           rdf:resource="http://purl.org/dc/dcmitype/StillImage" />
        <dc:title />
      </cc:Work>
    </rdf:RDF>
  </metadata>
  <g
     inkscape:label="Capa 1"
     inkscape:groupmode="layer"
     id="capa1"
     transform="translate(0,-1004.3622)">
    <g
       id="g1017-7"
       transform="matrix(0.61567237,0,0,0.5679292,9.1719922,1025.88)">
      <path
         inkscape:connector-curvature="0"
         style="opacity:0.5;fill:url(#radialGradient4058);fill-opacity:1;fill-rule:nonzero;stroke:none;stroke-width:104.96237946;marker:none;visibility:visible;display:inline;overflow:visible"
         id="path5058-0"
         d="m 39.087163,39.586499 c 0,0 0,7.042675 0,7.042675 3.200171,0.01326 7.736457,-1.577906 7.736455,-3.52179 0,-1.943885 -3.57115,-3.520884 -7.736455,-3.520885 z" />
      <rect
         style="opacity:0.5;fill:url(#linearGradient4060);fill-opacity:1;fill-rule:nonzero;stroke:none;stroke-width:104.96237946;marker:none;visibility:visible;display:inline;overflow:visible"
         id="rect4173-6"
         y="39.58625"
         x="9.0813398"
         height="7.0430632"
         width="30.005821" />
      <path
         inkscape:connector-curvature="0"
         style="opacity:0.5;fill:url(#radialGradient4062);fill-opacity:1;fill-rule:nonzero;stroke:none;stroke-width:104.96237946;marker:none;visibility:visible;display:inline;overflow:visible"
         id="path5018-7"
         d="m 9.0813406,39.586499 c 0,0 0,7.042675 0,7.042675 -3.2001721,0.01326 -7.7364568,-1.577906 -7.7364568,-3.52179 0,-1.943885 3.57115,-3.520884 7.7364568,-3.520885 z" />
    </g>
    <rect
       ry="2.5"
       y="1020.8622"
       x="10.499999"
       height="29.000002"
       width="26.999998"
       id="rect3822"
       style="color:black;fill:url(#linearGradient3812-4);fill-opacity:1;fill-rule:nonzero;stroke:#6a1010;stroke-width:0.99999982;stroke-linecap:butt;stroke-linejoin:miter;stroke-miterlimit:4;stroke-opacity:1;stroke-dasharray:none;stroke-dashoffset:0;marker:none;visibility:visible;display:inline;overflow:visible;enable-background:accumulate"
       rx="2.5" />
    <rect
       ry="1.2222223"
       y="1005.8622"
       x="15.5"
       height="11"
       width="17"
       id="rect4237"
       style="color:black;fill:url(#linearGradient3096);fill-opacity:1;fill-rule:nonzero;stroke:#5e5e5e;stroke-width:0.99999994;stroke-linecap:butt;stroke-linejoin:miter;stroke-miterlimit:4;stroke-opacity:1;stroke-dasharray:none;stroke-dashoffset:0;marker:none;visibility:visible;display:inline;overflow:visible;enable-background:accumulate"
       rx="1.2222223" />
    <rect
       style="color:black;fill:url(#linearGradient3812);fill-opacity:1;fill-rule:nonzero;stroke:#6a1010;stroke-width:0.99999982;stroke-linecap:butt;stroke-linejoin:miter;stroke-miterlimit:4;stroke-opacity:1;stroke-dasharray:none;stroke-dashoffset:0;marker:none;visibility:visible;display:inline;overflow:visible;enable-background:accumulate"
       id="rect3036"
       width="26.999998"
       height="30.000017"
       x="10.499999"
       y="1014.8622"
       ry="2.5"
       rx="2.5" />
    <rect
       ry="1.7678561"
       y="1015.8622"
       x="11.5"
       height="33"
       width="25"
       id="rect3986"
       style="color:#000000;display:inline;overflow:visible;visibility:visible;fill:none;stroke:url(#linearGradient4523-7);stroke-width:0.99999994;stroke-linecap:butt;stroke-linejoin:miter;stroke-miterlimit:4;stroke-dasharray:none;stroke-dashoffset:0;stroke-opacity:1;marker:none;enable-background:accumulate"
       rx="1.5" />
    <rect
       style="color:black;fill:url(#linearGradient4328);fill-opacity:1;fill-rule:nonzero;stroke:none;stroke-width:0.99999994;marker:none;visibility:visible;display:inline;overflow:visible;enable-background:accumulate"
       id="rect4326"
       width="3"
       height="4"
       x="18"
       y="-1012.3622"
       ry="0.44444457"
       transform="scale(1,-1)"
       rx="0.44444457" />
    <path
       style="color:black;fill:none;stroke:#949494;stroke-width:0.99999994;stroke-linecap:butt;stroke-linejoin:miter;stroke-miterlimit:4;stroke-opacity:1;stroke-dasharray:none;stroke-dashoffset:0;marker:none;visibility:visible;display:inline;overflow:visible;enable-background:accumulate"
       d="m 24.5,1006.3622 0,2 -1,0 0,4 1,0 0,2"
       id="path3826"
       inkscape:connector-curvature="0"
       sodipodi:nodetypes="cccccc" />
    <rect
       transform="scale(1,-1)"
       ry="0.44444457"
       y="-1012.3622"
       x="27"
       height="4"
       width="3"
       id="rect3828"
       style="color:black;fill:url(#linearGradient3830);fill-opacity:1;fill-rule:nonzero;stroke:none;stroke-width:0.99999994;marker:none;visibility:visible;display:inline;overflow:visible;enable-background:accumulate"
       rx="0.44444457" />
    <rect
       style="color:black;fill:url(#linearGradient3807);fill-opacity:1;fill-rule:nonzero;stroke:none;stroke-width:2;marker:none;visibility:visible;display:inline;overflow:visible;enable-background:accumulate;opacity:0.695"
       id="rect3030"
       width="14"
       height="3.9999652"
       x="13"
       y="1045.3622" />
    <path
       inkscape:connector-curvature="0"
       id="path3839"
       d="m 23.5,1019.3622 -2.5,4 2,0 0,10 0,1 -3,-3 0,-2 1,-1 0,-1 -1,-1 -1,0 -1,1 0,1 1,1 0,2 0,1 4,4 0,1 -1,1 0,1 1,1 1,0 1,-1 0,-1 -1,-1 0,-3 4,-4 0,-2 0,-1 1,0 0,-3 -3,0 0,3 1,0 0,2 -3,3 0,-9 2,0 -2.5,-4 z"
       style="color:black;fill:#6a1010;fill-opacity:1;fill-rule:nonzero;stroke:none;stroke-width:2;marker:none;visibility:visible;display:inline;overflow:visible;enable-background:accumulate" />
    <path
       style="color:black;fill:white;fill-opacity:1;fill-rule:nonzero;stroke:none;stroke-width:2;marker:none;visibility:visible;display:inline;overflow:visible;enable-background:accumulate"
       d="m 23.5,1020.3622 -2.5,4 2,0 0,10 0,1 -3,-3 0,-2 1,-1 0,-1 -1,-1 -1,0 -1,1 0,1 1,1 0,2 0,1 4,4 0,1 -1,1 0,1 1,1 1,0 1,-1 0,-1 -1,-1 0,-3 4,-4 0,-2 0,-1 1,0 0,-3 -3,0 0,3 1,0 0,2 -3,3 0,-9 2,0 -2.5,-4 z"
       id="rect3811"
       inkscape:connector-curvature="0" />
  </g>
</svg>
