<?xml version="1.0" encoding="UTF-8" standalone="no"?>
<!-- Created with Inkscape (http://www.inkscape.org/) -->

<svg
   xmlns:dc="http://purl.org/dc/elements/1.1/"
   xmlns:cc="http://creativecommons.org/ns#"
   xmlns:rdf="http://www.w3.org/1999/02/22-rdf-syntax-ns#"
   xmlns:svg="http://www.w3.org/2000/svg"
   xmlns="http://www.w3.org/2000/svg"
   xmlns:xlink="http://www.w3.org/1999/xlink"
   xmlns:sodipodi="http://sodipodi.sourceforge.net/DTD/sodipodi-0.dtd"
   xmlns:inkscape="http://www.inkscape.org/namespaces/inkscape"
   width="64"
   height="64"
   id="svg4700"
   version="1.1"
   inkscape:version="0.91 r13725"
   sodipodi:docname="dropbox.svg">
  <defs
     id="defs4702">
    <filter
       id="filter3174"
       color-interpolation-filters="sRGB">
      <feGaussianBlur
         stdDeviation="1.71"
         id="feGaussianBlur3176" />
    </filter>
    <linearGradient
       gradientTransform="scale(1.0058652,0.994169)"
       gradientUnits="userSpaceOnUse"
       id="ButtonShadow"
       y2="7.0165396"
       x2="45.447727"
       y1="92.539597"
       x1="45.447727">
      <stop
         offset="0"
         style="stop-color:#000000;stop-opacity:1"
         id="stop3750" />
      <stop
         offset="1"
         style="stop-color:#000000;stop-opacity:0.58823532"
         id="stop3752" />
    </linearGradient>
    <linearGradient
       x1="45.447727"
       y1="92.539597"
       x2="45.447727"
       y2="7.0165396"
       id="ButtonShadow-7"
       gradientUnits="userSpaceOnUse"
       gradientTransform="scale(1.0058652,0.994169)">
      <stop
         id="stop3750-5"
         style="stop-color:#000000;stop-opacity:1"
         offset="0" />
      <stop
         id="stop3752-1"
         style="stop-color:#000000;stop-opacity:0.58823532"
         offset="1" />
    </linearGradient>
    <filter
       color-interpolation-filters="sRGB"
       id="filter3174-8">
      <feGaussianBlur
         id="feGaussianBlur3176-3"
         stdDeviation="1.71" />
    </filter>
    <linearGradient
       x1="45.447727"
       y1="92.539597"
       x2="45.447727"
       y2="7.0165396"
       id="ButtonShadow-72"
       gradientUnits="userSpaceOnUse"
       gradientTransform="scale(1.0058652,0.994169)">
      <stop
         id="stop3750-4"
         style="stop-color:#000000;stop-opacity:1"
         offset="0" />
      <stop
         id="stop3752-5"
         style="stop-color:#000000;stop-opacity:0.58823532"
         offset="1" />
    </linearGradient>
    <filter
       color-interpolation-filters="sRGB"
       id="filter3174-4">
      <feGaussianBlur
         id="feGaussianBlur3176-4"
         stdDeviation="1.71" />
    </filter>
    <linearGradient
       inkscape:collect="always"
       xlink:href="#ButtonShadow-72"
       id="linearGradient3857"
       gradientUnits="userSpaceOnUse"
       gradientTransform="scale(1.0058652,0.994169)"
       x1="45.447727"
       y1="92.539597"
       x2="45.447727"
       y2="7.0165396" />
    <linearGradient
       x1="45.447727"
       y1="92.539597"
       x2="45.447727"
       y2="7.0165396"
       id="ButtonShadow-3"
       gradientUnits="userSpaceOnUse"
       gradientTransform="scale(1.0058652,0.994169)">
      <stop
         id="stop3750-8"
         style="stop-color:#000000;stop-opacity:1"
         offset="0" />
      <stop
         id="stop3752-1-7"
         style="stop-color:#000000;stop-opacity:0.58823532"
         offset="1" />
    </linearGradient>
    <filter
       color-interpolation-filters="sRGB"
       id="filter3174-0">
      <feGaussianBlur
         id="feGaussianBlur3176-9"
         stdDeviation="1.71" />
    </filter>
    <linearGradient
       x1="45.447727"
       y1="92.539597"
       x2="45.447727"
       y2="7.0165396"
       id="ButtonShadow-4"
       gradientUnits="userSpaceOnUse"
       gradientTransform="scale(1.0058652,0.994169)">
      <stop
         id="stop3750-0"
         style="stop-color:#000000;stop-opacity:1"
         offset="0" />
      <stop
         id="stop3752-7"
         style="stop-color:#000000;stop-opacity:0.58823532"
         offset="1" />
    </linearGradient>
    <filter
       color-interpolation-filters="sRGB"
       id="filter3174-9">
      <feGaussianBlur
         id="feGaussianBlur3176-5"
         stdDeviation="1.71" />
    </filter>
    <linearGradient
       x1="45.447727"
       y1="92.539597"
       x2="45.447727"
       y2="7.0165396"
       id="ButtonShadow-3-7"
       gradientUnits="userSpaceOnUse"
       gradientTransform="scale(1.0058652,0.994169)">
      <stop
         id="stop3750-8-0"
         style="stop-color:#000000;stop-opacity:1"
         offset="0" />
      <stop
         id="stop3752-1-2"
         style="stop-color:#000000;stop-opacity:0.58823532"
         offset="1" />
    </linearGradient>
    <filter
       color-interpolation-filters="sRGB"
       id="filter3174-0-5">
      <feGaussianBlur
         id="feGaussianBlur3176-9-9"
         stdDeviation="1.71" />
    </filter>
    <linearGradient
       x1="45.447727"
       y1="92.539597"
       x2="45.447727"
       y2="7.0165396"
       id="ButtonShadow-0"
       gradientUnits="userSpaceOnUse"
       gradientTransform="scale(1.0058652,0.994169)">
      <stop
         id="stop3750-6"
         style="stop-color:#000000;stop-opacity:1"
         offset="0" />
      <stop
         id="stop3752-6"
         style="stop-color:#000000;stop-opacity:0.58823532"
         offset="1" />
    </linearGradient>
    <filter
       color-interpolation-filters="sRGB"
       id="filter3174-3">
      <feGaussianBlur
         id="feGaussianBlur3176-2"
         stdDeviation="1.71" />
    </filter>
    <linearGradient
       id="linearGradient4085-1">
      <stop
         id="stop4087-2"
         style="stop-color:#ffffff;stop-opacity:1"
         offset="0" />
      <stop
         id="stop4089-3"
         style="stop-color:#ffffff;stop-opacity:0.2"
         offset="0.06316455" />
      <stop
         id="stop4091-7"
         style="stop-color:#ffffff;stop-opacity:0.2"
         offset="0.95056331" />
      <stop
         id="stop4093-6"
         style="stop-color:#ffffff;stop-opacity:0.39215687"
         offset="1" />
    </linearGradient>
    <linearGradient
       inkscape:collect="always"
       xlink:href="#linearGradient4085-1"
       id="linearGradient3242"
       gradientUnits="userSpaceOnUse"
       gradientTransform="matrix(1.3783783,0,0,1.3783784,-1.0810729,-17.081068)"
       x1="23.99999"
       y1="4.999989"
       x2="23.99999"
       y2="43" />
    <linearGradient
       x1="45.447727"
       y1="92.539597"
       x2="45.447727"
       y2="7.0165396"
       id="ButtonShadow-3-4"
       gradientUnits="userSpaceOnUse"
       gradientTransform="scale(1.0058652,0.994169)">
      <stop
         id="stop3750-8-2"
         style="stop-color:#000000;stop-opacity:1"
         offset="0" />
      <stop
         id="stop3752-1-4"
         style="stop-color:#000000;stop-opacity:0.58823532"
         offset="1" />
    </linearGradient>
    <filter
       color-interpolation-filters="sRGB"
       id="filter3174-0-2">
      <feGaussianBlur
         id="feGaussianBlur3176-9-7"
         stdDeviation="1.71" />
    </filter>
    <linearGradient
       x1="45.447727"
       y1="92.539597"
       x2="45.447727"
       y2="7.0165396"
       id="ButtonShadow-1"
       gradientUnits="userSpaceOnUse"
       gradientTransform="scale(1.0058652,0.994169)">
      <stop
         id="stop3750-1"
         style="stop-color:#000000;stop-opacity:1"
         offset="0" />
      <stop
         id="stop3752-10"
         style="stop-color:#000000;stop-opacity:0.58823532"
         offset="1" />
    </linearGradient>
    <filter
       color-interpolation-filters="sRGB"
       id="filter3174-7">
      <feGaussianBlur
         id="feGaussianBlur3176-1"
         stdDeviation="1.71" />
    </filter>
    <linearGradient
       id="linearGradient4031">
      <stop
         id="stop4033"
         offset="0"
         style="stop-color:#ffffff;stop-opacity:1;" />
      <stop
         id="stop4035"
         offset="1"
         style="stop-color:#ffffff;stop-opacity:0.70588237;" />
    </linearGradient>
    <linearGradient
       inkscape:collect="always"
       xlink:href="#linearGradient4031"
       id="linearGradient3238"
       gradientUnits="userSpaceOnUse"
       x1="25"
       y1="10"
       x2="25"
       y2="40"
       gradientTransform="matrix(1.3125,0,0,1.3333333,0.5,-16.333333)" />
    <radialGradient
       inkscape:collect="always"
       xlink:href="#linearGradient4019-5"
       id="radialGradient3256-5"
       gradientUnits="userSpaceOnUse"
       gradientTransform="matrix(2.8020256,-3.4127669e-8,-3.6161717e-8,2.4000011,-10.451341,-68.430258)"
       cx="15.507118"
       cy="32.262592"
       fx="15.507118"
       fy="32.262592"
       r="19.99999" />
    <linearGradient
       id="linearGradient4019-5">
      <stop
         id="stop4021-1"
         style="stop-color:#adcce1;stop-opacity:1;"
         offset="0" />
      <stop
         id="stop4023-0"
         style="stop-color:#6bbfe1;stop-opacity:1;"
         offset="0.26238" />
      <stop
         id="stop4025-7"
         style="stop-color:#2596d1;stop-opacity:1;"
         offset="0.74620908" />
      <stop
         id="stop4027-5"
         style="stop-color:#2372c0;stop-opacity:1;"
         offset="1" />
    </linearGradient>
    <linearGradient
       inkscape:collect="always"
       xlink:href="#linearGradient3851-5"
       id="linearGradient3253-0"
       gradientUnits="userSpaceOnUse"
       gradientTransform="matrix(1.0512821,0,0,1.0512821,110.17215,-12.282052)"
       x1="-62.944237"
       y1="22.146341"
       x2="-62.944237"
       y2="-29.219511" />
    <linearGradient
       id="linearGradient3851-5">
      <stop
         offset="0"
         style="stop-color:#5b8da7;stop-opacity:1;"
         id="stop3853-1" />
      <stop
         offset="1"
         style="stop-color:#1c3447;stop-opacity:1;"
         id="stop3855-4" />
    </linearGradient>
    <filter
       color-interpolation-filters="sRGB"
       height="1.248"
       y="-0.124"
       width="1.2325"
       x="-0.11625"
       id="filter4051-4"
       inkscape:collect="always">
      <feGaussianBlur
         id="feGaussianBlur4053-4"
         stdDeviation="1.55"
         inkscape:collect="always" />
    </filter>
    <radialGradient
       gradientTransform="matrix(1.9740984,0,0,1.4,28.210528,-17.399959)"
       gradientUnits="userSpaceOnUse"
       xlink:href="#linearGradient3688-166-749-4-0-3-8"
       id="radialGradient3337-2-2-1"
       fy="43.5"
       fx="4.9929786"
       r="2.5"
       cy="43.5"
       cx="4.9929786" />
    <linearGradient
       id="linearGradient3688-166-749-4-0-3-8">
      <stop
         offset="0"
         style="stop-color:#181818;stop-opacity:1"
         id="stop2883-4-0-1-8" />
      <stop
         offset="1"
         style="stop-color:#181818;stop-opacity:0"
         id="stop2885-9-2-9-6" />
    </linearGradient>
    <radialGradient
       gradientTransform="matrix(1.9740984,0,0,1.4,-19.789472,-104.4)"
       gradientUnits="userSpaceOnUse"
       xlink:href="#linearGradient3688-166-749-4-0-3-8"
       id="radialGradient3339-1-4-9"
       fy="43.5"
       fx="4.9929786"
       r="2.5"
       cy="43.5"
       cx="4.9929786" />
    <linearGradient
       gradientUnits="userSpaceOnUse"
       xlink:href="#linearGradient3702-501-757-8-4-1-1"
       id="linearGradient6394"
       y2="39.999443"
       x2="25.058096"
       y1="47.027729"
       x1="25.058096"
       gradientTransform="matrix(1.005291,0,0,1,-0.12698466,4.0035664e-5)" />
    <linearGradient
       id="linearGradient3702-501-757-8-4-1-1">
      <stop
         offset="0"
         style="stop-color:#181818;stop-opacity:0"
         id="stop2895-8-9-9-1" />
      <stop
         offset="0.5"
         style="stop-color:#181818;stop-opacity:1"
         id="stop2897-7-8-7-7" />
      <stop
         offset="1"
         style="stop-color:#181818;stop-opacity:0"
         id="stop2899-4-5-1-5" />
    </linearGradient>
  </defs>
  <sodipodi:namedview
     id="base"
     pagecolor="#ffffff"
     bordercolor="#666666"
     borderopacity="1.0"
     inkscape:pageopacity="0.0"
     inkscape:pageshadow="2"
     inkscape:zoom="6.4296875"
     inkscape:cx="59.177971"
     inkscape:cy="29.702696"
     inkscape:current-layer="layer1"
     showgrid="true"
     inkscape:grid-bbox="true"
     inkscape:document-units="px"
     inkscape:window-width="1366"
     inkscape:window-height="704"
     inkscape:window-x="0"
     inkscape:window-y="27"
     inkscape:window-maximized="1"
     inkscape:snap-to-guides="true"
     inkscape:snap-grids="true"
     inkscape:snap-bbox="true"
     inkscape:snap-nodes="true">
    <inkscape:grid
       type="xygrid"
       id="grid1021"
       empspacing="5"
       visible="true"
       enabled="true"
       snapvisiblegridlinesonly="true" />
  </sodipodi:namedview>
  <metadata
     id="metadata4705">
    <rdf:RDF>
      <cc:Work
         rdf:about="">
        <dc:format>image/svg+xml</dc:format>
        <dc:type
           rdf:resource="http://purl.org/dc/dcmitype/StillImage" />
        <dc:title />
      </cc:Work>
    </rdf:RDF>
  </metadata>
  <g
     id="layer1"
     inkscape:label="Layer 1"
     inkscape:groupmode="layer"
     transform="translate(0,16)">
    <g
       transform="matrix(1.4210526,0,0,1.1428571,-2.1052624,-7.7143317)"
       id="g3712-8-2-4-4"
       style="opacity:0.6">
      <rect
         width="4.9259262"
         height="7"
         x="38.074074"
         y="40.000042"
         id="rect2801-5-5-7-9"
         style="fill:url(#radialGradient3337-2-2-1);fill-opacity:1;stroke:none" />
      <rect
         width="4.9259262"
         height="7"
         x="-9.9259262"
         y="-47"
         transform="scale(-1,-1)"
         id="rect3696-3-0-3-7"
         style="fill:url(#radialGradient3339-1-4-9);fill-opacity:1;stroke:none" />
      <rect
         width="28.148149"
         height="7.0000005"
         x="9.9259253"
         y="40.000038"
         id="rect3700-5-6-8-4"
         style="fill:url(#linearGradient6394);fill-opacity:1;stroke:none" />
    </g>
    <g
       id="layer2"
       style="display:none"
       transform="translate(5.204491,-179.6879)">
      <rect
         width="86"
         height="85"
         rx="6"
         ry="6"
         x="5"
         y="7"
         id="rect3745"
         style="opacity:0.9;fill:url(#ButtonShadow);fill-opacity:1;fill-rule:nonzero;stroke:none;filter:url(#filter3174)" />
    </g>
    <g
       id="layer2-6"
       style="display:none"
       transform="translate(-52.967913,-177.17602)">
      <rect
         width="86"
         height="85"
         rx="6"
         ry="6"
         x="5"
         y="7"
         id="rect3745-4"
         style="opacity:0.9;fill:url(#ButtonShadow-7);fill-opacity:1;fill-rule:nonzero;stroke:none;filter:url(#filter3174-8)" />
    </g>
    <g
       id="layer4"
       transform="matrix(1.3333333,0,0,1.3333333,6.9393212,-255.58386)" />
    <g
       id="layer4-8"
       transform="matrix(1.3333333,0,0,1.3333333,-70.623882,-252.23469)" />
    <rect
       rx="5"
       transform="scale(1,-1)"
       width="53"
       height="53.000004"
       ry="5"
       x="5.5"
       y="-42.5"
       id="rect3192"
       style="color:#000000;fill:url(#radialGradient3256-5);fill-opacity:1;fill-rule:nonzero;stroke:none;stroke-width:1;marker:none;visibility:visible;display:inline;overflow:visible;enable-background:accumulate" />
    <rect
       style="color:#000000;display:inline;overflow:visible;visibility:visible;fill:none;fill-opacity:1;fill-rule:nonzero;stroke:url(#linearGradient3253-0);stroke-width:1;stroke-linecap:round;stroke-linejoin:round;stroke-miterlimit:4;stroke-dasharray:none;stroke-dashoffset:0;stroke-opacity:1;marker:none;enable-background:accumulate"
       id="rect3171"
       y="-42.5"
       x="5.5"
       ry="4"
       height="53.000004"
       width="53"
       transform="scale(1,-1)" />
    <g
       id="layer2-2"
       style="display:none"
       transform="matrix(2.5228235,0,0,2.5228235,14.866483,-528.13215)">
      <rect
         width="86"
         height="85"
         rx="2.3782876"
         ry="2.3782876"
         x="5"
         y="7"
         id="rect3745-3"
         style="opacity:0.9;fill:url(#linearGradient3857);fill-opacity:1;fill-rule:nonzero;stroke:none;filter:url(#filter3174-4)" />
    </g>
    <g
       id="layer4-1"
       transform="matrix(2.5228235,0,0,2.5228235,14.866483,-528.13215)" />
    <g
       id="g4574"
       transform="matrix(1.6071093,0,0,1.6011113,38.146104,-21.42229)" />
    <g
       id="layer4-19"
       transform="translate(6.204491,-185.6879)" />
    <g
       id="layer2-7"
       style="display:none"
       transform="translate(66.204491,-186.6879)">
      <rect
         width="86"
         height="85"
         rx="6"
         ry="6"
         x="5"
         y="7"
         id="rect3745-94"
         style="opacity:0.9;fill:url(#ButtonShadow-4);fill-opacity:1;fill-rule:nonzero;stroke:none;filter:url(#filter3174-9)" />
    </g>
    <g
       id="layer2-0"
       style="display:none"
       transform="matrix(1.9515901,0,0,1.9515901,23.735184,-403.93714)">
      <rect
         width="86"
         height="85"
         rx="3.0744162"
         ry="3.0744162"
         x="5"
         y="7"
         id="rect3745-9"
         style="opacity:0.9;fill:url(#ButtonShadow-3);fill-opacity:1;fill-rule:nonzero;stroke:none;filter:url(#filter3174-0)" />
    </g>
    <g
       id="layer4-7"
       transform="matrix(1.9515901,0,0,1.9515901,23.735184,-403.93714)" />
    <g
       id="g4574-4"
       transform="matrix(1.6071093,0,0,1.6011113,46.146104,-19.42229)" />
    <g
       id="layer4-3"
       transform="translate(14.204491,-183.6879)" />
    <g
       id="layer2-22"
       style="display:none"
       transform="translate(74.204491,-184.6879)">
      <rect
         width="86"
         height="85"
         rx="6"
         ry="6"
         x="5"
         y="7"
         id="rect3745-1"
         style="opacity:0.9;fill:url(#ButtonShadow-0);fill-opacity:1;fill-rule:nonzero;stroke:none;filter:url(#filter3174-3)" />
    </g>
    <g
       id="layer2-0-0"
       style="display:none"
       transform="matrix(1.9515901,0,0,1.9515901,31.735184,-401.93714)">
      <rect
         width="86"
         height="85"
         rx="3.0744162"
         ry="3.0744162"
         x="5"
         y="7"
         id="rect3745-9-9"
         style="opacity:0.9;fill:url(#ButtonShadow-3-7);fill-opacity:1;fill-rule:nonzero;stroke:none;filter:url(#filter3174-0-5)" />
    </g>
    <g
       id="layer4-7-2"
       transform="matrix(1.9515901,0,0,1.9515901,31.735184,-401.93714)" />
    <rect
       width="51"
       height="51"
       ry="3"
       x="6.5"
       y="-9.5"
       id="rect6741-1-0"
       style="opacity:0.5;fill:none;stroke:url(#linearGradient3242);stroke-width:1;stroke-linecap:round;stroke-linejoin:round;stroke-miterlimit:4;stroke-dasharray:none;stroke-dashoffset:0;stroke-opacity:1" />
    <g
       id="g4574-0"
       transform="matrix(1.6071093,0,0,1.6011113,45.146104,-24.42229)" />
    <g
       id="layer4-6"
       transform="translate(13.204491,-188.6879)" />
    <g
       id="layer2-9"
       style="display:none"
       transform="translate(73.204491,-189.6879)">
      <rect
         width="86"
         height="85"
         rx="6"
         ry="6"
         x="5"
         y="7"
         id="rect3745-18"
         style="opacity:0.9;fill:url(#ButtonShadow-1);fill-opacity:1;fill-rule:nonzero;stroke:none;filter:url(#filter3174-7)" />
    </g>
    <g
       id="layer2-0-1"
       style="display:none"
       transform="matrix(1.9515901,0,0,1.9515901,30.735184,-406.93714)">
      <rect
         width="86"
         height="85"
         rx="3.0744162"
         ry="3.0744162"
         x="5"
         y="7"
         id="rect3745-9-0"
         style="opacity:0.9;fill:url(#ButtonShadow-3-4);fill-opacity:1;fill-rule:nonzero;stroke:none;filter:url(#filter3174-0-2)" />
    </g>
    <g
       id="layer4-7-4"
       transform="matrix(1.9515901,0,0,1.9515901,30.735184,-406.93714)" />
    <path
       inkscape:connector-curvature="0"
       style="fill:#00588c;fill-opacity:1;fill-rule:nonzero;stroke:#00588c;color:#000000;stroke-width:1;stroke-linecap:butt;stroke-linejoin:miter;stroke-miterlimit:4;stroke-opacity:1;stroke-dasharray:none;stroke-dashoffset:0;marker:none;visibility:visible;display:inline;overflow:visible;filter:url(#filter4051-4);enable-background:accumulate"
       d="M 23.401985,-3 11,5.2133347 19.545905,12.253332 32.052109,4.36 23.401985,-3 z m 8.650124,7.36 12.40198,7.893332 L 53,5.2133347 40.702233,-3 32.052109,4.36 z m 12.40198,7.893332 -12.40198,7.893335 8.650124,7.36 L 53,19.186667 44.454089,12.253332 z M 32.052109,20.146667 19.545905,12.253332 11,19.186667 l 12.401985,8.32 8.650124,-7.36 z m 0,1.493333 -8.650124,7.466664 -3.751862,-2.559997 0,2.773332 L 32.052109,37 l 12.40198,-7.680001 0,-2.773332 -3.751856,2.559997 L 32.052109,21.64 z"
       id="path3334" />
    <path
       id="path3947"
       d="M 23.401985,-3 11,5.2133347 19.545905,12.253332 32.052109,4.36 23.401985,-3 z m 8.650124,7.36 12.40198,7.893332 L 53,5.2133347 40.702233,-3 32.052109,4.36 z m 12.40198,7.893332 -12.40198,7.893335 8.650124,7.36 L 53,19.186667 44.454089,12.253332 z M 32.052109,20.146667 19.545905,12.253332 11,19.186667 l 12.401985,8.32 8.650124,-7.36 z m 0,1.493333 -8.650124,7.466664 -3.751862,-2.559997 0,2.773332 L 32.052109,37 l 12.40198,-7.680001 0,-2.773332 -3.751856,2.559997 L 32.052109,21.64 z"
       style="fill:url(#linearGradient3238);fill-opacity:1;fill-rule:nonzero;stroke:none"
       inkscape:connector-curvature="0" />
  </g>
</svg>
