<?xml version="1.0" encoding="UTF-8" standalone="no"?>
<!-- Created with Inkscape (http://www.inkscape.org/) -->

<svg
   xmlns:dc="http://purl.org/dc/elements/1.1/"
   xmlns:cc="http://creativecommons.org/ns#"
   xmlns:rdf="http://www.w3.org/1999/02/22-rdf-syntax-ns#"
   xmlns:svg="http://www.w3.org/2000/svg"
   xmlns="http://www.w3.org/2000/svg"
   xmlns:xlink="http://www.w3.org/1999/xlink"
   xmlns:sodipodi="http://sodipodi.sourceforge.net/DTD/sodipodi-0.dtd"
   xmlns:inkscape="http://www.inkscape.org/namespaces/inkscape"
   width="64"
   height="64"
   viewBox="0 0 64.000001 64.000001"
   id="svg4679"
   version="1.1"
   inkscape:version="0.91 r13725"
   sodipodi:docname="qupzilla.svg">
  <defs
     id="defs4681">
    <linearGradient
       gradientTransform="matrix(1.3793794,0,0,1.3793795,-1.1051078,987.25694)"
       gradientUnits="userSpaceOnUse"
       xlink:href="#linearGradient4085"
       id="linearGradient3034"
       y2="43"
       x2="23.99999"
       y1="4.999989"
       x1="23.99999" />
    <linearGradient
       id="linearGradient4085">
      <stop
         id="stop4087"
         style="stop-color:#ffffff;stop-opacity:1"
         offset="0" />
      <stop
         id="stop4089"
         style="stop-color:#ffffff;stop-opacity:0.2"
         offset="0.06316455" />
      <stop
         id="stop4091"
         style="stop-color:#ffffff;stop-opacity:0.2"
         offset="0.95056331" />
      <stop
         id="stop4093"
         style="stop-color:#ffffff;stop-opacity:0.39215687"
         offset="1" />
    </linearGradient>
    <clipPath
       id="clipPath5318"
       clipPathUnits="userSpaceOnUse">
      <rect
         width="102"
         height="102"
         rx="5.9417477"
         ry="5.9417477"
         x="13"
         y="-48"
         id="rect5320"
         style="color:#000000;display:inline;overflow:visible;visibility:visible;fill:#000000;fill-opacity:1;fill-rule:nonzero;stroke:none;stroke-width:1;stroke-linecap:round;stroke-linejoin:round;stroke-miterlimit:4;stroke-dasharray:none;stroke-dashoffset:0;stroke-opacity:1;marker:none;enable-background:accumulate" />
    </clipPath>
    <filter
       height="1.1982542"
       y="-0.099127121"
       width="1.0611957"
       x="-0.03059784"
       id="filter5261"
       style="color-interpolation-filters:sRGB"
       inkscape:collect="always">
      <feGaussianBlur
         id="feGaussianBlur5263"
         stdDeviation="1.3477389"
         inkscape:collect="always" />
    </filter>
    <radialGradient
       gradientUnits="userSpaceOnUse"
       gradientTransform="matrix(0.89028477,0.17805696,-0.08769795,0.4384897,6.1104604,3.8262523)"
       r="57.013882"
       fy="0.8680132"
       fx="55"
       cy="0.8680132"
       cx="55"
       id="radialGradient5308"
       xlink:href="#linearGradient5310"
       inkscape:collect="always" />
    <linearGradient
       id="linearGradient5310">
      <stop
         id="stop5312"
         style="stop-color:#bee8f9;stop-opacity:1"
         offset="0" />
      <stop
         id="stop5314"
         style="stop-color:#71ccf2;stop-opacity:1"
         offset="0.5" />
      <stop
         id="stop5316"
         style="stop-color:#128ec0;stop-opacity:1"
         offset="1" />
    </linearGradient>
    <filter
       height="1.1037871"
       y="-0.051893555"
       width="1.0664244"
       x="-0.033212189"
       id="filter5265"
       style="color-interpolation-filters:sRGB"
       inkscape:collect="always">
      <feGaussianBlur
         id="feGaussianBlur5267"
         stdDeviation="1.3477389"
         inkscape:collect="always" />
    </filter>
    <radialGradient
       gradientUnits="userSpaceOnUse"
       gradientTransform="matrix(1.3443842,-0.22406408,0.09519107,0.57114629,-8.5015466,5.2499454)"
       r="52.525944"
       fy="-19.590225"
       fx="22.587563"
       cy="-19.590225"
       cx="22.587563"
       id="radialGradient5291"
       xlink:href="#linearGradient5294"
       inkscape:collect="always" />
    <linearGradient
       id="linearGradient5294">
      <stop
         id="stop5296"
         style="stop-color:#ffffff;stop-opacity:1"
         offset="0" />
      <stop
         id="stop5298"
         style="stop-color:#ffffff;stop-opacity:1"
         offset="0.5" />
      <stop
         id="stop5300"
         style="stop-color:#cacaca;stop-opacity:1"
         offset="1" />
    </linearGradient>
    <radialGradient
       r="19.99999"
       fy="8.4497671"
       fx="7.4956832"
       cy="8.4497671"
       cx="7.4956832"
       gradientTransform="matrix(2.6420584e-8,3.1780501,-3.3619979,-5.8551812e-8,60.408255,970.81475)"
       gradientUnits="userSpaceOnUse"
       id="radialGradient3171"
       xlink:href="#linearGradient2867-449-88-871-390-598-476-591-434-148-57-177"
       inkscape:collect="always" />
    <linearGradient
       id="linearGradient2867-449-88-871-390-598-476-591-434-148-57-177">
      <stop
         offset="0"
         style="stop-color:#90dbec;stop-opacity:1;"
         id="stop3750-60" />
      <stop
         offset="0.26238"
         style="stop-color:#55c1ec;stop-opacity:1;"
         id="stop3752-735" />
      <stop
         offset="0.704952"
         style="stop-color:#3689e6;stop-opacity:1;"
         id="stop3754" />
      <stop
         offset="1"
         style="stop-color:#2b63a0;stop-opacity:1;"
         id="stop3756" />
    </linearGradient>
    <linearGradient
       y2="3.8990016"
       x2="24"
       y1="44"
       x1="24"
       gradientTransform="matrix(1.3598902,0,0,1.3598903,-0.63736488,987.72476)"
       gradientUnits="userSpaceOnUse"
       id="linearGradient3173"
       xlink:href="#linearGradient3707-319-631-407-324"
       inkscape:collect="always" />
    <linearGradient
       id="linearGradient3707-319-631-407-324">
      <stop
         offset="0"
         style="stop-color:#185f9a;stop-opacity:1;"
         id="stop3760" />
      <stop
         offset="1"
         style="stop-color:#599ec9;stop-opacity:1;"
         id="stop3762" />
    </linearGradient>
    <linearGradient
       id="linearGradient3688-166-749-4-0-3-8">
      <stop
         offset="0"
         style="stop-color:#181818;stop-opacity:1"
         id="stop2883-4-0-1-8" />
      <stop
         offset="1"
         style="stop-color:#181818;stop-opacity:0"
         id="stop2885-9-2-9-6" />
    </linearGradient>
    <linearGradient
       id="linearGradient3702-501-757-8-4-1-1">
      <stop
         offset="0"
         style="stop-color:#181818;stop-opacity:0"
         id="stop2895-8-9-9-1" />
      <stop
         offset="0.5"
         style="stop-color:#181818;stop-opacity:1"
         id="stop2897-7-8-7-7" />
      <stop
         offset="1"
         style="stop-color:#181818;stop-opacity:0"
         id="stop2899-4-5-1-5" />
    </linearGradient>
    <radialGradient
       gradientTransform="matrix(1.9740984,0,0,1.4,28.210528,-17.399959)"
       gradientUnits="userSpaceOnUse"
       xlink:href="#linearGradient3688-166-749-4-0-3-8"
       id="radialGradient3337-2-2-1-2"
       fy="43.5"
       fx="4.9929786"
       r="2.5"
       cy="43.5"
       cx="4.9929786" />
    <radialGradient
       gradientTransform="matrix(1.9740984,0,0,1.4,-19.789472,-104.4)"
       gradientUnits="userSpaceOnUse"
       xlink:href="#linearGradient3688-166-749-4-0-3-8"
       id="radialGradient3339-1-4-9-5"
       fy="43.5"
       fx="4.9929786"
       r="2.5"
       cy="43.5"
       cx="4.9929786" />
    <linearGradient
       gradientUnits="userSpaceOnUse"
       xlink:href="#linearGradient3702-501-757-8-4-1-1"
       id="linearGradient6394-6"
       y2="39.999443"
       x2="25.058096"
       y1="47.027729"
       x1="25.058096"
       gradientTransform="matrix(1.005291,0,0,1,-0.12698466,4.0035664e-5)" />
  </defs>
  <sodipodi:namedview
     id="base"
     pagecolor="#ffffff"
     bordercolor="#666666"
     borderopacity="1.0"
     inkscape:pageopacity="0.0"
     inkscape:pageshadow="2"
     inkscape:zoom="8"
     inkscape:cx="49.53331"
     inkscape:cy="31.456413"
     inkscape:document-units="px"
     inkscape:current-layer="layer1"
     showgrid="true"
     inkscape:showpageshadow="false"
     borderlayer="true"
     units="px"
     inkscape:snap-bbox="true"
     inkscape:bbox-paths="true"
     inkscape:bbox-nodes="true"
     inkscape:snap-bbox-edge-midpoints="true"
     inkscape:object-nodes="true"
     inkscape:object-paths="true"
     inkscape:snap-intersection-paths="true"
     inkscape:window-width="1366"
     inkscape:window-height="704"
     inkscape:window-x="0"
     inkscape:window-y="27"
     inkscape:window-maximized="1">
    <inkscape:grid
       type="xygrid"
       id="grid4800" />
  </sodipodi:namedview>
  <metadata
     id="metadata4684">
    <rdf:RDF>
      <cc:Work
         rdf:about="">
        <dc:format>image/svg+xml</dc:format>
        <dc:type
           rdf:resource="http://purl.org/dc/dcmitype/StillImage" />
        <dc:title />
      </cc:Work>
    </rdf:RDF>
  </metadata>
  <g
     inkscape:label="Layer 1"
     inkscape:groupmode="layer"
     id="layer1"
     transform="translate(0,-988.36216)">
    <g
       transform="matrix(1.4210526,0,0,1.1428571,-2.1052624,996.64783)"
       id="g3712-8-2-4-4"
       style="opacity:0.6">
      <rect
         width="4.9259262"
         height="7"
         x="38.074074"
         y="40.000042"
         id="rect2801-5-5-7-9"
         style="fill:url(#radialGradient3337-2-2-1-2);fill-opacity:1;stroke:none" />
      <rect
         width="4.9259262"
         height="7"
         x="-9.9259262"
         y="-47"
         transform="scale(-1,-1)"
         id="rect3696-3-0-3-7"
         style="fill:url(#radialGradient3339-1-4-9-5);fill-opacity:1;stroke:none" />
      <rect
         width="28.148149"
         height="7.0000005"
         x="9.9259253"
         y="40.000038"
         id="rect3700-5-6-8-4"
         style="fill:url(#linearGradient6394-6);fill-opacity:1;stroke:none" />
    </g>
    <rect
       style="color:#000000;display:inline;overflow:visible;visibility:visible;fill:url(#radialGradient3171);fill-opacity:1;fill-rule:nonzero;stroke:url(#linearGradient3173);stroke-width:0.96428573;stroke-linecap:round;stroke-linejoin:round;stroke-miterlimit:4;stroke-dasharray:none;stroke-dashoffset:0;stroke-opacity:1;marker:none;enable-background:accumulate"
       id="rect5505-21"
       y="993.8443"
       x="5.4821429"
       ry="3.9999998"
       height="53.035713"
       width="53.035713"
       rx="4" />
    <g
       id="g5271"
       clip-path="url(#clipPath5318)"
       transform="matrix(0.50980392,0,0,0.50658873,-0.62745098,1020.8764)">
      <path
         transform="matrix(1.0786595,0,0,1.0809947,-5.1856704,-0.237546)"
         style="fill:#000000;fill-opacity:0.40721651;fill-rule:evenodd;stroke:#000000;stroke-width:1.04955149;stroke-linecap:butt;stroke-linejoin:miter;stroke-miterlimit:4;stroke-dasharray:none;stroke-opacity:1;filter:url(#filter5261)"
         d="m 16.775192,31.976664 c 0,0 3.18198,-16.61701 12.19759,-22.9809718 C 66.153232,-11.40589 100.38775,32.506984 122.48767,32.506984 58.848042,49.300774 77.409602,1.9246252 16.775192,31.976664 Z"
         id="path5236"
         inkscape:connector-curvature="0"
         sodipodi:nodetypes="cccc" />
      <path
         sodipodi:nodetypes="cccc"
         inkscape:connector-curvature="0"
         id="path5230"
         d="m 11.514458,32.931447 c 0,0 3.432273,-17.9629 13.157046,-24.8423081 C 64.77655,-13.964864 101.70393,33.50472 125.54222,33.50472 56.896738,51.658718 76.918341,0.44535294 11.514458,32.931447 Z"
         style="fill:url(#radialGradient5308);fill-opacity:1;fill-rule:evenodd;stroke:none;stroke-width:0.1;stroke-linecap:butt;stroke-linejoin:miter;stroke-miterlimit:4;stroke-dasharray:none;stroke-opacity:1" />
      <path
         transform="matrix(1.0786595,0,0,1.0809947,-5.1856704,-0.237546)"
         sodipodi:nodetypes="cccc"
         inkscape:connector-curvature="0"
         id="path5234"
         d="m 16.775192,31.976664 c 0,0 -16.7937904,-26.8700588 0.17677,-56.74532 33.23402,-18.384776 70.53391,14.142129 89.802578,18.3847692 C 49.478882,-12.217516 16.775192,31.976664 16.775192,31.976664 Z"
         style="fill:#000000;fill-opacity:0.40721651;fill-rule:evenodd;stroke:#000000;stroke-width:1.04955149;stroke-linecap:butt;stroke-linejoin:miter;stroke-miterlimit:4;stroke-dasharray:none;stroke-opacity:1;filter:url(#filter5265)" />
      <path
         style="fill:url(#radialGradient5291);fill-opacity:1;fill-rule:evenodd;stroke:none;stroke-width:0.1;stroke-linecap:butt;stroke-linejoin:miter;stroke-miterlimit:4;stroke-dasharray:none;stroke-opacity:1"
         d="m 11.514458,32.931447 c 0,0 -18.1147813,-29.0463906 0.190674,-61.34139 35.848192,-19.873846 76.082074,15.287566 96.866398,19.8738385 C 46.790604,-14.842228 11.514458,32.931447 11.514458,32.931447 Z"
         id="path5228"
         inkscape:connector-curvature="0"
         sodipodi:nodetypes="cccc" />
    </g>
    <rect
       width="51.037037"
       height="51.037037"
       ry="3"
       x="6.4814816"
       y="994.84369"
       id="rect6741-5-0-2-3"
       style="opacity:0.5;fill:none;stroke:url(#linearGradient3034);stroke-width:0.96296299;stroke-linecap:round;stroke-linejoin:round;stroke-miterlimit:4;stroke-dasharray:none;stroke-dashoffset:0;stroke-opacity:1"
       rx="3" />
  </g>
</svg>
