<?xml version="1.0" encoding="UTF-8" standalone="no"?>
<svg
   xmlns:dc="http://purl.org/dc/elements/1.1/"
   xmlns:cc="http://creativecommons.org/ns#"
   xmlns:rdf="http://www.w3.org/1999/02/22-rdf-syntax-ns#"
   xmlns:svg="http://www.w3.org/2000/svg"
   xmlns="http://www.w3.org/2000/svg"
   xmlns:xlink="http://www.w3.org/1999/xlink"
   xmlns:sodipodi="http://sodipodi.sourceforge.net/DTD/sodipodi-0.dtd"
   xmlns:inkscape="http://www.inkscape.org/namespaces/inkscape"
   viewBox="0 0 24 24"
   id="svg2"
   version="1.1"
   inkscape:version="0.92.1 r15371"
   width="100%"
   height="100%"
   sodipodi:docname="user-home.svg">
  <metadata
     id="metadata52">
    <rdf:RDF>
      <cc:Work
         rdf:about="">
        <dc:format>image/svg+xml</dc:format>
        <dc:type
           rdf:resource="http://purl.org/dc/dcmitype/StillImage" />
      </cc:Work>
    </rdf:RDF>
  </metadata>
  <sodipodi:namedview
     pagecolor="#ffffff"
     bordercolor="#666666"
     borderopacity="1"
     objecttolerance="10"
     gridtolerance="10"
     guidetolerance="10"
     inkscape:pageopacity="0"
     inkscape:pageshadow="2"
     inkscape:window-width="1280"
     inkscape:window-height="977"
     id="namedview50"
     showgrid="true"
     inkscape:snap-page="false"
     inkscape:snap-center="false"
     inkscape:snap-object-midpoints="false"
     inkscape:zoom="11.313709"
     inkscape:cx="41.596198"
     inkscape:cy="7.3830026"
     inkscape:window-x="0"
     inkscape:window-y="24"
     inkscape:window-maximized="1"
     inkscape:current-layer="svg2"
     inkscape:snap-bbox="true"
     inkscape:snap-nodes="true"
     inkscape:snap-global="true">
    <inkscape:grid
       type="xygrid"
       id="grid3250" />
  </sodipodi:namedview>
  <defs
     id="defs4">
    <filter
       id="filter3174-4-4"
       color-interpolation-filters="sRGB">
      <feGaussianBlur
         stdDeviation="1.71"
         id="feGaussianBlur3176-2-3" />
    </filter>
    <linearGradient
       gradientTransform="scale(1.0058652,0.994169)"
       gradientUnits="userSpaceOnUse"
       id="ButtonShadow-91-7"
       y2="7.0165396"
       x2="45.447727"
       y1="92.539597"
       x1="45.447727">
      <stop
         offset="0"
         style="stop-color:#000000;stop-opacity:1"
         id="stop3750-4-4" />
      <stop
         offset="1"
         style="stop-color:#000000;stop-opacity:0.58823532"
         id="stop3752-2-7" />
    </linearGradient>
    <linearGradient
       x1="45.447727"
       y1="92.539597"
       x2="45.447727"
       y2="7.0165396"
       id="ButtonShadow-9-1"
       gradientUnits="userSpaceOnUse"
       gradientTransform="scale(1.0058652,0.994169)">
      <stop
         id="stop3750-3-65"
         style="stop-color:#000000;stop-opacity:1"
         offset="0" />
      <stop
         id="stop3752-0-0"
         style="stop-color:#000000;stop-opacity:0.58823532"
         offset="1" />
    </linearGradient>
    <filter
       color-interpolation-filters="sRGB"
       id="filter3174-2-2">
      <feGaussianBlur
         id="feGaussianBlur3176-1-3"
         stdDeviation="1.71" />
    </filter>
    <linearGradient
       x1="45.447727"
       y1="92.539597"
       x2="45.447727"
       y2="7.0165396"
       id="ButtonShadow-0"
       gradientUnits="userSpaceOnUse"
       gradientTransform="scale(1.0058652,0.994169)">
      <stop
         id="stop3750-2"
         style="stop-color:#000000;stop-opacity:1"
         offset="0" />
      <stop
         id="stop3752-6"
         style="stop-color:#000000;stop-opacity:0.58823532"
         offset="1" />
    </linearGradient>
    <filter
       color-interpolation-filters="sRGB"
       id="filter3174-44">
      <feGaussianBlur
         id="feGaussianBlur3176-3"
         stdDeviation="1.71" />
    </filter>
    <filter
       id="filter3174-4-7"
       color-interpolation-filters="sRGB">
      <feGaussianBlur
         stdDeviation="1.71"
         id="feGaussianBlur3176-2-4" />
    </filter>
    <linearGradient
       gradientTransform="scale(1.0058652,0.994169)"
       gradientUnits="userSpaceOnUse"
       id="ButtonShadow-91-6"
       y2="7.0165396"
       x2="45.447727"
       y1="92.539597"
       x1="45.447727">
      <stop
         offset="0"
         style="stop-color:#000000;stop-opacity:1"
         id="stop3750-4-7" />
      <stop
         offset="1"
         style="stop-color:#000000;stop-opacity:0.58823532"
         id="stop3752-2-68" />
    </linearGradient>
    <linearGradient
       x1="45.447727"
       y1="92.539597"
       x2="45.447727"
       y2="7.0165396"
       id="ButtonShadow-9-2"
       gradientUnits="userSpaceOnUse"
       gradientTransform="scale(1.0058652,0.994169)">
      <stop
         id="stop3750-3-4"
         style="stop-color:#000000;stop-opacity:1"
         offset="0" />
      <stop
         id="stop3752-0-7"
         style="stop-color:#000000;stop-opacity:0.58823532"
         offset="1" />
    </linearGradient>
    <filter
       color-interpolation-filters="sRGB"
       id="filter3174-2-0">
      <feGaussianBlur
         id="feGaussianBlur3176-1-0"
         stdDeviation="1.71" />
    </filter>
    <linearGradient
       x1="45.447727"
       y1="92.539597"
       x2="45.447727"
       y2="7.0165396"
       id="ButtonShadow-3"
       gradientUnits="userSpaceOnUse"
       gradientTransform="scale(1.0058652,0.994169)">
      <stop
         id="stop3750-41"
         style="stop-color:#000000;stop-opacity:1"
         offset="0" />
      <stop
         id="stop3752-4"
         style="stop-color:#000000;stop-opacity:0.58823532"
         offset="1" />
    </linearGradient>
    <filter
       color-interpolation-filters="sRGB"
       id="filter3174-34">
      <feGaussianBlur
         id="feGaussianBlur3176-32"
         stdDeviation="1.71" />
    </filter>
    <linearGradient
       inkscape:collect="always"
       xlink:href="#ButtonShadow-3"
       id="linearGradient4045"
       gradientUnits="userSpaceOnUse"
       gradientTransform="scale(1.0058652,0.994169)"
       x1="45.447727"
       y1="92.539597"
       x2="45.447727"
       y2="7.0165396" />
    <linearGradient
       inkscape:collect="always"
       xlink:href="#ButtonShadow-91-6"
       id="linearGradient4047"
       gradientUnits="userSpaceOnUse"
       gradientTransform="scale(1.0058652,0.994169)"
       x1="45.447727"
       y1="92.539597"
       x2="45.447727"
       y2="7.0165396" />
    <linearGradient
       inkscape:collect="always"
       xlink:href="#ButtonShadow-9-2"
       id="linearGradient4049"
       gradientUnits="userSpaceOnUse"
       gradientTransform="scale(1.0058652,0.994169)"
       x1="45.447727"
       y1="92.539597"
       x2="45.447727"
       y2="7.0165396" />
    <linearGradient
       y2="7.0165396"
       x2="45.447727"
       y1="92.539597"
       x1="45.447727"
       gradientTransform="scale(1.0058652,0.994169)"
       gradientUnits="userSpaceOnUse"
       id="linearGradient4049-3"
       xlink:href="#ButtonShadow-9-2-7"
       inkscape:collect="always" />
    <linearGradient
       y2="7.0165396"
       x2="45.447727"
       y1="92.539597"
       x1="45.447727"
       gradientTransform="scale(1.0058652,0.994169)"
       gradientUnits="userSpaceOnUse"
       id="linearGradient4047-9"
       xlink:href="#ButtonShadow-91-6-7"
       inkscape:collect="always" />
    <linearGradient
       y2="7.0165396"
       x2="45.447727"
       y1="92.539597"
       x1="45.447727"
       gradientTransform="scale(1.0058652,0.994169)"
       gradientUnits="userSpaceOnUse"
       id="linearGradient4045-4"
       xlink:href="#ButtonShadow-3-77"
       inkscape:collect="always" />
    <filter
       id="filter3174-34-1"
       color-interpolation-filters="sRGB">
      <feGaussianBlur
         stdDeviation="1.71"
         id="feGaussianBlur3176-32-8" />
    </filter>
    <linearGradient
       gradientTransform="scale(1.0058652,0.994169)"
       gradientUnits="userSpaceOnUse"
       id="ButtonShadow-3-77"
       y2="7.0165396"
       x2="45.447727"
       y1="92.539597"
       x1="45.447727">
      <stop
         offset="0"
         style="stop-color:#000000;stop-opacity:1"
         id="stop3750-41-3" />
      <stop
         offset="1"
         style="stop-color:#000000;stop-opacity:0.58823532"
         id="stop3752-4-6" />
    </linearGradient>
    <filter
       id="filter3174-2-0-3"
       color-interpolation-filters="sRGB">
      <feGaussianBlur
         stdDeviation="1.71"
         id="feGaussianBlur3176-1-0-8" />
    </filter>
    <linearGradient
       gradientTransform="scale(1.0058652,0.994169)"
       gradientUnits="userSpaceOnUse"
       id="ButtonShadow-9-2-7"
       y2="7.0165396"
       x2="45.447727"
       y1="92.539597"
       x1="45.447727">
      <stop
         offset="0"
         style="stop-color:#000000;stop-opacity:1"
         id="stop3750-3-4-9" />
      <stop
         offset="1"
         style="stop-color:#000000;stop-opacity:0.58823532"
         id="stop3752-0-7-1" />
    </linearGradient>
    <linearGradient
       x1="45.447727"
       y1="92.539597"
       x2="45.447727"
       y2="7.0165396"
       id="ButtonShadow-91-6-7"
       gradientUnits="userSpaceOnUse"
       gradientTransform="scale(1.0058652,0.994169)">
      <stop
         id="stop3750-4-7-1"
         style="stop-color:#000000;stop-opacity:1"
         offset="0" />
      <stop
         id="stop3752-2-68-5"
         style="stop-color:#000000;stop-opacity:0.58823532"
         offset="1" />
    </linearGradient>
    <filter
       color-interpolation-filters="sRGB"
       id="filter3174-4-7-27">
      <feGaussianBlur
         id="feGaussianBlur3176-2-4-81"
         stdDeviation="1.71" />
    </filter>
    <filter
       id="filter3174-44-3"
       color-interpolation-filters="sRGB">
      <feGaussianBlur
         stdDeviation="1.71"
         id="feGaussianBlur3176-3-1" />
    </filter>
    <linearGradient
       gradientTransform="scale(1.0058652,0.994169)"
       gradientUnits="userSpaceOnUse"
       id="ButtonShadow-0-7"
       y2="7.0165396"
       x2="45.447727"
       y1="92.539597"
       x1="45.447727">
      <stop
         offset="0"
         style="stop-color:#000000;stop-opacity:1"
         id="stop3750-2-0" />
      <stop
         offset="1"
         style="stop-color:#000000;stop-opacity:0.58823532"
         id="stop3752-6-86" />
    </linearGradient>
    <filter
       id="filter3174-2-2-3"
       color-interpolation-filters="sRGB">
      <feGaussianBlur
         stdDeviation="1.71"
         id="feGaussianBlur3176-1-3-3" />
    </filter>
    <linearGradient
       gradientTransform="scale(1.0058652,0.994169)"
       gradientUnits="userSpaceOnUse"
       id="ButtonShadow-9-1-3"
       y2="7.0165396"
       x2="45.447727"
       y1="92.539597"
       x1="45.447727">
      <stop
         offset="0"
         style="stop-color:#000000;stop-opacity:1"
         id="stop3750-3-65-5" />
      <stop
         offset="1"
         style="stop-color:#000000;stop-opacity:0.58823532"
         id="stop3752-0-0-7" />
    </linearGradient>
    <linearGradient
       x1="45.447727"
       y1="92.539597"
       x2="45.447727"
       y2="7.0165396"
       id="ButtonShadow-91-7-5"
       gradientUnits="userSpaceOnUse"
       gradientTransform="scale(1.0058652,0.994169)">
      <stop
         id="stop3750-4-4-6"
         style="stop-color:#000000;stop-opacity:1"
         offset="0" />
      <stop
         id="stop3752-2-7-7"
         style="stop-color:#000000;stop-opacity:0.58823532"
         offset="1" />
    </linearGradient>
    <filter
       color-interpolation-filters="sRGB"
       id="filter3174-4-4-9">
      <feGaussianBlur
         id="feGaussianBlur3176-2-3-4"
         stdDeviation="1.71" />
    </filter>
    <linearGradient
       y2="7.0165396"
       x2="45.447727"
       y1="92.539597"
       x1="45.447727"
       gradientTransform="scale(1.0058652,0.994169)"
       gradientUnits="userSpaceOnUse"
       id="linearGradient4049-7"
       xlink:href="#ButtonShadow-9-2-6"
       inkscape:collect="always" />
    <linearGradient
       y2="7.0165396"
       x2="45.447727"
       y1="92.539597"
       x1="45.447727"
       gradientTransform="scale(1.0058652,0.994169)"
       gradientUnits="userSpaceOnUse"
       id="linearGradient4047-0"
       xlink:href="#ButtonShadow-91-6-6"
       inkscape:collect="always" />
    <linearGradient
       y2="7.0165396"
       x2="45.447727"
       y1="92.539597"
       x1="45.447727"
       gradientTransform="scale(1.0058652,0.994169)"
       gradientUnits="userSpaceOnUse"
       id="linearGradient4045-1"
       xlink:href="#ButtonShadow-3-7"
       inkscape:collect="always" />
    <filter
       id="filter3174-34-6"
       color-interpolation-filters="sRGB">
      <feGaussianBlur
         stdDeviation="1.71"
         id="feGaussianBlur3176-32-5" />
    </filter>
    <linearGradient
       gradientTransform="scale(1.0058652,0.994169)"
       gradientUnits="userSpaceOnUse"
       id="ButtonShadow-3-7"
       y2="7.0165396"
       x2="45.447727"
       y1="92.539597"
       x1="45.447727">
      <stop
         offset="0"
         style="stop-color:#000000;stop-opacity:1"
         id="stop3750-41-6" />
      <stop
         offset="1"
         style="stop-color:#000000;stop-opacity:0.58823532"
         id="stop3752-4-9" />
    </linearGradient>
    <filter
       id="filter3174-2-0-6"
       color-interpolation-filters="sRGB">
      <feGaussianBlur
         stdDeviation="1.71"
         id="feGaussianBlur3176-1-0-4" />
    </filter>
    <linearGradient
       gradientTransform="scale(1.0058652,0.994169)"
       gradientUnits="userSpaceOnUse"
       id="ButtonShadow-9-2-6"
       y2="7.0165396"
       x2="45.447727"
       y1="92.539597"
       x1="45.447727">
      <stop
         offset="0"
         style="stop-color:#000000;stop-opacity:1"
         id="stop3750-3-4-7" />
      <stop
         offset="1"
         style="stop-color:#000000;stop-opacity:0.58823532"
         id="stop3752-0-7-0" />
    </linearGradient>
    <linearGradient
       x1="45.447727"
       y1="92.539597"
       x2="45.447727"
       y2="7.0165396"
       id="ButtonShadow-91-6-6"
       gradientUnits="userSpaceOnUse"
       gradientTransform="scale(1.0058652,0.994169)">
      <stop
         id="stop3750-4-7-8"
         style="stop-color:#000000;stop-opacity:1"
         offset="0" />
      <stop
         id="stop3752-2-68-9"
         style="stop-color:#000000;stop-opacity:0.58823532"
         offset="1" />
    </linearGradient>
    <filter
       color-interpolation-filters="sRGB"
       id="filter3174-4-7-2">
      <feGaussianBlur
         id="feGaussianBlur3176-2-4-8"
         stdDeviation="1.71" />
    </filter>
    <filter
       id="filter3174-44-1"
       color-interpolation-filters="sRGB">
      <feGaussianBlur
         stdDeviation="1.71"
         id="feGaussianBlur3176-3-3" />
    </filter>
    <linearGradient
       gradientTransform="scale(1.0058652,0.994169)"
       gradientUnits="userSpaceOnUse"
       id="ButtonShadow-0-3"
       y2="7.0165396"
       x2="45.447727"
       y1="92.539597"
       x1="45.447727">
      <stop
         offset="0"
         style="stop-color:#000000;stop-opacity:1"
         id="stop3750-2-6" />
      <stop
         offset="1"
         style="stop-color:#000000;stop-opacity:0.58823532"
         id="stop3752-6-8" />
    </linearGradient>
    <filter
       id="filter3174-2-2-8"
       color-interpolation-filters="sRGB">
      <feGaussianBlur
         stdDeviation="1.71"
         id="feGaussianBlur3176-1-3-0" />
    </filter>
    <linearGradient
       gradientTransform="scale(1.0058652,0.994169)"
       gradientUnits="userSpaceOnUse"
       id="ButtonShadow-9-1-0"
       y2="7.0165396"
       x2="45.447727"
       y1="92.539597"
       x1="45.447727">
      <stop
         offset="0"
         style="stop-color:#000000;stop-opacity:1"
         id="stop3750-3-65-2" />
      <stop
         offset="1"
         style="stop-color:#000000;stop-opacity:0.58823532"
         id="stop3752-0-0-3" />
    </linearGradient>
    <linearGradient
       x1="45.447727"
       y1="92.539597"
       x2="45.447727"
       y2="7.0165396"
       id="ButtonShadow-91-7-0"
       gradientUnits="userSpaceOnUse"
       gradientTransform="scale(1.0058652,0.994169)">
      <stop
         id="stop3750-4-4-1"
         style="stop-color:#000000;stop-opacity:1"
         offset="0" />
      <stop
         id="stop3752-2-7-5"
         style="stop-color:#000000;stop-opacity:0.58823532"
         offset="1" />
    </linearGradient>
    <filter
       color-interpolation-filters="sRGB"
       id="filter3174-4-4-2">
      <feGaussianBlur
         id="feGaussianBlur3176-2-3-0"
         stdDeviation="1.71" />
    </filter>
    <filter
       id="filter3174"
       color-interpolation-filters="sRGB">
      <feGaussianBlur
         stdDeviation="1.71"
         id="feGaussianBlur3176" />
    </filter>
    <linearGradient
       gradientTransform="scale(1.0058652,0.994169)"
       gradientUnits="userSpaceOnUse"
       id="ButtonShadow"
       y2="7.0165396"
       x2="45.447727"
       y1="92.539597"
       x1="45.447727">
      <stop
         offset="0"
         style="stop-color:#000000;stop-opacity:1"
         id="stop3750" />
      <stop
         offset="1"
         style="stop-color:#000000;stop-opacity:0.58823532"
         id="stop3752" />
    </linearGradient>
    <filter
       id="filter3174-2"
       color-interpolation-filters="sRGB">
      <feGaussianBlur
         stdDeviation="1.71"
         id="feGaussianBlur3176-1" />
    </filter>
    <linearGradient
       gradientTransform="scale(1.0058652,0.994169)"
       gradientUnits="userSpaceOnUse"
       id="ButtonShadow-9"
       y2="7.0165396"
       x2="45.447727"
       y1="92.539597"
       x1="45.447727">
      <stop
         offset="0"
         style="stop-color:#000000;stop-opacity:1"
         id="stop3750-3" />
      <stop
         offset="1"
         style="stop-color:#000000;stop-opacity:0.58823532"
         id="stop3752-0" />
    </linearGradient>
    <linearGradient
       x1="45.447727"
       y1="92.539597"
       x2="45.447727"
       y2="7.0165396"
       id="ButtonShadow-91"
       gradientUnits="userSpaceOnUse"
       gradientTransform="scale(1.0058652,0.994169)">
      <stop
         id="stop3750-4"
         style="stop-color:#000000;stop-opacity:1"
         offset="0" />
      <stop
         id="stop3752-2"
         style="stop-color:#000000;stop-opacity:0.58823532"
         offset="1" />
    </linearGradient>
    <filter
       color-interpolation-filters="sRGB"
       id="filter3174-4">
      <feGaussianBlur
         id="feGaussianBlur3176-2"
         stdDeviation="1.71" />
    </filter>
    <linearGradient
       id="linearGradient6129-963-697-142-998-580-273-44-2-2-0">
      <stop
         id="stop2661-01-6-2-2"
         style="stop-color:#0a0a0a;stop-opacity:0.498"
         offset="0" />
      <stop
         id="stop2663-64-5-5-9"
         style="stop-color:#0a0a0a;stop-opacity:0"
         offset="1" />
    </linearGradient>
    <filter
       id="filter3174-4-4-2-9"
       color-interpolation-filters="sRGB">
      <feGaussianBlur
         stdDeviation="1.71"
         id="feGaussianBlur3176-2-3-0-8" />
    </filter>
    <linearGradient
       gradientTransform="scale(1.0058652,0.994169)"
       gradientUnits="userSpaceOnUse"
       id="ButtonShadow-91-7-0-6"
       y2="7.0165396"
       x2="45.447727"
       y1="92.539597"
       x1="45.447727">
      <stop
         offset="0"
         style="stop-color:#000000;stop-opacity:1"
         id="stop3750-4-4-1-1" />
      <stop
         offset="1"
         style="stop-color:#000000;stop-opacity:0.58823532"
         id="stop3752-2-7-5-0" />
    </linearGradient>
    <linearGradient
       x1="45.447727"
       y1="92.539597"
       x2="45.447727"
       y2="7.0165396"
       id="ButtonShadow-9-1-0-0"
       gradientUnits="userSpaceOnUse"
       gradientTransform="scale(1.0058652,0.994169)">
      <stop
         id="stop3750-3-65-2-8"
         style="stop-color:#000000;stop-opacity:1"
         offset="0" />
      <stop
         id="stop3752-0-0-3-2"
         style="stop-color:#000000;stop-opacity:0.58823532"
         offset="1" />
    </linearGradient>
    <filter
       color-interpolation-filters="sRGB"
       id="filter3174-2-2-8-84">
      <feGaussianBlur
         id="feGaussianBlur3176-1-3-0-7"
         stdDeviation="1.71" />
    </filter>
    <linearGradient
       x1="45.447727"
       y1="92.539597"
       x2="45.447727"
       y2="7.0165396"
       id="ButtonShadow-0-3-8"
       gradientUnits="userSpaceOnUse"
       gradientTransform="scale(1.0058652,0.994169)">
      <stop
         id="stop3750-2-6-6"
         style="stop-color:#000000;stop-opacity:1"
         offset="0" />
      <stop
         id="stop3752-6-8-6"
         style="stop-color:#000000;stop-opacity:0.58823532"
         offset="1" />
    </linearGradient>
    <filter
       color-interpolation-filters="sRGB"
       id="filter3174-44-1-2">
      <feGaussianBlur
         id="feGaussianBlur3176-3-3-1"
         stdDeviation="1.71" />
    </filter>
    <filter
       id="filter3174-4-7-2-3"
       color-interpolation-filters="sRGB">
      <feGaussianBlur
         stdDeviation="1.71"
         id="feGaussianBlur3176-2-4-8-1" />
    </filter>
    <linearGradient
       gradientTransform="scale(1.0058652,0.994169)"
       gradientUnits="userSpaceOnUse"
       id="ButtonShadow-91-6-6-7"
       y2="7.0165396"
       x2="45.447727"
       y1="92.539597"
       x1="45.447727">
      <stop
         offset="0"
         style="stop-color:#000000;stop-opacity:1"
         id="stop3750-4-7-8-6" />
      <stop
         offset="1"
         style="stop-color:#000000;stop-opacity:0.58823532"
         id="stop3752-2-68-9-9" />
    </linearGradient>
    <linearGradient
       x1="45.447727"
       y1="92.539597"
       x2="45.447727"
       y2="7.0165396"
       id="ButtonShadow-9-2-6-9"
       gradientUnits="userSpaceOnUse"
       gradientTransform="scale(1.0058652,0.994169)">
      <stop
         id="stop3750-3-4-7-7"
         style="stop-color:#000000;stop-opacity:1"
         offset="0" />
      <stop
         id="stop3752-0-7-0-4"
         style="stop-color:#000000;stop-opacity:0.58823532"
         offset="1" />
    </linearGradient>
    <filter
       color-interpolation-filters="sRGB"
       id="filter3174-2-0-6-4">
      <feGaussianBlur
         id="feGaussianBlur3176-1-0-4-0"
         stdDeviation="1.71" />
    </filter>
    <linearGradient
       x1="45.447727"
       y1="92.539597"
       x2="45.447727"
       y2="7.0165396"
       id="ButtonShadow-3-7-82"
       gradientUnits="userSpaceOnUse"
       gradientTransform="scale(1.0058652,0.994169)">
      <stop
         id="stop3750-41-6-3"
         style="stop-color:#000000;stop-opacity:1"
         offset="0" />
      <stop
         id="stop3752-4-9-9"
         style="stop-color:#000000;stop-opacity:0.58823532"
         offset="1" />
    </linearGradient>
    <filter
       color-interpolation-filters="sRGB"
       id="filter3174-34-6-17">
      <feGaussianBlur
         id="feGaussianBlur3176-32-5-9"
         stdDeviation="1.71" />
    </filter>
    <linearGradient
       inkscape:collect="always"
       xlink:href="#ButtonShadow-3-7-82"
       id="linearGradient4045-1-8"
       gradientUnits="userSpaceOnUse"
       gradientTransform="scale(1.0058652,0.994169)"
       x1="45.447727"
       y1="92.539597"
       x2="45.447727"
       y2="7.0165396" />
    <linearGradient
       inkscape:collect="always"
       xlink:href="#ButtonShadow-91-6-6-7"
       id="linearGradient4047-0-1"
       gradientUnits="userSpaceOnUse"
       gradientTransform="scale(1.0058652,0.994169)"
       x1="45.447727"
       y1="92.539597"
       x2="45.447727"
       y2="7.0165396" />
    <linearGradient
       inkscape:collect="always"
       xlink:href="#ButtonShadow-9-2-6-9"
       id="linearGradient4049-7-6"
       gradientUnits="userSpaceOnUse"
       gradientTransform="scale(1.0058652,0.994169)"
       x1="45.447727"
       y1="92.539597"
       x2="45.447727"
       y2="7.0165396" />
    <filter
       id="filter3174-4-4-1"
       color-interpolation-filters="sRGB">
      <feGaussianBlur
         stdDeviation="1.71"
         id="feGaussianBlur3176-2-3-3" />
    </filter>
    <linearGradient
       gradientTransform="scale(1.0058652,0.994169)"
       gradientUnits="userSpaceOnUse"
       id="ButtonShadow-91-7-8"
       y2="7.0165396"
       x2="45.447727"
       y1="92.539597"
       x1="45.447727">
      <stop
         offset="0"
         style="stop-color:#000000;stop-opacity:1"
         id="stop3750-4-4-0" />
      <stop
         offset="1"
         style="stop-color:#000000;stop-opacity:0.58823532"
         id="stop3752-2-7-2" />
    </linearGradient>
    <linearGradient
       x1="45.447727"
       y1="92.539597"
       x2="45.447727"
       y2="7.0165396"
       id="ButtonShadow-9-1-4"
       gradientUnits="userSpaceOnUse"
       gradientTransform="scale(1.0058652,0.994169)">
      <stop
         id="stop3750-3-65-4"
         style="stop-color:#000000;stop-opacity:1"
         offset="0" />
      <stop
         id="stop3752-0-0-38"
         style="stop-color:#000000;stop-opacity:0.58823532"
         offset="1" />
    </linearGradient>
    <filter
       color-interpolation-filters="sRGB"
       id="filter3174-2-2-0">
      <feGaussianBlur
         id="feGaussianBlur3176-1-3-6"
         stdDeviation="1.71" />
    </filter>
    <linearGradient
       x1="45.447727"
       y1="92.539597"
       x2="45.447727"
       y2="7.0165396"
       id="ButtonShadow-0-73"
       gradientUnits="userSpaceOnUse"
       gradientTransform="scale(1.0058652,0.994169)">
      <stop
         id="stop3750-2-5"
         style="stop-color:#000000;stop-opacity:1"
         offset="0" />
      <stop
         id="stop3752-6-5"
         style="stop-color:#000000;stop-opacity:0.58823532"
         offset="1" />
    </linearGradient>
    <filter
       color-interpolation-filters="sRGB"
       id="filter3174-44-32">
      <feGaussianBlur
         id="feGaussianBlur3176-3-8"
         stdDeviation="1.71" />
    </filter>
    <filter
       id="filter3174-4-7-7"
       color-interpolation-filters="sRGB">
      <feGaussianBlur
         stdDeviation="1.71"
         id="feGaussianBlur3176-2-4-7" />
    </filter>
    <linearGradient
       gradientTransform="scale(1.0058652,0.994169)"
       gradientUnits="userSpaceOnUse"
       id="ButtonShadow-91-6-3"
       y2="7.0165396"
       x2="45.447727"
       y1="92.539597"
       x1="45.447727">
      <stop
         offset="0"
         style="stop-color:#000000;stop-opacity:1"
         id="stop3750-4-7-19" />
      <stop
         offset="1"
         style="stop-color:#000000;stop-opacity:0.58823532"
         id="stop3752-2-68-0" />
    </linearGradient>
    <linearGradient
       x1="45.447727"
       y1="92.539597"
       x2="45.447727"
       y2="7.0165396"
       id="ButtonShadow-9-2-5"
       gradientUnits="userSpaceOnUse"
       gradientTransform="scale(1.0058652,0.994169)">
      <stop
         id="stop3750-3-4-6"
         style="stop-color:#000000;stop-opacity:1"
         offset="0" />
      <stop
         id="stop3752-0-7-17"
         style="stop-color:#000000;stop-opacity:0.58823532"
         offset="1" />
    </linearGradient>
    <filter
       color-interpolation-filters="sRGB"
       id="filter3174-2-0-7">
      <feGaussianBlur
         id="feGaussianBlur3176-1-0-3"
         stdDeviation="1.71" />
    </filter>
    <linearGradient
       x1="45.447727"
       y1="92.539597"
       x2="45.447727"
       y2="7.0165396"
       id="ButtonShadow-3-2"
       gradientUnits="userSpaceOnUse"
       gradientTransform="scale(1.0058652,0.994169)">
      <stop
         id="stop3750-41-30"
         style="stop-color:#000000;stop-opacity:1"
         offset="0" />
      <stop
         id="stop3752-4-1"
         style="stop-color:#000000;stop-opacity:0.58823532"
         offset="1" />
    </linearGradient>
    <filter
       color-interpolation-filters="sRGB"
       id="filter3174-34-4">
      <feGaussianBlur
         id="feGaussianBlur3176-32-7"
         stdDeviation="1.71" />
    </filter>
    <linearGradient
       inkscape:collect="always"
       xlink:href="#ButtonShadow-3-2"
       id="linearGradient4045-41"
       gradientUnits="userSpaceOnUse"
       gradientTransform="scale(1.0058652,0.994169)"
       x1="45.447727"
       y1="92.539597"
       x2="45.447727"
       y2="7.0165396" />
    <linearGradient
       inkscape:collect="always"
       xlink:href="#ButtonShadow-91-6-3"
       id="linearGradient4047-1"
       gradientUnits="userSpaceOnUse"
       gradientTransform="scale(1.0058652,0.994169)"
       x1="45.447727"
       y1="92.539597"
       x2="45.447727"
       y2="7.0165396" />
    <linearGradient
       inkscape:collect="always"
       xlink:href="#ButtonShadow-9-2-5"
       id="linearGradient4049-9"
       gradientUnits="userSpaceOnUse"
       gradientTransform="scale(1.0058652,0.994169)"
       x1="45.447727"
       y1="92.539597"
       x2="45.447727"
       y2="7.0165396" />
    <linearGradient
       id="linearGradient4343">
      <stop
         id="stop4345"
         offset="0"
         style="stop-color:white;stop-opacity:0.78431374;" />
      <stop
         id="stop4347"
         offset="1"
         style="stop-color:white;stop-opacity:0;" />
    </linearGradient>
    <linearGradient
       id="linearGradient4063">
      <stop
         id="stop4065"
         offset="0"
         style="stop-color:white;stop-opacity:0.15686275;" />
      <stop
         id="stop4067"
         offset="1"
         style="stop-color:white;stop-opacity:0;" />
    </linearGradient>
    <linearGradient
       inkscape:collect="always"
       xlink:href="#linearGradient4063"
       id="linearGradient4616"
       gradientUnits="userSpaceOnUse"
       gradientTransform="matrix(0.43835809,0,0,0.42956999,1.993135,3.6716991)"
       x1="20"
       y1="42"
       x2="20"
       y2="29" />
    <linearGradient
       inkscape:collect="always"
       xlink:href="#linearGradient6129-963-697-142-998-580-273-44-2-2-0"
       id="linearGradient4619"
       gradientUnits="userSpaceOnUse"
       gradientTransform="matrix(0.4905825,0,0,0.49887679,19.508902,0.05647946)"
       x1="-18.800482"
       y1="44.988102"
       x2="-18.800482"
       y2="34.965588" />
    <linearGradient
       inkscape:collect="always"
       xlink:href="#linearGradient4343"
       id="linearGradient4623"
       gradientUnits="userSpaceOnUse"
       gradientTransform="matrix(0.44444445,0,0,0.30769232,1.7222229,2.653846)"
       x1="20"
       y1="12"
       x2="20"
       y2="31.617647" />
    <linearGradient
       inkscape:collect="always"
       xlink:href="#linearGradient933-0-5"
       id="linearGradient4701-8"
       gradientUnits="userSpaceOnUse"
       gradientTransform="matrix(1.0441278,0,0,1.0746012,62.363198,-16.595271)"
       x1="-28.531403"
       y1="18.645372"
       x2="-28.531403"
       y2="35.589085" />
    <linearGradient
       id="linearGradient933-0-5">
      <stop
         id="stop935-7-4"
         style="stop-color:#ffffff;stop-opacity:1"
         offset="0" />
      <stop
         id="stop937-2-2"
         style="stop-color:#cdcdcd;stop-opacity:1"
         offset="0.70000005" />
      <stop
         id="stop939-0-3"
         style="stop-color:#a1a1a1;stop-opacity:1"
         offset="1" />
    </linearGradient>
    <linearGradient
       inkscape:collect="always"
       xlink:href="#linearGradient5157-9-5-8"
       id="linearGradient4703-9"
       gradientUnits="userSpaceOnUse"
       gradientTransform="matrix(1.0441278,0,0,1.0746012,26.468168,-1.0121309)"
       x1="9.8763561"
       y1="2.6014566"
       x2="9.8763561"
       y2="22.113136" />
    <linearGradient
       id="linearGradient5157-9-5-8">
      <stop
         offset="0"
         style="stop-color:#b5b5b5;stop-opacity:1;"
         id="stop5159-3-4-5" />
      <stop
         offset="1"
         style="stop-color:#5d5d5d;stop-opacity:1;"
         id="stop5161-0-6-7" />
    </linearGradient>
    <linearGradient
       inkscape:collect="always"
       xlink:href="#linearGradient4494-6-4-8"
       id="linearGradient4683-4"
       gradientUnits="userSpaceOnUse"
       gradientTransform="matrix(0.29181653,0,0,0.2903326,-80.275076,-149.71022)"
       x1="404.57297"
       y1="537.98169"
       x2="404.57297"
       y2="589.04877" />
    <linearGradient
       id="linearGradient4494-6-4-8">
      <stop
         id="stop4496-8-1-5"
         style="stop-color:#c8eda8;stop-opacity:1"
         offset="0" />
      <stop
         id="stop4498-8-5-3"
         style="stop-color:#7bdb25;stop-opacity:1"
         offset="1" />
    </linearGradient>
    <linearGradient
       inkscape:collect="always"
       xlink:href="#linearGradient3390-4-1-27-5"
       id="linearGradient4685-2"
       gradientUnits="userSpaceOnUse"
       gradientTransform="matrix(0.91700396,0,0,0.95777623,-25.748436,1.4200493)"
       x1="65.869827"
       y1="21.104483"
       x2="65.869827"
       y2="5.6443739" />
    <linearGradient
       id="linearGradient3390-4-1-27-5">
      <stop
         offset="0"
         style="stop-color:#496034;stop-opacity:1"
         id="stop3392-3-8-1-9" />
      <stop
         offset="1"
         style="stop-color:#758e5e;stop-opacity:1"
         id="stop3394-2-0-7-7" />
    </linearGradient>
  </defs>
  <path
     style="color:black;fill:url(#linearGradient4701-8);fill-opacity:1;fill-rule:nonzero;stroke:url(#linearGradient4703-9);stroke-width:1;stroke-linecap:round;stroke-linejoin:round;stroke-miterlimit:4;stroke-opacity:1;stroke-dasharray:none;stroke-dashoffset:0;marker:none;visibility:visible;display:inline;overflow:visible;enable-background:accumulate"
     inkscape:connector-curvature="0"
     id="path42"
     d="m 5.50008,1.4886176 c 0,0 -1,0.09159 -1,0.9998893 L 4.49992,3.4885661 3.5,3.4883961 c 0,0 -2,-0.3332537 -2,1.9998915 l 0,15.0000004 c 0,2.288652 2,2 2,2 l 16.000001,-0.0024 0,-16.9976154 c 0,0 0.266543,-1.9998765 -2.000001,-1.9998765 l -4,0 0,-0.9998892 c 0,-1.002429 -1,-1.0002193 -1,-1.0002193 z"
     sodipodi:nodetypes="ccccsscccccscc" />
  <g
     id="layer2-8"
     style="display:none"
     transform="matrix(0.99945236,0,0,1,127.56835,-198.73887)">
    <rect
       width="86"
       height="85"
       rx="6.0032878"
       ry="6"
       x="5"
       y="7"
       id="rect3745-0"
       style="opacity:0.9;fill:url(#ButtonShadow-0);fill-opacity:1;fill-rule:nonzero;stroke:none;filter:url(#filter3174-44)" />
  </g>
  <g
     id="layer4-39"
     transform="matrix(0.99945236,0,0,1,127.56835,-198.73887)" />
  <g
     id="layer2-0-0"
     style="display:none"
     transform="matrix(0.99945236,0,0,1,154.11818,-188.28501)">
    <rect
       width="86"
       height="85"
       rx="6.0032878"
       ry="6"
       x="5"
       y="7"
       id="rect3745-7-1"
       style="opacity:0.9;fill:url(#ButtonShadow-91-7);fill-opacity:1;fill-rule:nonzero;stroke:none;filter:url(#filter3174-4-4)" />
  </g>
  <g
     id="layer4-3-6"
     transform="matrix(0.99945236,0,0,1,154.11818,-188.28501)" />
  <g
     id="layer2-1-5"
     style="display:none"
     transform="matrix(0.99945236,0,0,1,210.21244,-185.34978)">
    <rect
       width="86"
       height="85"
       rx="6.0032878"
       ry="6"
       x="5"
       y="7"
       id="rect3745-1-3"
       style="opacity:0.9;fill:url(#ButtonShadow-9-1);fill-opacity:1;fill-rule:nonzero;stroke:none;filter:url(#filter3174-2-2)" />
  </g>
  <g
     id="layer4-8-2"
     transform="matrix(0.99945236,0,0,1,210.21244,-185.34978)" />
  <g
     id="layer2"
     style="display:none"
     transform="translate(103.63765,-205.02027)">
    <rect
       width="86"
       height="85"
       rx="6"
       ry="6"
       x="5"
       y="7"
       id="rect3745"
       style="opacity:0.9;fill:url(#linearGradient4045);fill-opacity:1;fill-rule:nonzero;stroke:none;filter:url(#filter3174-34)" />
  </g>
  <g
     id="layer4"
     transform="translate(103.63765,-205.02027)" />
  <g
     id="layer2-0"
     style="display:none"
     transform="translate(130.20204,-194.56641)">
    <rect
       width="86"
       height="85"
       rx="6"
       ry="6"
       x="5"
       y="7"
       id="rect3745-7"
       style="opacity:0.9;fill:url(#linearGradient4047);fill-opacity:1;fill-rule:nonzero;stroke:none;filter:url(#filter3174-4-7)" />
  </g>
  <g
     id="layer4-3"
     transform="translate(130.20204,-194.56641)" />
  <g
     id="layer2-1"
     style="display:none"
     transform="translate(186.32703,-191.63118)">
    <rect
       width="86"
       height="85"
       rx="6"
       ry="6"
       x="5"
       y="7"
       id="rect3745-1"
       style="opacity:0.9;fill:url(#linearGradient4049);fill-opacity:1;fill-rule:nonzero;stroke:none;filter:url(#filter3174-2-0)" />
  </g>
  <g
     id="layer4-8"
     transform="translate(186.32703,-191.63118)" />
  <g
     id="layer2-16"
     style="display:none"
     transform="translate(-43.686565,-194.78881)">
    <rect
       width="86"
       height="85"
       rx="6"
       ry="6"
       x="5"
       y="7"
       id="rect3745-6"
       style="opacity:0.9;fill:url(#ButtonShadow);fill-opacity:1;fill-rule:nonzero;stroke:none;filter:url(#filter3174)" />
  </g>
  <g
     id="layer4-4"
     transform="translate(-43.686565,-194.78881)" />
  <g
     id="layer2-0-6"
     style="display:none"
     transform="translate(-17.122184,-184.33495)">
    <rect
       width="86"
       height="85"
       rx="6"
       ry="6"
       x="5"
       y="7"
       id="rect3745-7-9"
       style="opacity:0.9;fill:url(#ButtonShadow-91);fill-opacity:1;fill-rule:nonzero;stroke:none;filter:url(#filter3174-4)" />
  </g>
  <g
     id="layer4-3-4"
     transform="translate(-17.122184,-184.33495)" />
  <g
     id="layer2-1-4"
     style="display:none"
     transform="translate(39.002817,-181.39972)">
    <rect
       width="86"
       height="85"
       rx="6"
       ry="6"
       x="5"
       y="7"
       id="rect3745-1-25"
       style="opacity:0.9;fill:url(#ButtonShadow-9);fill-opacity:1;fill-rule:nonzero;stroke:none;filter:url(#filter3174-2)" />
  </g>
  <g
     id="layer4-8-8"
     transform="translate(39.002817,-181.39972)" />
  <path
     sodipodi:nodetypes="cccccccccccccccccccccccc"
     inkscape:connector-curvature="0"
     id="path4301"
     d="m 8,9 -1,1 0,9 1,1 11,0 1,-1 0,-9 -1,-1 z m 1,1 2,0 0,2 -2,0 z m 0,4 2,0 0,2 -2,0 z m 0,4 9,0 0,1 -9,0 z"
     style="color:black;fill:white;fill-opacity:0.50196078;fill-rule:evenodd;stroke:none;stroke-width:3pt;marker:none;visibility:visible;display:inline;overflow:visible;enable-background:accumulate" />
  <path
     style="color:black;fill:#002a3c;fill-opacity:0.74509804;fill-rule:evenodd;stroke:none;stroke-width:3pt;marker:none;visibility:visible;display:inline;overflow:visible;enable-background:accumulate"
     d="m 8,8 -1,1 0,9 1,1 11,0 1,-1 0,-9 -1,-1 z m 1,1 2,0 0,2 -2,0 z m 0,4 2,0 0,2 -2,0 z m 0,4 9,0 0,1 -9,0 z"
     id="path4098"
     inkscape:connector-curvature="0"
     sodipodi:nodetypes="cccccccccccccccccccccccc" />
  <g
     id="layer2-8-0"
     style="display:none"
     transform="matrix(0.99945236,0,0,1,101.98325,-184.10942)">
    <rect
       width="86"
       height="85"
       rx="6.0032878"
       ry="6"
       x="5"
       y="7"
       id="rect3745-0-5"
       style="opacity:0.9;fill:url(#ButtonShadow-0-7);fill-opacity:1;fill-rule:nonzero;stroke:none;filter:url(#filter3174-44-3)" />
  </g>
  <g
     id="layer4-39-9"
     transform="matrix(0.99945236,0,0,1,101.98325,-184.10942)" />
  <g
     id="layer2-0-0-7"
     style="display:none"
     transform="matrix(0.99945236,0,0,1,128.53308,-173.65556)">
    <rect
       width="86"
       height="85"
       rx="6.0032878"
       ry="6"
       x="5"
       y="7"
       id="rect3745-7-1-96"
       style="opacity:0.9;fill:url(#ButtonShadow-91-7-5);fill-opacity:1;fill-rule:nonzero;stroke:none;filter:url(#filter3174-4-4-9)" />
  </g>
  <g
     id="layer4-3-6-7"
     transform="matrix(0.99945236,0,0,1,128.53308,-173.65556)" />
  <g
     id="layer2-1-5-89"
     style="display:none"
     transform="matrix(0.99945236,0,0,1,184.62734,-170.72033)">
    <rect
       width="86"
       height="85"
       rx="6.0032878"
       ry="6"
       x="5"
       y="7"
       id="rect3745-1-3-09"
       style="opacity:0.9;fill:url(#ButtonShadow-9-1-3);fill-opacity:1;fill-rule:nonzero;stroke:none;filter:url(#filter3174-2-2-3)" />
  </g>
  <g
     id="layer4-8-2-6"
     transform="matrix(0.99945236,0,0,1,184.62734,-170.72033)" />
  <g
     id="layer2-03"
     style="display:none"
     transform="translate(78.052554,-190.39082)">
    <rect
       width="86"
       height="85"
       rx="6"
       ry="6"
       x="5"
       y="7"
       id="rect3745-2"
       style="opacity:0.9;fill:url(#linearGradient4045-4);fill-opacity:1;fill-rule:nonzero;stroke:none;filter:url(#filter3174-34-1)" />
  </g>
  <g
     id="layer4-7"
     transform="translate(78.052554,-190.39082)" />
  <g
     id="layer2-0-9"
     style="display:none"
     transform="translate(104.61694,-179.93696)">
    <rect
       width="86"
       height="85"
       rx="6"
       ry="6"
       x="5"
       y="7"
       id="rect3745-7-6"
       style="opacity:0.9;fill:url(#linearGradient4047-9);fill-opacity:1;fill-rule:nonzero;stroke:none;filter:url(#filter3174-4-7-27)" />
  </g>
  <g
     id="layer4-3-34"
     transform="translate(104.61694,-179.93696)" />
  <g
     id="layer2-1-2"
     style="display:none"
     transform="translate(160.74193,-177.00173)">
    <rect
       width="86"
       height="85"
       rx="6"
       ry="6"
       x="5"
       y="7"
       id="rect3745-1-21"
       style="opacity:0.9;fill:url(#linearGradient4049-3);fill-opacity:1;fill-rule:nonzero;stroke:none;filter:url(#filter3174-2-0-3)" />
  </g>
  <g
     id="layer4-8-7"
     transform="translate(160.74193,-177.00173)" />
  <g
     id="layer2-8-6"
     style="display:none"
     transform="matrix(0.99945236,0,0,1,101.80736,-180.64953)">
    <rect
       width="86"
       height="85"
       rx="6.0032878"
       ry="6"
       x="5"
       y="7"
       id="rect3745-0-8"
       style="opacity:0.9;fill:url(#ButtonShadow-0-3);fill-opacity:1;fill-rule:nonzero;stroke:none;filter:url(#filter3174-44-1)" />
  </g>
  <g
     id="layer4-39-0"
     transform="matrix(0.99945236,0,0,1,101.80736,-180.64953)" />
  <g
     id="layer2-0-0-4"
     style="display:none"
     transform="matrix(0.99945236,0,0,1,128.35719,-170.19567)">
    <rect
       width="86"
       height="85"
       rx="6.0032878"
       ry="6"
       x="5"
       y="7"
       id="rect3745-7-1-9"
       style="opacity:0.9;fill:url(#ButtonShadow-91-7-0);fill-opacity:1;fill-rule:nonzero;stroke:none;filter:url(#filter3174-4-4-2)" />
  </g>
  <g
     id="layer4-3-6-5"
     transform="matrix(0.99945236,0,0,1,128.35719,-170.19567)" />
  <g
     id="layer2-1-5-8"
     style="display:none"
     transform="matrix(0.99945236,0,0,1,184.45146,-167.26044)">
    <rect
       width="86"
       height="85"
       rx="6.0032878"
       ry="6"
       x="5"
       y="7"
       id="rect3745-1-3-0"
       style="opacity:0.9;fill:url(#ButtonShadow-9-1-0);fill-opacity:1;fill-rule:nonzero;stroke:none;filter:url(#filter3174-2-2-8)" />
  </g>
  <g
     id="layer4-8-2-3"
     transform="matrix(0.99945236,0,0,1,184.45146,-167.26044)" />
  <g
     id="layer2-89"
     style="display:none"
     transform="translate(77.876665,-186.93093)">
    <rect
       width="86"
       height="85"
       rx="6"
       ry="6"
       x="5"
       y="7"
       id="rect3745-16"
       style="opacity:0.9;fill:url(#linearGradient4045-1);fill-opacity:1;fill-rule:nonzero;stroke:none;filter:url(#filter3174-34-6)" />
  </g>
  <g
     id="layer4-9"
     transform="translate(77.876665,-186.93093)" />
  <g
     id="layer2-0-7"
     style="display:none"
     transform="translate(104.44105,-176.47707)">
    <rect
       width="86"
       height="85"
       rx="6"
       ry="6"
       x="5"
       y="7"
       id="rect3745-7-0"
       style="opacity:0.9;fill:url(#linearGradient4047-0);fill-opacity:1;fill-rule:nonzero;stroke:none;filter:url(#filter3174-4-7-2)" />
  </g>
  <g
     id="layer4-3-8"
     transform="translate(104.44105,-176.47707)" />
  <g
     id="layer2-1-6"
     style="display:none"
     transform="translate(160.56605,-173.54184)">
    <rect
       width="86"
       height="85"
       rx="6"
       ry="6"
       x="5"
       y="7"
       id="rect3745-1-2"
       style="opacity:0.9;fill:url(#linearGradient4049-7);fill-opacity:1;fill-rule:nonzero;stroke:none;filter:url(#filter3174-2-0-6)" />
  </g>
  <g
     id="layer4-8-4"
     transform="translate(160.56605,-173.54184)" />
  <g
     style="color:black;fill:#002a3c;fill-opacity:0.74509804;fill-rule:evenodd;stroke:none;stroke-width:3pt;marker:none;visibility:visible;display:inline;overflow:visible;enable-background:accumulate"
     id="layer4-88"
     transform="translate(142.57116,-139.1446)" />
  <g
     style="color:black;fill:#002a3c;fill-opacity:0.74509804;fill-rule:evenodd;stroke:none;stroke-width:3pt;marker:none;visibility:visible;display:inline;overflow:visible;enable-background:accumulate"
     id="layer4-3-3"
     transform="translate(169.13555,-128.69074)" />
  <g
     style="color:black;fill:#002a3c;fill-opacity:0.74509804;fill-rule:evenodd;stroke:none;stroke-width:3pt;marker:none;visibility:visible;display:inline;overflow:visible;enable-background:accumulate"
     id="layer4-8-21"
     transform="translate(225.26055,-125.75551)" />
  <rect
     style="color:black;fill:url(#linearGradient4683-4);fill-opacity:1;fill-rule:nonzero;stroke:url(#linearGradient4685-2);stroke-width:1;stroke-linecap:round;stroke-linejoin:round;stroke-miterlimit:4;stroke-opacity:1;stroke-dasharray:none;stroke-dashoffset:0;marker:none;visibility:visible;display:inline;overflow:visible;enable-background:accumulate"
     id="rect3194"
     width="18"
     height="17"
     x="4.5"
     y="5.5"
     ry="2" />
  <g
     style="color:black;fill:#002a3c;fill-opacity:0.74509804;fill-rule:evenodd;stroke:none;stroke-width:3pt;marker:none;visibility:visible;display:inline;overflow:visible;enable-background:accumulate"
     id="layer4-6"
     transform="translate(28.185213,-202.55047)" />
  <g
     style="color:black;fill:#002a3c;fill-opacity:0.74509804;fill-rule:evenodd;stroke:none;stroke-width:3pt;marker:none;visibility:visible;display:inline;overflow:visible;enable-background:accumulate"
     id="layer4-3-5"
     transform="translate(54.749594,-192.09661)" />
  <g
     style="color:black;fill:#002a3c;fill-opacity:0.74509804;fill-rule:evenodd;stroke:none;stroke-width:3pt;marker:none;visibility:visible;display:inline;overflow:visible;enable-background:accumulate"
     id="layer4-8-74"
     transform="translate(110.8746,-189.16138)" />
  <g
     style="color:black;fill:#002a3c;fill-opacity:0.74509804;fill-rule:evenodd;stroke:none;stroke-width:3.00082188pt;marker:none;visibility:visible;display:inline;overflow:visible;enable-background:accumulate"
     id="layer4-39-9-0"
     transform="matrix(0.99945236,0,0,1,173.85503,-191.87108)" />
  <g
     style="color:black;fill:#002a3c;fill-opacity:0.74509804;fill-rule:evenodd;stroke:none;stroke-width:3.00082188pt;marker:none;visibility:visible;display:inline;overflow:visible;enable-background:accumulate"
     id="layer4-3-6-1"
     transform="matrix(0.99945236,0,0,1,200.40486,-181.41722)" />
  <g
     style="color:black;fill:#002a3c;fill-opacity:0.74509804;fill-rule:evenodd;stroke:none;stroke-width:3.00082188pt;marker:none;visibility:visible;display:inline;overflow:visible;enable-background:accumulate"
     id="layer4-8-2-1"
     transform="matrix(0.99945236,0,0,1,256.49912,-178.48199)" />
  <g
     style="color:black;fill:#002a3c;fill-opacity:0.74509804;fill-rule:evenodd;stroke:none;stroke-width:3pt;marker:none;visibility:visible;display:inline;overflow:visible;enable-background:accumulate"
     id="layer4-7-2"
     transform="translate(149.92433,-198.15248)" />
  <g
     style="color:black;fill:#002a3c;fill-opacity:0.74509804;fill-rule:evenodd;stroke:none;stroke-width:3pt;marker:none;visibility:visible;display:inline;overflow:visible;enable-background:accumulate"
     id="layer4-3-34-4"
     transform="translate(176.48872,-187.69862)" />
  <g
     style="color:black;fill:#002a3c;fill-opacity:0.74509804;fill-rule:evenodd;stroke:none;stroke-width:3pt;marker:none;visibility:visible;display:inline;overflow:visible;enable-background:accumulate"
     id="layer4-8-7-9"
     transform="translate(232.61371,-184.76339)" />
  <g
     style="color:black;fill:#002a3c;fill-opacity:0.74509804;fill-rule:evenodd;stroke:none;stroke-width:3.00082188pt;marker:none;visibility:visible;display:inline;overflow:visible;enable-background:accumulate"
     id="layer4-39-0-8"
     transform="matrix(0.99945236,0,0,1,173.67914,-188.41119)" />
  <g
     style="color:black;fill:#002a3c;fill-opacity:0.74509804;fill-rule:evenodd;stroke:none;stroke-width:3.00082188pt;marker:none;visibility:visible;display:inline;overflow:visible;enable-background:accumulate"
     id="layer4-3-6-5-4"
     transform="matrix(0.99945236,0,0,1,200.22897,-177.95733)" />
  <g
     style="color:black;fill:#002a3c;fill-opacity:0.74509804;fill-rule:evenodd;stroke:none;stroke-width:3.00082188pt;marker:none;visibility:visible;display:inline;overflow:visible;enable-background:accumulate"
     id="layer4-8-2-3-0"
     transform="matrix(0.99945236,0,0,1,256.32324,-175.0221)" />
  <g
     style="color:black;fill:#002a3c;fill-opacity:0.74509804;fill-rule:evenodd;stroke:none;stroke-width:3pt;marker:none;visibility:visible;display:inline;overflow:visible;enable-background:accumulate"
     id="layer4-9-8"
     transform="translate(149.74845,-194.69259)" />
  <g
     style="color:black;fill:#002a3c;fill-opacity:0.74509804;fill-rule:evenodd;stroke:none;stroke-width:3pt;marker:none;visibility:visible;display:inline;overflow:visible;enable-background:accumulate"
     id="layer4-3-8-3"
     transform="translate(176.31283,-184.23873)" />
  <g
     style="color:black;fill:#002a3c;fill-opacity:0.74509804;fill-rule:evenodd;stroke:none;stroke-width:3pt;marker:none;visibility:visible;display:inline;overflow:visible;enable-background:accumulate"
     id="layer4-8-4-6"
     transform="translate(232.43783,-181.3035)" />
  <g
     style="color:black;fill:#002a3c;fill-opacity:0.74509804;fill-rule:evenodd;stroke:none;stroke-width:3pt;marker:none;visibility:visible;display:inline;overflow:visible;enable-background:accumulate"
     id="layer4-88-8"
     transform="translate(214.44294,-146.90626)" />
  <g
     style="color:black;fill:#002a3c;fill-opacity:0.74509804;fill-rule:evenodd;stroke:none;stroke-width:3pt;marker:none;visibility:visible;display:inline;overflow:visible;enable-background:accumulate"
     id="layer4-3-3-3"
     transform="translate(241.00733,-136.4524)" />
  <g
     style="color:black;fill:#002a3c;fill-opacity:0.74509804;fill-rule:evenodd;stroke:none;stroke-width:3pt;marker:none;visibility:visible;display:inline;overflow:visible;enable-background:accumulate"
     id="layer4-8-21-2"
     transform="translate(297.13233,-133.51717)" />
  <g
     id="layer2-8-8"
     style="display:none"
     transform="matrix(0.99945236,0,0,1,127.49048,-196.62248)">
    <rect
       width="86"
       height="85"
       rx="6.0032878"
       ry="6"
       x="5"
       y="7"
       id="rect3745-0-6"
       style="opacity:0.9;fill:url(#ButtonShadow-0-73);fill-opacity:1;fill-rule:nonzero;stroke:none;filter:url(#filter3174-44-32)" />
  </g>
  <g
     id="layer4-39-05"
     transform="matrix(0.99945236,0,0,1,127.49048,-196.62248)" />
  <g
     id="layer2-0-0-3"
     style="display:none"
     transform="matrix(0.99945236,0,0,1,154.04031,-186.16862)">
    <rect
       width="86"
       height="85"
       rx="6.0032878"
       ry="6"
       x="5"
       y="7"
       id="rect3745-7-1-8"
       style="opacity:0.9;fill:url(#ButtonShadow-91-7-8);fill-opacity:1;fill-rule:nonzero;stroke:none;filter:url(#filter3174-4-4-1)" />
  </g>
  <g
     id="layer4-3-6-3"
     transform="matrix(0.99945236,0,0,1,154.04031,-186.16862)" />
  <g
     id="layer2-1-5-2"
     style="display:none"
     transform="matrix(0.99945236,0,0,1,210.13457,-183.23339)">
    <rect
       width="86"
       height="85"
       rx="6.0032878"
       ry="6"
       x="5"
       y="7"
       id="rect3745-1-3-3"
       style="opacity:0.9;fill:url(#ButtonShadow-9-1-4);fill-opacity:1;fill-rule:nonzero;stroke:none;filter:url(#filter3174-2-2-0)" />
  </g>
  <g
     id="layer4-8-2-7"
     transform="matrix(0.99945236,0,0,1,210.13457,-183.23339)" />
  <g
     id="layer2-4"
     style="display:none"
     transform="translate(103.55978,-202.90388)">
    <rect
       width="86"
       height="85"
       rx="6"
       ry="6"
       x="5"
       y="7"
       id="rect3745-65"
       style="opacity:0.9;fill:url(#linearGradient4045-41);fill-opacity:1;fill-rule:nonzero;stroke:none;filter:url(#filter3174-34-4)" />
  </g>
  <g
     id="layer4-0"
     transform="translate(103.55978,-202.90388)" />
  <g
     id="layer2-0-3"
     style="display:none"
     transform="translate(130.12417,-192.45002)">
    <rect
       width="86"
       height="85"
       rx="6"
       ry="6"
       x="5"
       y="7"
       id="rect3745-7-3"
       style="opacity:0.9;fill:url(#linearGradient4047-1);fill-opacity:1;fill-rule:nonzero;stroke:none;filter:url(#filter3174-4-7-7)" />
  </g>
  <g
     id="layer4-3-7"
     transform="translate(130.12417,-192.45002)" />
  <g
     id="layer2-1-25"
     style="display:none"
     transform="translate(186.24916,-189.51479)">
    <rect
       width="86"
       height="85"
       rx="6"
       ry="6"
       x="5"
       y="7"
       id="rect3745-1-5"
       style="opacity:0.9;fill:url(#linearGradient4049-9);fill-opacity:1;fill-rule:nonzero;stroke:none;filter:url(#filter3174-2-0-7)" />
  </g>
  <g
     id="layer4-8-42"
     transform="translate(186.24916,-189.51479)" />
  <g
     id="layer2-8-6-6"
     style="display:none"
     transform="matrix(0.99945236,0,0,1,127.31459,-193.16259)">
    <rect
       width="86"
       height="85"
       rx="6.0032878"
       ry="6"
       x="5"
       y="7"
       id="rect3745-0-8-6"
       style="opacity:0.9;fill:url(#ButtonShadow-0-3-8);fill-opacity:1;fill-rule:nonzero;stroke:none;filter:url(#filter3174-44-1-2)" />
  </g>
  <g
     id="layer4-39-0-1"
     transform="matrix(0.99945236,0,0,1,127.31459,-193.16259)" />
  <g
     id="layer2-0-0-4-6"
     style="display:none"
     transform="matrix(0.99945236,0,0,1,153.86442,-182.70873)">
    <rect
       width="86"
       height="85"
       rx="6.0032878"
       ry="6"
       x="5"
       y="7"
       id="rect3745-7-1-9-7"
       style="opacity:0.9;fill:url(#ButtonShadow-91-7-0-6);fill-opacity:1;fill-rule:nonzero;stroke:none;filter:url(#filter3174-4-4-2-9)" />
  </g>
  <g
     id="layer4-3-6-5-3"
     transform="matrix(0.99945236,0,0,1,153.86442,-182.70873)" />
  <g
     id="layer2-1-5-8-0"
     style="display:none"
     transform="matrix(0.99945236,0,0,1,209.95869,-179.7735)">
    <rect
       width="86"
       height="85"
       rx="6.0032878"
       ry="6"
       x="5"
       y="7"
       id="rect3745-1-3-0-4"
       style="opacity:0.9;fill:url(#ButtonShadow-9-1-0-0);fill-opacity:1;fill-rule:nonzero;stroke:none;filter:url(#filter3174-2-2-8-84)" />
  </g>
  <g
     id="layer4-8-2-3-5"
     transform="matrix(0.99945236,0,0,1,209.95869,-179.7735)" />
  <g
     id="layer2-89-8"
     style="display:none"
     transform="translate(103.38389,-199.44399)">
    <rect
       width="86"
       height="85"
       rx="6"
       ry="6"
       x="5"
       y="7"
       id="rect3745-16-2"
       style="opacity:0.9;fill:url(#linearGradient4045-1-8);fill-opacity:1;fill-rule:nonzero;stroke:none;filter:url(#filter3174-34-6-17)" />
  </g>
  <g
     id="layer4-9-5"
     transform="translate(103.38389,-199.44399)" />
  <g
     id="layer2-0-7-5"
     style="display:none"
     transform="translate(129.94828,-188.99013)">
    <rect
       width="86"
       height="85"
       rx="6"
       ry="6"
       x="5"
       y="7"
       id="rect3745-7-0-5"
       style="opacity:0.9;fill:url(#linearGradient4047-0-1);fill-opacity:1;fill-rule:nonzero;stroke:none;filter:url(#filter3174-4-7-2-3)" />
  </g>
  <g
     id="layer4-3-8-38"
     transform="translate(129.94828,-188.99013)" />
  <g
     id="layer2-1-6-8"
     style="display:none"
     transform="translate(186.07328,-186.0549)">
    <rect
       width="86"
       height="85"
       rx="6"
       ry="6"
       x="5"
       y="7"
       id="rect3745-1-2-8"
       style="opacity:0.9;fill:url(#linearGradient4049-7-6);fill-opacity:1;fill-rule:nonzero;stroke:none;filter:url(#filter3174-2-0-6-4)" />
  </g>
  <g
     id="layer4-8-4-5"
     transform="translate(186.07328,-186.0549)" />
  <g
     style="color:black;fill:#002a3c;fill-opacity:0.74509804;fill-rule:evenodd;stroke:none;stroke-width:3pt;marker:none;visibility:visible;display:inline;overflow:visible;enable-background:accumulate"
     id="layer4-88-4"
     transform="translate(168.07839,-151.65766)" />
  <g
     style="color:black;fill:#002a3c;fill-opacity:0.74509804;fill-rule:evenodd;stroke:none;stroke-width:3pt;marker:none;visibility:visible;display:inline;overflow:visible;enable-background:accumulate"
     id="layer4-3-3-5"
     transform="translate(194.64278,-141.2038)" />
  <g
     style="color:black;fill:#002a3c;fill-opacity:0.74509804;fill-rule:evenodd;stroke:none;stroke-width:3pt;marker:none;visibility:visible;display:inline;overflow:visible;enable-background:accumulate"
     id="layer4-8-21-25"
     transform="translate(250.76778,-138.26857)" />
  <rect
     style="color:black;fill:none;stroke:url(#linearGradient4623);stroke-width:0.99999994;stroke-linecap:round;stroke-linejoin:round;stroke-miterlimit:4;stroke-opacity:1;stroke-dasharray:none;stroke-dashoffset:0;marker:none;visibility:visible;display:inline;overflow:visible;enable-background:accumulate"
     id="rect4341"
     width="16"
     height="8"
     x="5.5"
     y="6.5"
     ry="1" />
  <path
     style="color:black;fill:white;fill-opacity:0.35294118;fill-rule:nonzero;stroke:none;stroke-width:1;marker:none;visibility:visible;display:inline;overflow:visible;enable-background:accumulate"
     d="M 2,7 2,8 4,8 4,7 z m 0,2 0,1 2,0 0,-1 z m 0,2 0,1 2,0 0,-1 z m 0,2 0,1 2,0 0,-1 z m 0,2 0,1 2,0 0,-1 z m 0,2 0,1 2,0 0,-1 z m 0,2 0,1 2,0 0,-1 z"
     id="rect4385"
     inkscape:connector-curvature="0"
     sodipodi:nodetypes="ccccccccccccccccccccccccccccccccccc" />
  <rect
     style="opacity:0.5;color:black;fill:url(#linearGradient4619);fill-opacity:1;fill-rule:nonzero;stroke:none;stroke-width:1;marker:none;visibility:visible;display:inline;overflow:visible;enable-background:accumulate"
     id="rect4217"
     width="15"
     height="6"
     x="6"
     y="15" />
  <path
     sodipodi:nodetypes="ccccccccc"
     inkscape:connector-curvature="0"
     style="color:black;fill:none;stroke:url(#linearGradient4616);stroke-width:1;stroke-linecap:round;stroke-linejoin:round;stroke-miterlimit:4;stroke-opacity:1;stroke-dasharray:none;stroke-dashoffset:0;marker:none;visibility:visible;display:inline;overflow:visible;enable-background:accumulate"
     id="path3283"
     d="m 6.595895,11.618744 14.027459,0 c 0.393488,0 0.844448,0.479366 0.876646,0.85914 l 0,8.16183 c 0,0.648498 -0.264576,0.85914 -0.876646,0.85914 l -15.123354,0 c 0,0 0.219179,0.04504 0.219179,-0.42957 l 0,-8.5914 c 0,-0.419765 0.46999,-0.85914 0.876716,-0.85914 z" />
  <path
     style="color:black;fill:#496034;fill-opacity:1;fill-rule:nonzero;stroke:none;stroke-width:1;marker:none;visibility:visible;display:inline;overflow:visible;enable-background:accumulate"
     d="m 4,20 0,2 c 0,0 0,1 -1,1 0.051778,0 5.7993112,0 3,0 z"
     id="path4806"
     inkscape:connector-curvature="0"
     sodipodi:nodetypes="ccccc" />
  <path
     sodipodi:nodetypes="cccccccccccccccccccccccccccccc"
     id="path3547"
     d="m 12,8 -6.0000002,6 0,2 1,0 L 13,10 l 6,6 1,0 0,-2 -1,-1 0,-4 -2,0 0,2 -3,-3 -0.34375,0 z m -3.0000002,7 -2,2 0,4 1,1 L 18,22 l 1,-1 0,-4 -2,-2 0,5 -2,0 0,-5 -4,0 0,5 -2.0000002,0 z"
     style="opacity:0.3;color:black;fill:white;fill-opacity:1;fill-rule:nonzero;stroke:none;stroke-width:5;marker:none;visibility:visible;display:inline;overflow:visible;enable-background:accumulate"
     inkscape:connector-curvature="0" />
  <path
     inkscape:connector-curvature="0"
     style="opacity:1;color:black;fill:#323232;fill-opacity:0.5529412;fill-rule:nonzero;stroke:none;stroke-width:5;marker:none;visibility:visible;display:inline;overflow:visible;enable-background:accumulate"
     d="m 12,7 -6.0000002,6 0,2 1,0 L 13,9 l 6,6 1,0 0,-2 -1,-1 0,-4 -2,0 0,2 -3,-3 -0.34375,0 z m -3.0000002,7 -2,2 0,4 1,1 L 18,21 l 1,-1 0,-4 -2,-2 0,5 -2,0 0,-5 -4,0 0,5 -2.0000002,0 z"
     id="path3024"
     sodipodi:nodetypes="cccccccccccccccccccccccccccccc" />
</svg>
