<?xml version="1.0" encoding="UTF-8" standalone="no"?>
<!-- Created with Inkscape (http://www.inkscape.org/) -->

<svg
   xmlns:dc="http://purl.org/dc/elements/1.1/"
   xmlns:cc="http://creativecommons.org/ns#"
   xmlns:rdf="http://www.w3.org/1999/02/22-rdf-syntax-ns#"
   xmlns:svg="http://www.w3.org/2000/svg"
   xmlns="http://www.w3.org/2000/svg"
   xmlns:xlink="http://www.w3.org/1999/xlink"
   xmlns:sodipodi="http://sodipodi.sourceforge.net/DTD/sodipodi-0.dtd"
   xmlns:inkscape="http://www.inkscape.org/namespaces/inkscape"
   width="64"
   height="64"
   id="svg4700"
   version="1.1"
   inkscape:version="0.91 r13725"
   sodipodi:docname="drive-harddisk.svg">
  <defs
     id="defs4702">
    <linearGradient
       id="linearGradient4096">
      <stop
         style="stop-color:#000000;stop-opacity:1;"
         offset="0"
         id="stop4098" />
      <stop
         id="stop4104"
         offset="0.59924078"
         style="stop-color:#000000;stop-opacity:1;" />
      <stop
         style="stop-color:#000000;stop-opacity:0;"
         offset="1"
         id="stop4100" />
    </linearGradient>
    <linearGradient
       id="linearGradient4390">
      <stop
         style="stop-color:#ffffff;stop-opacity:0.75384617;"
         offset="0"
         id="stop4392" />
      <stop
         style="stop-color:#ffffff;stop-opacity:0;"
         offset="1"
         id="stop4394" />
    </linearGradient>
    <filter
       id="filter3174"
       color-interpolation-filters="sRGB">
      <feGaussianBlur
         stdDeviation="1.71"
         id="feGaussianBlur3176" />
    </filter>
    <linearGradient
       gradientTransform="scale(1.0058652,0.994169)"
       gradientUnits="userSpaceOnUse"
       id="ButtonShadow"
       y2="7.0165396"
       x2="45.447727"
       y1="92.539597"
       x1="45.447727">
      <stop
         offset="0"
         style="stop-color:#000000;stop-opacity:1"
         id="stop3750" />
      <stop
         offset="1"
         style="stop-color:#000000;stop-opacity:0.58823532"
         id="stop3752" />
    </linearGradient>
    <linearGradient
       x1="45.447727"
       y1="92.539597"
       x2="45.447727"
       y2="7.0165396"
       id="ButtonShadow-7"
       gradientUnits="userSpaceOnUse"
       gradientTransform="scale(1.0058652,0.994169)">
      <stop
         id="stop3750-5"
         style="stop-color:#000000;stop-opacity:1"
         offset="0" />
      <stop
         id="stop3752-1"
         style="stop-color:#000000;stop-opacity:0.58823532"
         offset="1" />
    </linearGradient>
    <filter
       color-interpolation-filters="sRGB"
       id="filter3174-8">
      <feGaussianBlur
         id="feGaussianBlur3176-3"
         stdDeviation="1.71" />
    </filter>
    <filter
       inkscape:collect="always"
       id="filter4092"
       x="-0.07058836"
       width="1.1411767"
       y="-0.39999601"
       height="1.799992">
      <feGaussianBlur
         inkscape:collect="always"
         stdDeviation="1.5625028"
         id="feGaussianBlur4094" />
    </filter>
    <radialGradient
       inkscape:collect="always"
       xlink:href="#linearGradient4096"
       id="radialGradient4102"
       cx="32"
       cy="70.906305"
       fx="32"
       fy="70.906305"
       r="30.312507"
       gradientTransform="matrix(1,0,0,0.27835249,0,20.994389)"
       gradientUnits="userSpaceOnUse" />
    <linearGradient
       gradientTransform="matrix(0.61538459,0,0,0.61985474,2.307692,-14.786927)"
       x1="6"
       y1="77.09375"
       x2="32"
       y2="77.09375"
       id="linearGradient3279"
       xlink:href="#linearGradient3322-3"
       gradientUnits="userSpaceOnUse" />
    <linearGradient
       gradientTransform="matrix(0.63095235,0,0,0.63888885,1.7142885,-16.333336)"
       x1="46.430859"
       y1="77.039726"
       x2="46.430859"
       y2="33.8722"
       id="linearGradient3179"
       xlink:href="#linearGradient3173-8"
       gradientUnits="userSpaceOnUse" />
    <filter
       color-interpolation-filters="sRGB"
       id="filter3174-5">
      <feGaussianBlur
         id="feGaussianBlur3176-35"
         stdDeviation="1.71" />
    </filter>
    <linearGradient
       id="linearGradient3173-8">
      <stop
         id="stop3187-4"
         style="stop-color:#b6b6b6;stop-opacity:1;"
         offset="0" />
      <stop
         id="stop3177-3"
         style="stop-color:#e6e6e6;stop-opacity:1"
         offset="1" />
    </linearGradient>
    <linearGradient
       id="linearGradient3322-3">
      <stop
         id="stop3324"
         style="stop-color:#7a7a7a;stop-opacity:1"
         offset="0" />
      <stop
         id="stop3326-2"
         style="stop-color:#f9f9f9;stop-opacity:1"
         offset="0.2032043" />
      <stop
         id="stop3328"
         style="stop-color:#c9c9c9;stop-opacity:1"
         offset="0.42969123" />
      <stop
         id="stop3330-3"
         style="stop-color:#dedede;stop-opacity:0"
         offset="1" />
    </linearGradient>
    <linearGradient
       y2="77.09375"
       x2="32"
       y1="77.09375"
       x1="6"
       gradientTransform="matrix(-0.61538459,0,0,0.61985474,61.692307,-14.969927)"
       gradientUnits="userSpaceOnUse"
       id="linearGradient4511"
       xlink:href="#linearGradient3322-3"
       inkscape:collect="always" />
    <linearGradient
       gradientTransform="matrix(1.3774054,0,0,1.373878,-1.0732442,-18.932417)"
       gradientUnits="userSpaceOnUse"
       y2="38.21666"
       x2="22.440199"
       y1="4.8942533"
       x1="22.440199"
       id="linearGradient4523"
       xlink:href="#linearGradient4390"
       inkscape:collect="always" />
    <radialGradient
       cx="127.2645"
       cy="95.756645"
       r="2.5631001"
       fx="127.2645"
       fy="95.756645"
       id="radialGradient2947-3"
       xlink:href="#radialGradient4241-5"
       gradientUnits="userSpaceOnUse"
       gradientTransform="matrix(0.53762829,0,0,0.57068292,-15.534728,-27.148399)" />
    <radialGradient
       cx="113.0654"
       cy="97.587898"
       r="2.5631001"
       fx="113.667"
       fy="98"
       id="radialGradient4241-5"
       gradientUnits="userSpaceOnUse">
      <stop
         id="stop4243-2"
         style="stop-color:#eee;stop-opacity:1"
         offset="0" />
      <stop
         id="stop4249-6"
         style="stop-color:#555;stop-opacity:1"
         offset="1" />
    </radialGradient>
    <radialGradient
       r="2.5631001"
       fy="95.756645"
       fx="127.2645"
       cy="95.756645"
       cx="127.2645"
       gradientTransform="matrix(0.53762829,0,0,0.57068292,-56.534725,-27.148399)"
       gradientUnits="userSpaceOnUse"
       id="radialGradient4581"
       xlink:href="#radialGradient4241-5"
       inkscape:collect="always" />
    <radialGradient
       r="2.5631001"
       fy="95.756645"
       fx="127.2645"
       cy="95.756645"
       cx="127.2645"
       gradientTransform="matrix(0.53762829,0,0,0.57068292,-56.534725,-61.148399)"
       gradientUnits="userSpaceOnUse"
       id="radialGradient4591"
       xlink:href="#radialGradient4241-5"
       inkscape:collect="always" />
    <radialGradient
       r="2.5631001"
       fy="95.756645"
       fx="127.2645"
       cy="95.756645"
       cx="127.2645"
       gradientTransform="matrix(0.53762832,0,0,0.57068292,-15.53473,-61.148399)"
       gradientUnits="userSpaceOnUse"
       id="radialGradient4593"
       xlink:href="#radialGradient4241-5"
       inkscape:collect="always" />
    <linearGradient
       id="linearGradient4670-2">
      <stop
         id="stop4672-0"
         offset="0"
         style="stop-color:#808080;stop-opacity:1;" />
      <stop
         id="stop4674-2"
         offset="1"
         style="stop-color:#ffffff;stop-opacity:1;" />
    </linearGradient>
    <linearGradient
       inkscape:collect="always"
       xlink:href="#linearGradient4670-2"
       id="linearGradient1198"
       gradientUnits="userSpaceOnUse"
       gradientTransform="matrix(1.4,0,0,2.0000001,-1.4000025,-41.500003)"
       x1="36.1875"
       y1="37.9375"
       x2="36.1875"
       y2="40.6875" />
    <linearGradient
       inkscape:collect="always"
       xlink:href="#ButtonShadow"
       id="linearGradient4370"
       gradientUnits="userSpaceOnUse"
       gradientTransform="scale(1.0058652,0.994169)"
       x1="45.447727"
       y1="92.539597"
       x2="45.447727"
       y2="7.0165396" />
    <filter
       color-interpolation-filters="sRGB"
       id="filter3174-1">
      <feGaussianBlur
         id="feGaussianBlur3176-8"
         stdDeviation="1.71" />
    </filter>
    <linearGradient
       gradientUnits="userSpaceOnUse"
       y2="32.207882"
       x2="24.209238"
       y1="5.606431"
       x1="24.209238"
       id="linearGradient4605"
       xlink:href="#linearGradient4670-2"
       inkscape:collect="always"
       gradientTransform="matrix(1.1809524,0,0,1.1809524,3.3619009,-12.585715)" />
    <linearGradient
       gradientTransform="matrix(-0.7178871,0,0,-0.71788712,-14.591234,23.729591)"
       y2="28.118208"
       x2="24.209238"
       y1="10.304801"
       x1="24.209238"
       gradientUnits="userSpaceOnUse"
       id="linearGradient4615"
       xlink:href="#linearGradient4670-2"
       inkscape:collect="always" />
    <linearGradient
       inkscape:collect="always"
       xlink:href="#ButtonShadow"
       id="linearGradient4348"
       gradientUnits="userSpaceOnUse"
       gradientTransform="scale(1.0058652,0.994169)"
       x1="45.447727"
       y1="92.539597"
       x2="45.447727"
       y2="7.0165396" />
  </defs>
  <sodipodi:namedview
     id="base"
     pagecolor="#ffffff"
     bordercolor="#666666"
     borderopacity="1.0"
     inkscape:pageopacity="0.0"
     inkscape:pageshadow="2"
     inkscape:zoom="6.4296875"
     inkscape:cx="59.319782"
     inkscape:cy="34.792713"
     inkscape:current-layer="layer1"
     showgrid="true"
     inkscape:grid-bbox="true"
     inkscape:document-units="px"
     inkscape:window-width="1301"
     inkscape:window-height="744"
     inkscape:window-x="65"
     inkscape:window-y="24"
     inkscape:window-maximized="1"
     inkscape:snap-to-guides="false"
     inkscape:snap-grids="false"
     inkscape:snap-bbox="true"
     inkscape:bbox-paths="true"
     inkscape:bbox-nodes="true"
     inkscape:snap-bbox-edge-midpoints="true"
     inkscape:snap-intersection-paths="true"
     inkscape:object-paths="true"
     inkscape:object-nodes="true">
    <inkscape:grid
       type="xygrid"
       id="grid1021"
       empspacing="5"
       visible="true"
       enabled="true"
       snapvisiblegridlinesonly="true" />
  </sodipodi:namedview>
  <metadata
     id="metadata4705">
    <rdf:RDF>
      <cc:Work
         rdf:about="">
        <dc:format>image/svg+xml</dc:format>
        <dc:type
           rdf:resource="http://purl.org/dc/dcmitype/StillImage" />
        <dc:title />
      </cc:Work>
    </rdf:RDF>
  </metadata>
  <g
     id="layer1"
     inkscape:label="Layer 1"
     inkscape:groupmode="layer"
     transform="translate(0,16)">
    <path
       style="opacity:0.5;fill:url(#radialGradient4102);fill-opacity:1;fill-rule:nonzero;stroke:none;stroke-width:104.96237946;marker:none;visibility:visible;display:inline;overflow:visible;filter:url(#filter4092)"
       d="m 14.46875,36.04378 c -4.8629421,2e-6 -9.03125,2.095653 -9.03125,4.6875 0,2.591845 5.29509,4.70518 9.03125,4.6875 l 35.0625,0 c 3.736159,0.01768 9.031252,-2.095655 9.03125,-4.6875 0,-2.591847 -4.16831,-4.687498 -9.03125,-4.6875 l -35.0625,0 z"
       id="rect4063"
       inkscape:connector-curvature="0"
       transform="matrix(0.98969051,0,0,0.94814122,0.32990378,1.3809423)" />
    <g
       id="layer2"
       style="display:none"
       transform="translate(5.204491,-179.6879)">
      <rect
         width="86"
         height="85"
         rx="6"
         ry="6"
         x="5"
         y="7"
         id="rect3745"
         style="opacity:0.9;fill:url(#ButtonShadow);fill-opacity:1;fill-rule:nonzero;stroke:none;filter:url(#filter3174)" />
    </g>
    <g
       id="layer2-6"
       style="display:none"
       transform="translate(-52.967913,-177.17602)">
      <rect
         width="86"
         height="85"
         rx="6"
         ry="6"
         x="5"
         y="7"
         id="rect3745-4"
         style="opacity:0.9;fill:url(#ButtonShadow-7);fill-opacity:1;fill-rule:nonzero;stroke:none;filter:url(#filter3174-8)" />
    </g>
    <g
       id="layer4"
       transform="matrix(1.3333333,0,0,1.3333333,6.9393212,-255.58386)" />
    <g
       id="layer4-8"
       transform="matrix(1.3333333,0,0,1.3333333,-70.623882,-252.23469)" />
    <g
       id="layer2-60"
       style="display:none"
       transform="translate(82.748314,-196.33154)">
      <rect
         width="86"
         height="85"
         rx="6"
         ry="6"
         x="5"
         y="7"
         id="rect3745-2"
         style="opacity:0.9;fill:url(#linearGradient4370);fill-opacity:1;fill-rule:nonzero;stroke:none;filter:url(#filter3174-5)" />
    </g>
    <g
       id="layer4-7"
       transform="translate(82.748314,-196.33154)" />
    <path
       style="fill:#cacaca;fill-opacity:1;fill-rule:nonzero;stroke:#808080;stroke-width:0.99999994;stroke-miterlimit:4;stroke-dasharray:none;stroke-opacity:1"
       id="rect3243-6"
       inkscape:connector-curvature="0"
       d="m 58.500215,25.499788 0,12.280869 c 0,2.060398 -1.688423,3.719131 -3.785717,3.719131 l -45.4285687,0 c -2.0972865,0 -3.7857152,-1.658733 -3.7857152,-3.719131 l 0,-12.280869 53.0000009,0 z" />
    <path
       sodipodi:nodetypes="cssccc"
       d="m 58,24.817 0,12.707022 C 58,39.584419 56.776307,40.817 54.730774,40.817 L 42,40.817 l 0,-16 z"
       inkscape:connector-curvature="0"
       id="path4509-1"
       style="opacity:0.8;fill:url(#linearGradient4511);fill-opacity:1;fill-rule:nonzero;stroke:none" />
    <path
       style="opacity:0.8;fill:url(#linearGradient3279);fill-opacity:1;fill-rule:nonzero;stroke:none"
       id="path3263-0"
       inkscape:connector-curvature="0"
       d="M 6,25 6,37.707022 C 6,39.767419 7.2236921,41 9.2692308,41 L 22,41 22,25 Z"
       sodipodi:nodetypes="cssccc" />
    <rect
       style="fill:url(#linearGradient3179);fill-opacity:1;fill-rule:nonzero;stroke:#808080;stroke-width:1;stroke-miterlimit:4;stroke-dasharray:none;stroke-opacity:1"
       id="rect3171-7"
       y="-12.5"
       x="5.5"
       ry="3.8333333"
       rx="3.7857139"
       height="46"
       width="53" />
    <rect
       width="51"
       height="44"
       ry="2.7497046"
       x="6.5"
       y="-11.500002"
       id="rect4513-8"
       style="fill:none;stroke:url(#linearGradient4523);stroke-width:0.99999994;stroke-miterlimit:4;stroke-dasharray:none;stroke-opacity:1"
       rx="2.7567568" />
    <circle
       style="color:#000000;clip-rule:nonzero;display:inline;overflow:visible;visibility:visible;color-interpolation:sRGB;color-interpolation-filters:linearRGB;fill:url(#radialGradient2947-3);fill-opacity:1;fill-rule:nonzero;stroke:#dddddd;stroke-width:1;stroke-linecap:butt;stroke-linejoin:miter;stroke-miterlimit:4;stroke-dasharray:none;stroke-dashoffset:0;stroke-opacity:1;marker:none;enable-background:accumulate"
       id="path4533"
       cx="52.5"
       cy="27.5"
       r="2" />
    <circle
       id="path4579"
       style="color:#000000;clip-rule:nonzero;display:inline;overflow:visible;visibility:visible;color-interpolation:sRGB;color-interpolation-filters:linearRGB;fill:url(#radialGradient4581);fill-opacity:1;fill-rule:nonzero;stroke:#ebebeb;stroke-width:1;stroke-linecap:butt;stroke-linejoin:miter;stroke-miterlimit:4;stroke-dasharray:none;stroke-dashoffset:0;stroke-opacity:1;marker:none;enable-background:accumulate"
       cx="11.5"
       cy="27.5"
       r="2" />
    <circle
       style="color:#000000;clip-rule:nonzero;display:inline;overflow:visible;visibility:visible;color-interpolation:sRGB;color-interpolation-filters:linearRGB;fill:url(#radialGradient4593);fill-opacity:1;fill-rule:nonzero;stroke:#ebebeb;stroke-width:1;stroke-linecap:butt;stroke-linejoin:miter;stroke-miterlimit:4;stroke-dasharray:none;stroke-dashoffset:0;stroke-opacity:1;marker:none;enable-background:accumulate"
       id="path4589"
       cx="52.499996"
       cy="-6.5"
       r="2" />
    <circle
       id="path4585"
       style="color:#000000;clip-rule:nonzero;display:inline;overflow:visible;visibility:visible;color-interpolation:sRGB;color-interpolation-filters:linearRGB;fill:url(#radialGradient4591);fill-opacity:1;fill-rule:nonzero;stroke:#dddddd;stroke-width:1;stroke-linecap:butt;stroke-linejoin:miter;stroke-miterlimit:4;stroke-dasharray:none;stroke-dashoffset:0;stroke-opacity:1;marker:none;enable-background:accumulate"
       cx="11.5"
       cy="-6.5"
       r="2" />
    <rect
       style="color:#000000;clip-rule:nonzero;display:inline;overflow:visible;visibility:visible;color-interpolation:sRGB;color-interpolation-filters:linearRGB;fill:#00ffff;fill-opacity:1;stroke:url(#linearGradient1198);stroke-width:0.99999994;stroke-linecap:butt;stroke-linejoin:miter;stroke-miterlimit:4;stroke-dasharray:none;stroke-dashoffset:0;stroke-opacity:1;marker:none;enable-background:accumulate"
       id="rect4668"
       width="7"
       height="4"
       x="45.5"
       y="35.5" />
    <g
       id="layer2-2"
       style="display:none"
       transform="translate(63.21054,-185.65757)">
      <rect
         width="86"
         height="85"
         rx="6"
         ry="6"
         x="5"
         y="7"
         id="rect3745-41"
         style="opacity:0.9;fill:url(#linearGradient4348);fill-opacity:1;fill-rule:nonzero;stroke:none;filter:url(#filter3174-1)" />
    </g>
    <g
       id="layer4-9"
       transform="translate(63.21054,-185.65757)" />
    <ellipse
       cy="10"
       cx="31.999998"
       style="color:#000000;clip-rule:nonzero;display:inline;overflow:visible;visibility:visible;color-interpolation:sRGB;color-interpolation-filters:linearRGB;fill:none;stroke:url(#linearGradient4605);stroke-width:0.99999988;stroke-linecap:butt;stroke-linejoin:miter;stroke-miterlimit:4;stroke-dasharray:none;stroke-dashoffset:0;stroke-opacity:1;marker:none;enable-background:accumulate"
       id="path4595"
       rx="15.5"
       ry="15.500001" />
    <ellipse
       cy="10"
       cx="-31.999998"
       transform="scale(-1,1)"
       id="path4613"
       style="color:#000000;clip-rule:nonzero;display:inline;overflow:visible;visibility:visible;color-interpolation:sRGB;color-interpolation-filters:linearRGB;fill:none;stroke:url(#linearGradient4615);stroke-width:0.99999988;stroke-linecap:butt;stroke-linejoin:miter;stroke-miterlimit:4;stroke-dasharray:none;stroke-dashoffset:0;stroke-opacity:1;marker:none;enable-background:accumulate"
       rx="6.5"
       ry="6.4999995" />
  </g>
</svg>
