<?xml version="1.0" encoding="UTF-8" standalone="no"?>
<!-- Created with Inkscape (http://www.inkscape.org/) -->

<svg
   xmlns:dc="http://purl.org/dc/elements/1.1/"
   xmlns:cc="http://creativecommons.org/ns#"
   xmlns:rdf="http://www.w3.org/1999/02/22-rdf-syntax-ns#"
   xmlns:svg="http://www.w3.org/2000/svg"
   xmlns="http://www.w3.org/2000/svg"
   xmlns:xlink="http://www.w3.org/1999/xlink"
   xmlns:sodipodi="http://sodipodi.sourceforge.net/DTD/sodipodi-0.dtd"
   xmlns:inkscape="http://www.inkscape.org/namespaces/inkscape"
   version="1.0"
   width="48"
   height="48"
   id="svg3437"
   inkscape:version="0.92.1 r15371"
   sodipodi:docname="folder-remote.svg">
  <metadata
     id="metadata101">
    <rdf:RDF>
      <cc:Work
         rdf:about="">
        <dc:format>image/svg+xml</dc:format>
        <dc:type
           rdf:resource="http://purl.org/dc/dcmitype/StillImage" />
        <dc:title />
      </cc:Work>
    </rdf:RDF>
  </metadata>
  <sodipodi:namedview
     pagecolor="#ffffff"
     bordercolor="#666666"
     borderopacity="1"
     objecttolerance="10"
     gridtolerance="10"
     guidetolerance="10"
     inkscape:pageopacity="0"
     inkscape:pageshadow="2"
     inkscape:window-width="1280"
     inkscape:window-height="977"
     id="namedview99"
     showgrid="true"
     inkscape:zoom="5.656854"
     inkscape:cx="70.317261"
     inkscape:cy="22.205643"
     inkscape:window-x="0"
     inkscape:window-y="24"
     inkscape:window-maximized="1"
     inkscape:current-layer="svg3437"
     inkscape:snap-to-guides="true"
     inkscape:snap-grids="true"
     inkscape:snap-bbox="true"
     showguides="true"
     inkscape:guide-bbox="true">
    <inkscape:grid
       type="xygrid"
       id="grid911"
       empspacing="5"
       visible="true"
       enabled="true"
       snapvisiblegridlinesonly="true" />
    <sodipodi:guide
       orientation="1,0"
       position="26,12"
       id="guide3150"
       inkscape:locked="false" />
    <sodipodi:guide
       orientation="1,0"
       position="41,22"
       id="guide3152"
       inkscape:locked="false" />
    <sodipodi:guide
       orientation="0,1"
       position="42,9"
       id="guide3154"
       inkscape:locked="false" />
    <sodipodi:guide
       orientation="0,1"
       position="45,24"
       id="guide3156"
       inkscape:locked="false" />
  </sodipodi:namedview>
  <defs
     id="defs3439">
    <linearGradient
       id="linearGradient4063">
      <stop
         style="stop-color:white;stop-opacity:0.15686275;"
         offset="0"
         id="stop4065" />
      <stop
         style="stop-color:white;stop-opacity:0;"
         offset="1"
         id="stop4067" />
    </linearGradient>
    <linearGradient
       id="linearGradient4343">
      <stop
         style="stop-color:white;stop-opacity:0.78431374;"
         offset="0"
         id="stop4345" />
      <stop
         style="stop-color:white;stop-opacity:0;"
         offset="1"
         id="stop4347" />
    </linearGradient>
    <linearGradient
       id="linearGradient5060">
      <stop
         id="stop5062"
         style="stop-color:#000000;stop-opacity:1"
         offset="0" />
      <stop
         id="stop5064"
         style="stop-color:#000000;stop-opacity:0"
         offset="1" />
    </linearGradient>
    <linearGradient
       id="linearGradient5048">
      <stop
         id="stop5050"
         style="stop-color:#000000;stop-opacity:0"
         offset="0" />
      <stop
         id="stop5056"
         style="stop-color:#000000;stop-opacity:1"
         offset="0.5" />
      <stop
         id="stop5052"
         style="stop-color:#000000;stop-opacity:0"
         offset="1" />
    </linearGradient>
    <linearGradient
       y2="7.0165396"
       x2="45.447727"
       y1="92.539597"
       x1="45.447727"
       gradientTransform="scale(1.0058652,0.994169)"
       gradientUnits="userSpaceOnUse"
       id="linearGradient4049"
       xlink:href="#ButtonShadow-9-2"
       inkscape:collect="always" />
    <linearGradient
       y2="7.0165396"
       x2="45.447727"
       y1="92.539597"
       x1="45.447727"
       gradientTransform="scale(1.0058652,0.994169)"
       gradientUnits="userSpaceOnUse"
       id="linearGradient4047"
       xlink:href="#ButtonShadow-91-6"
       inkscape:collect="always" />
    <linearGradient
       y2="7.0165396"
       x2="45.447727"
       y1="92.539597"
       x1="45.447727"
       gradientTransform="scale(1.0058652,0.994169)"
       gradientUnits="userSpaceOnUse"
       id="linearGradient4045"
       xlink:href="#ButtonShadow-3"
       inkscape:collect="always" />
    <filter
       id="filter3174-34"
       color-interpolation-filters="sRGB">
      <feGaussianBlur
         stdDeviation="1.71"
         id="feGaussianBlur3176-32" />
    </filter>
    <linearGradient
       gradientTransform="scale(1.0058652,0.994169)"
       gradientUnits="userSpaceOnUse"
       id="ButtonShadow-3"
       y2="7.0165396"
       x2="45.447727"
       y1="92.539597"
       x1="45.447727">
      <stop
         offset="0"
         style="stop-color:#000000;stop-opacity:1"
         id="stop3750-41" />
      <stop
         offset="1"
         style="stop-color:#000000;stop-opacity:0.58823532"
         id="stop3752-4" />
    </linearGradient>
    <filter
       id="filter3174-2-0"
       color-interpolation-filters="sRGB">
      <feGaussianBlur
         stdDeviation="1.71"
         id="feGaussianBlur3176-1-0" />
    </filter>
    <linearGradient
       gradientTransform="scale(1.0058652,0.994169)"
       gradientUnits="userSpaceOnUse"
       id="ButtonShadow-9-2"
       y2="7.0165396"
       x2="45.447727"
       y1="92.539597"
       x1="45.447727">
      <stop
         offset="0"
         style="stop-color:#000000;stop-opacity:1"
         id="stop3750-3-4" />
      <stop
         offset="1"
         style="stop-color:#000000;stop-opacity:0.58823532"
         id="stop3752-0-7" />
    </linearGradient>
    <linearGradient
       x1="45.447727"
       y1="92.539597"
       x2="45.447727"
       y2="7.0165396"
       id="ButtonShadow-91-6"
       gradientUnits="userSpaceOnUse"
       gradientTransform="scale(1.0058652,0.994169)">
      <stop
         id="stop3750-4-7"
         style="stop-color:#000000;stop-opacity:1"
         offset="0" />
      <stop
         id="stop3752-2-68"
         style="stop-color:#000000;stop-opacity:0.58823532"
         offset="1" />
    </linearGradient>
    <filter
       color-interpolation-filters="sRGB"
       id="filter3174-4-7">
      <feGaussianBlur
         id="feGaussianBlur3176-2-4"
         stdDeviation="1.71" />
    </filter>
    <filter
       id="filter3174-44"
       color-interpolation-filters="sRGB">
      <feGaussianBlur
         stdDeviation="1.71"
         id="feGaussianBlur3176-3" />
    </filter>
    <linearGradient
       gradientTransform="scale(1.0058652,0.994169)"
       gradientUnits="userSpaceOnUse"
       id="ButtonShadow-0"
       y2="7.0165396"
       x2="45.447727"
       y1="92.539597"
       x1="45.447727">
      <stop
         offset="0"
         style="stop-color:#000000;stop-opacity:1"
         id="stop3750-2" />
      <stop
         offset="1"
         style="stop-color:#000000;stop-opacity:0.58823532"
         id="stop3752-6" />
    </linearGradient>
    <filter
       id="filter3174-2-2"
       color-interpolation-filters="sRGB">
      <feGaussianBlur
         stdDeviation="1.71"
         id="feGaussianBlur3176-1-3" />
    </filter>
    <linearGradient
       gradientTransform="scale(1.0058652,0.994169)"
       gradientUnits="userSpaceOnUse"
       id="ButtonShadow-9-1"
       y2="7.0165396"
       x2="45.447727"
       y1="92.539597"
       x1="45.447727">
      <stop
         offset="0"
         style="stop-color:#000000;stop-opacity:1"
         id="stop3750-3-65" />
      <stop
         offset="1"
         style="stop-color:#000000;stop-opacity:0.58823532"
         id="stop3752-0-0" />
    </linearGradient>
    <linearGradient
       x1="45.447727"
       y1="92.539597"
       x2="45.447727"
       y2="7.0165396"
       id="ButtonShadow-91-7"
       gradientUnits="userSpaceOnUse"
       gradientTransform="scale(1.0058652,0.994169)">
      <stop
         id="stop3750-4-4"
         style="stop-color:#000000;stop-opacity:1"
         offset="0" />
      <stop
         id="stop3752-2-7"
         style="stop-color:#000000;stop-opacity:0.58823532"
         offset="1" />
    </linearGradient>
    <filter
       color-interpolation-filters="sRGB"
       id="filter3174-4-4">
      <feGaussianBlur
         id="feGaussianBlur3176-2-3"
         stdDeviation="1.71" />
    </filter>
    <linearGradient
       y2="7.0165396"
       x2="45.447727"
       y1="92.539597"
       x1="45.447727"
       gradientTransform="scale(1.0058652,0.994169)"
       gradientUnits="userSpaceOnUse"
       id="linearGradient4049-7"
       xlink:href="#ButtonShadow-9-2-6"
       inkscape:collect="always" />
    <linearGradient
       y2="7.0165396"
       x2="45.447727"
       y1="92.539597"
       x1="45.447727"
       gradientTransform="scale(1.0058652,0.994169)"
       gradientUnits="userSpaceOnUse"
       id="linearGradient4047-0"
       xlink:href="#ButtonShadow-91-6-6"
       inkscape:collect="always" />
    <linearGradient
       y2="7.0165396"
       x2="45.447727"
       y1="92.539597"
       x1="45.447727"
       gradientTransform="scale(1.0058652,0.994169)"
       gradientUnits="userSpaceOnUse"
       id="linearGradient4045-1"
       xlink:href="#ButtonShadow-3-7"
       inkscape:collect="always" />
    <filter
       id="filter3174-34-6"
       color-interpolation-filters="sRGB">
      <feGaussianBlur
         stdDeviation="1.71"
         id="feGaussianBlur3176-32-5" />
    </filter>
    <linearGradient
       gradientTransform="scale(1.0058652,0.994169)"
       gradientUnits="userSpaceOnUse"
       id="ButtonShadow-3-7"
       y2="7.0165396"
       x2="45.447727"
       y1="92.539597"
       x1="45.447727">
      <stop
         offset="0"
         style="stop-color:#000000;stop-opacity:1"
         id="stop3750-41-6" />
      <stop
         offset="1"
         style="stop-color:#000000;stop-opacity:0.58823532"
         id="stop3752-4-9" />
    </linearGradient>
    <filter
       id="filter3174-2-0-6"
       color-interpolation-filters="sRGB">
      <feGaussianBlur
         stdDeviation="1.71"
         id="feGaussianBlur3176-1-0-4" />
    </filter>
    <linearGradient
       gradientTransform="scale(1.0058652,0.994169)"
       gradientUnits="userSpaceOnUse"
       id="ButtonShadow-9-2-6"
       y2="7.0165396"
       x2="45.447727"
       y1="92.539597"
       x1="45.447727">
      <stop
         offset="0"
         style="stop-color:#000000;stop-opacity:1"
         id="stop3750-3-4-7" />
      <stop
         offset="1"
         style="stop-color:#000000;stop-opacity:0.58823532"
         id="stop3752-0-7-0" />
    </linearGradient>
    <linearGradient
       x1="45.447727"
       y1="92.539597"
       x2="45.447727"
       y2="7.0165396"
       id="ButtonShadow-91-6-6"
       gradientUnits="userSpaceOnUse"
       gradientTransform="scale(1.0058652,0.994169)">
      <stop
         id="stop3750-4-7-8"
         style="stop-color:#000000;stop-opacity:1"
         offset="0" />
      <stop
         id="stop3752-2-68-9"
         style="stop-color:#000000;stop-opacity:0.58823532"
         offset="1" />
    </linearGradient>
    <filter
       color-interpolation-filters="sRGB"
       id="filter3174-4-7-2">
      <feGaussianBlur
         id="feGaussianBlur3176-2-4-8"
         stdDeviation="1.71" />
    </filter>
    <filter
       id="filter3174-44-1"
       color-interpolation-filters="sRGB">
      <feGaussianBlur
         stdDeviation="1.71"
         id="feGaussianBlur3176-3-3" />
    </filter>
    <linearGradient
       gradientTransform="scale(1.0058652,0.994169)"
       gradientUnits="userSpaceOnUse"
       id="ButtonShadow-0-3"
       y2="7.0165396"
       x2="45.447727"
       y1="92.539597"
       x1="45.447727">
      <stop
         offset="0"
         style="stop-color:#000000;stop-opacity:1"
         id="stop3750-2-6" />
      <stop
         offset="1"
         style="stop-color:#000000;stop-opacity:0.58823532"
         id="stop3752-6-8" />
    </linearGradient>
    <filter
       id="filter3174-2-2-8"
       color-interpolation-filters="sRGB">
      <feGaussianBlur
         stdDeviation="1.71"
         id="feGaussianBlur3176-1-3-0" />
    </filter>
    <linearGradient
       gradientTransform="scale(1.0058652,0.994169)"
       gradientUnits="userSpaceOnUse"
       id="ButtonShadow-9-1-0"
       y2="7.0165396"
       x2="45.447727"
       y1="92.539597"
       x1="45.447727">
      <stop
         offset="0"
         style="stop-color:#000000;stop-opacity:1"
         id="stop3750-3-65-2" />
      <stop
         offset="1"
         style="stop-color:#000000;stop-opacity:0.58823532"
         id="stop3752-0-0-3" />
    </linearGradient>
    <linearGradient
       x1="45.447727"
       y1="92.539597"
       x2="45.447727"
       y2="7.0165396"
       id="ButtonShadow-91-7-0"
       gradientUnits="userSpaceOnUse"
       gradientTransform="scale(1.0058652,0.994169)">
      <stop
         id="stop3750-4-4-1"
         style="stop-color:#000000;stop-opacity:1"
         offset="0" />
      <stop
         id="stop3752-2-7-5"
         style="stop-color:#000000;stop-opacity:0.58823532"
         offset="1" />
    </linearGradient>
    <filter
       color-interpolation-filters="sRGB"
       id="filter3174-4-4-2">
      <feGaussianBlur
         id="feGaussianBlur3176-2-3-0"
         stdDeviation="1.71" />
    </filter>
    <linearGradient
       inkscape:collect="always"
       xlink:href="#linearGradient4494-6-4"
       id="linearGradient3423-0"
       gradientUnits="userSpaceOnUse"
       gradientTransform="matrix(0.54394931,0,0,0.54419279,-152.08938,-281.28422)"
       x1="404.57297"
       y1="537.98169"
       x2="404.57297"
       y2="589.04877" />
    <linearGradient
       id="linearGradient4494-6-4">
      <stop
         offset="0"
         style="stop-color:#c8efa6;stop-opacity:1"
         id="stop4496-8-1" />
      <stop
         offset="1"
         style="stop-color:#7bd729;stop-opacity:1"
         id="stop4498-8-5" />
    </linearGradient>
    <linearGradient
       inkscape:collect="always"
       xlink:href="#linearGradient3390-4-1-27"
       id="linearGradient3425-7"
       gradientUnits="userSpaceOnUse"
       gradientTransform="matrix(1.7093057,0,0,1.7952339,-50.451108,1.99089)"
       x1="65.869827"
       y1="21.104483"
       x2="65.869827"
       y2="5.6443739" />
    <linearGradient
       id="linearGradient3390-4-1-27">
      <stop
         id="stop3392-3-8-1"
         style="stop-color:#496034;stop-opacity:1"
         offset="0" />
      <stop
         id="stop3394-2-0-7"
         style="stop-color:#758e5e;stop-opacity:1"
         offset="1" />
    </linearGradient>
    <linearGradient
       inkscape:collect="always"
       xlink:href="#linearGradient4343"
       id="linearGradient4349"
       x1="20"
       y1="12"
       x2="20"
       y2="31.617647"
       gradientUnits="userSpaceOnUse"
       gradientTransform="matrix(1,0,0,0.65384618,0,2.3295905)" />
    <linearGradient
       inkscape:collect="always"
       xlink:href="#linearGradient933-0"
       id="linearGradient3433-6"
       gradientUnits="userSpaceOnUse"
       gradientTransform="matrix(1.9110635,0,0,1.9668389,113.8977,-30.031832)"
       x1="-28.531403"
       y1="18.645372"
       x2="-28.531403"
       y2="35.589085" />
    <linearGradient
       id="linearGradient933-0">
      <stop
         offset="0"
         style="stop-color:#ffffff;stop-opacity:1"
         id="stop935-7" />
      <stop
         offset="0.70000005"
         style="stop-color:#cdcdcd;stop-opacity:1"
         id="stop937-2" />
      <stop
         offset="1"
         style="stop-color:#a1a1a1;stop-opacity:1"
         id="stop939-0" />
    </linearGradient>
    <linearGradient
       inkscape:collect="always"
       xlink:href="#linearGradient5157-9-5"
       id="linearGradient3435-5"
       gradientUnits="userSpaceOnUse"
       gradientTransform="matrix(1.9110635,0,0,1.9668389,48.199152,-1.5100655)"
       x1="9.8763561"
       y1="2.6014566"
       x2="9.8763561"
       y2="22.113136" />
    <linearGradient
       id="linearGradient5157-9-5">
      <stop
         id="stop5159-3-4"
         style="stop-color:#b5b5b5;stop-opacity:1;"
         offset="0" />
      <stop
         id="stop5161-0-6"
         style="stop-color:#5d5d5d;stop-opacity:1;"
         offset="1" />
    </linearGradient>
    <linearGradient
       inkscape:collect="always"
       xlink:href="#linearGradient4063"
       id="linearGradient4069"
       x1="20"
       y1="42"
       x2="20"
       y2="29"
       gradientUnits="userSpaceOnUse"
       gradientTransform="translate(1.62e-4,-1.0000004)" />
    <linearGradient
       inkscape:collect="always"
       xlink:href="#linearGradient6129-963-697-142-998-580-273-44-2-2-0"
       id="linearGradient4192-4"
       gradientUnits="userSpaceOnUse"
       gradientTransform="matrix(1.1446925,0,0,0.99775357,40.52077,-1.8843728)"
       x1="-18.800482"
       y1="44.988102"
       x2="-18.800482"
       y2="34.965588" />
    <linearGradient
       id="linearGradient6129-963-697-142-998-580-273-44-2-2-0">
      <stop
         offset="0"
         style="stop-color:#0a0a0a;stop-opacity:0.498"
         id="stop2661-01-6-2-2" />
      <stop
         offset="1"
         style="stop-color:#0a0a0a;stop-opacity:0"
         id="stop2663-64-5-5-9" />
    </linearGradient>
    <linearGradient
       x1="45.447727"
       y1="92.539597"
       x2="45.447727"
       y2="7.0165396"
       id="ButtonShadow"
       gradientUnits="userSpaceOnUse"
       gradientTransform="scale(1.0058652,0.994169)">
      <stop
         id="stop3750"
         style="stop-color:#000000;stop-opacity:1"
         offset="0" />
      <stop
         id="stop3752"
         style="stop-color:#000000;stop-opacity:0.58823532"
         offset="1" />
    </linearGradient>
    <filter
       color-interpolation-filters="sRGB"
       id="filter3174">
      <feGaussianBlur
         id="feGaussianBlur3176"
         stdDeviation="1.71" />
    </filter>
    <linearGradient
       id="linearGradient3822">
      <stop
         style="stop-color:white;stop-opacity:1;"
         offset="0"
         id="stop3840" />
      <stop
         id="stop3826"
         offset="1"
         style="stop-color:#464646;stop-opacity:1;" />
    </linearGradient>
    <linearGradient
       id="linearGradient3935">
      <stop
         id="stop3937"
         offset="0"
         style="stop-color:#646464;stop-opacity:1;" />
      <stop
         id="stop3939"
         offset="1"
         style="stop-color:#464646;stop-opacity:0;" />
    </linearGradient>
    <linearGradient
       id="linearGradient3943"
       inkscape:collect="always">
      <stop
         id="stop3945"
         offset="0"
         style="stop-color:#d2d2d2;stop-opacity:1;" />
      <stop
         id="stop3947"
         offset="1"
         style="stop-color:#d2d2d2;stop-opacity:0;" />
    </linearGradient>
    <linearGradient
       inkscape:collect="always"
       xlink:href="#linearGradient3935"
       id="linearGradient3417"
       gradientUnits="userSpaceOnUse"
       gradientTransform="matrix(0.95238095,0,0,0.25,-92.714286,27.25)"
       x1="42"
       y1="43"
       x2="47"
       y2="43" />
    <linearGradient
       inkscape:collect="always"
       xlink:href="#linearGradient3935"
       id="linearGradient3419"
       gradientUnits="userSpaceOnUse"
       gradientTransform="matrix(0.95238095,0,0,0.25,-92.714286,30.25)"
       x1="42"
       y1="43"
       x2="47"
       y2="43" />
    <linearGradient
       inkscape:collect="always"
       xlink:href="#linearGradient3943"
       id="linearGradient3421"
       gradientUnits="userSpaceOnUse"
       gradientTransform="translate(-94,-4.9999999)"
       x1="42"
       y1="45"
       x2="48"
       y2="45" />
    <linearGradient
       inkscape:collect="always"
       xlink:href="#linearGradient3935"
       id="linearGradient3423"
       gradientUnits="userSpaceOnUse"
       gradientTransform="matrix(0.95238095,0,0,0.25,47.285714,27.25)"
       x1="42"
       y1="43"
       x2="47"
       y2="43" />
    <linearGradient
       inkscape:collect="always"
       xlink:href="#linearGradient3935"
       id="linearGradient3425"
       gradientUnits="userSpaceOnUse"
       gradientTransform="matrix(0.95238095,0,0,0.25,47.285714,30.25)"
       x1="42"
       y1="43"
       x2="47"
       y2="43" />
    <linearGradient
       inkscape:collect="always"
       xlink:href="#linearGradient3943"
       id="linearGradient3427"
       gradientUnits="userSpaceOnUse"
       gradientTransform="translate(46,-4.9999999)"
       x1="42"
       y1="45"
       x2="48"
       y2="45" />
    <linearGradient
       inkscape:collect="always"
       xlink:href="#linearGradient3822"
       id="linearGradient3429"
       gradientUnits="userSpaceOnUse"
       gradientTransform="matrix(0.16666669,0,0,0.75,32.499998,35.5)"
       x1="24"
       y1="44.666668"
       x2="24"
       y2="48.666668" />
    <linearGradient
       inkscape:collect="always"
       xlink:href="#linearGradient5048"
       id="linearGradient3436"
       gradientUnits="userSpaceOnUse"
       gradientTransform="matrix(0.06213018,0,0,0.02882353,1.5443788,28.431916)"
       x1="302.85715"
       y1="366.64789"
       x2="302.85715"
       y2="609.50507" />
    <radialGradient
       inkscape:collect="always"
       xlink:href="#linearGradient5060"
       id="radialGradient3438"
       gradientUnits="userSpaceOnUse"
       gradientTransform="matrix(0.06425914,0,0,0.02882478,0.27356884,28.431214)"
       cx="605.71429"
       cy="486.64789"
       fx="605.71429"
       fy="486.64789"
       r="117.14286" />
    <radialGradient
       inkscape:collect="always"
       xlink:href="#linearGradient5060"
       id="radialGradient3440"
       gradientUnits="userSpaceOnUse"
       gradientTransform="matrix(-0.06425912,0,0,0.02882478,47.72643,28.431214)"
       cx="605.71429"
       cy="486.64789"
       fx="605.71429"
       fy="486.64789"
       r="117.14286" />
  </defs>
  <g
     id="g3431"
     transform="translate(0,-2.997332)">
    <rect
       style="opacity:0.5;fill:url(#linearGradient3436);fill-opacity:1;fill-rule:nonzero;stroke:none;stroke-width:104.96237946;marker:none;visibility:visible;display:inline;overflow:visible"
       id="rect4173"
       y="39"
       x="9"
       height="7"
       width="30" />
    <path
       inkscape:connector-curvature="0"
       style="opacity:0.5;fill:url(#radialGradient3438);fill-opacity:1;fill-rule:nonzero;stroke:none;stroke-width:104.96237946;marker:none;visibility:visible;display:inline;overflow:visible"
       id="path5058"
       d="m 39,39 c 0,0 0,6.999918 0,6.999918 3.309186,0.01318 8.000002,-1.568326 8,-3.500408 C 47,40.567426 43.307198,39.000001 39,39 z" />
    <path
       inkscape:connector-curvature="0"
       style="opacity:0.5;fill:url(#radialGradient3440);fill-opacity:1;fill-rule:nonzero;stroke:none;stroke-width:104.96237946;marker:none;visibility:visible;display:inline;overflow:visible"
       id="path5018"
       d="m 9,39 c 0,0 0,6.999918 0,6.999918 C 5.6908137,46.013098 1,44.431592 1,42.49951 1,40.567426 4.6928016,39.000001 9,39 z" />
  </g>
  <g
     id="g3407"
     transform="translate(-46,5.0026681)">
    <rect
       transform="scale(-1,1)"
       style="color:#000000;fill:url(#linearGradient3417);fill-opacity:1;fill-rule:nonzero;stroke:none;stroke-width:1;marker:none;visibility:visible;display:inline;overflow:visible;enable-background:accumulate"
       id="rect3959"
       width="20"
       height="1"
       x="-67"
       y="38" />
    <rect
       transform="scale(-1,1)"
       y="41"
       x="-67"
       height="1"
       width="20"
       id="rect3961"
       style="color:#000000;fill:url(#linearGradient3419);fill-opacity:1;fill-rule:nonzero;stroke:none;stroke-width:1;marker:none;visibility:visible;display:inline;overflow:visible;enable-background:accumulate" />
    <rect
       transform="scale(-1,1)"
       y="39"
       x="-67"
       height="2"
       width="21"
       id="rect3963"
       style="color:#000000;fill:url(#linearGradient3421);fill-opacity:1;fill-rule:nonzero;stroke:none;stroke-width:1;marker:none;visibility:visible;display:inline;overflow:visible;enable-background:accumulate" />
    <rect
       y="38"
       x="73"
       height="1"
       width="20"
       id="rect3820"
       style="color:#000000;fill:url(#linearGradient3423);fill-opacity:1;fill-rule:nonzero;stroke:none;stroke-width:1;marker:none;visibility:visible;display:inline;overflow:visible;enable-background:accumulate" />
    <rect
       style="color:#000000;fill:url(#linearGradient3425);fill-opacity:1;fill-rule:nonzero;stroke:none;stroke-width:1;marker:none;visibility:visible;display:inline;overflow:visible;enable-background:accumulate"
       id="rect3953"
       width="20"
       height="1"
       x="73"
       y="41" />
    <rect
       style="color:#000000;fill:url(#linearGradient3427);fill-opacity:1;fill-rule:nonzero;stroke:none;stroke-width:1;marker:none;visibility:visible;display:inline;overflow:visible;enable-background:accumulate"
       id="rect3931"
       width="21"
       height="2"
       x="73"
       y="39" />
    <rect
       rx="1.9999998"
       ry="2"
       y="37.5"
       x="65.5"
       height="5"
       width="9"
       id="rect3863"
       style="color:#000000;fill:#fcd600;fill-opacity:1;fill-rule:nonzero;stroke:#7d6300;stroke-width:0.99999988;stroke-opacity:1;marker:none;visibility:visible;display:inline;overflow:visible;enable-background:accumulate" />
    <rect
       rx="1.5"
       ry="1.5"
       transform="matrix(0,1,1,0,0,0)"
       style="color:#000000;fill:url(#linearGradient3429);fill-opacity:1;fill-rule:nonzero;stroke:#646464;stroke-width:1;stroke-opacity:1;marker:none;visibility:visible;display:inline;overflow:visible;enable-background:accumulate"
       id="rect3925"
       width="8"
       height="3"
       x="32.5"
       y="68.5" />
  </g>
  <path
     d="m 7.5,3.502668 c -0.8095073,0 -2,0.7701641 -2,2 l 0,1 -1,0 c -1.0013529,0 -2,1.1353372 -2,2 l 0,29 c 0.045778,1.4225 0.9108155,1.985435 2.5,2 l 35.5,0 0,-31 c 0,-1.1406972 -1.011011,-2 -2,-2 l -17,0 0,-1 c 0,-0.7942627 -0.56185,-2 -2,-2 z"
     id="path3496"
     style="color:#000000;fill:url(#linearGradient3433-6);fill-opacity:1;fill-rule:nonzero;stroke:url(#linearGradient3435-5);stroke-width:1;stroke-linecap:round;stroke-linejoin:round;stroke-miterlimit:4;stroke-opacity:1;stroke-dasharray:none;stroke-dashoffset:0;marker:none;visibility:visible;display:inline;overflow:visible;enable-background:accumulate"
     inkscape:connector-curvature="0"
     sodipodi:nodetypes="cccscccccccccc" />
  <path
     d="m 9.5,9.502668 34,0 c 0.932164,0 1.923729,1.087401 2,2 l 0,25.5 c 0.01133,1.421105 -0.545177,2.5 -2.5,2.5 l -38,0 c 1.0728427,-10e-7 2.4953635,-0.408714 2.499964,-2 l 3.41e-5,-26 c 0,-1.008697 1.0364716,-2 2.0000019,-2 z"
     id="path3498"
     style="color:#000000;fill:url(#linearGradient3423-0);fill-opacity:1;fill-rule:nonzero;stroke:url(#linearGradient3425-7);stroke-width:1;stroke-linecap:round;stroke-linejoin:round;stroke-miterlimit:4;stroke-opacity:1;stroke-dasharray:none;stroke-dashoffset:0;marker:none;visibility:visible;display:inline;overflow:visible;enable-background:accumulate"
     inkscape:connector-curvature="0"
     sodipodi:nodetypes="ccccccccc" />
  <g
     style="color:black;fill:#002a3c;fill-opacity:0.74509804;fill-rule:evenodd;stroke:none;stroke-width:3pt;marker:none;visibility:visible;display:inline;overflow:visible;enable-background:accumulate"
     id="layer4-6"
     transform="translate(2.313435,-185.78881)" />
  <g
     style="color:black;fill:#002a3c;fill-opacity:0.74509804;fill-rule:evenodd;stroke:none;stroke-width:3pt;marker:none;visibility:visible;display:inline;overflow:visible;enable-background:accumulate"
     id="layer4-3-5"
     transform="translate(28.877816,-175.33495)" />
  <g
     style="color:black;fill:#002a3c;fill-opacity:0.74509804;fill-rule:evenodd;stroke:none;stroke-width:3pt;marker:none;visibility:visible;display:inline;overflow:visible;enable-background:accumulate"
     id="layer4-8-74"
     transform="translate(85.002817,-172.39972)" />
  <g
     style="color:black;fill:#002a3c;fill-opacity:0.74509804;fill-rule:evenodd;stroke:none;stroke-width:3.00082188pt;marker:none;visibility:visible;display:inline;overflow:visible;enable-background:accumulate"
     id="layer4-39-9"
     transform="matrix(0.99945236,0,0,1,147.98325,-175.10942)" />
  <g
     style="color:black;fill:#002a3c;fill-opacity:0.74509804;fill-rule:evenodd;stroke:none;stroke-width:3.00082188pt;marker:none;visibility:visible;display:inline;overflow:visible;enable-background:accumulate"
     id="layer4-3-6-1"
     transform="matrix(0.99945236,0,0,1,174.53308,-164.65556)" />
  <g
     style="color:black;fill:#002a3c;fill-opacity:0.74509804;fill-rule:evenodd;stroke:none;stroke-width:3.00082188pt;marker:none;visibility:visible;display:inline;overflow:visible;enable-background:accumulate"
     id="layer4-8-2-1"
     transform="matrix(0.99945236,0,0,1,230.62734,-161.72033)" />
  <g
     style="color:black;fill:#002a3c;fill-opacity:0.74509804;fill-rule:evenodd;stroke:none;stroke-width:3pt;marker:none;visibility:visible;display:inline;overflow:visible;enable-background:accumulate"
     id="layer4-7"
     transform="translate(124.05255,-181.39082)" />
  <g
     style="color:black;fill:#002a3c;fill-opacity:0.74509804;fill-rule:evenodd;stroke:none;stroke-width:3pt;marker:none;visibility:visible;display:inline;overflow:visible;enable-background:accumulate"
     id="layer4-3-34"
     transform="translate(150.61694,-170.93696)" />
  <g
     style="color:black;fill:#002a3c;fill-opacity:0.74509804;fill-rule:evenodd;stroke:none;stroke-width:3pt;marker:none;visibility:visible;display:inline;overflow:visible;enable-background:accumulate"
     id="layer4-8-7"
     transform="translate(206.74193,-168.00173)" />
  <g
     style="color:black;fill:#002a3c;fill-opacity:0.74509804;fill-rule:evenodd;stroke:none;stroke-width:3.00082188pt;marker:none;visibility:visible;display:inline;overflow:visible;enable-background:accumulate"
     id="layer4-39-0-8"
     transform="matrix(0.99945236,0,0,1,147.80736,-171.64953)" />
  <g
     style="color:black;fill:#002a3c;fill-opacity:0.74509804;fill-rule:evenodd;stroke:none;stroke-width:3.00082188pt;marker:none;visibility:visible;display:inline;overflow:visible;enable-background:accumulate"
     id="layer4-3-6-5-4"
     transform="matrix(0.99945236,0,0,1,174.35719,-161.19567)" />
  <g
     style="color:black;fill:#002a3c;fill-opacity:0.74509804;fill-rule:evenodd;stroke:none;stroke-width:3.00082188pt;marker:none;visibility:visible;display:inline;overflow:visible;enable-background:accumulate"
     id="layer4-8-2-3-0"
     transform="matrix(0.99945236,0,0,1,230.45146,-158.26044)" />
  <g
     style="color:black;fill:#002a3c;fill-opacity:0.74509804;fill-rule:evenodd;stroke:none;stroke-width:3pt;marker:none;visibility:visible;display:inline;overflow:visible;enable-background:accumulate"
     id="layer4-9-8"
     transform="translate(123.87667,-177.93093)" />
  <g
     style="color:black;fill:#002a3c;fill-opacity:0.74509804;fill-rule:evenodd;stroke:none;stroke-width:3pt;marker:none;visibility:visible;display:inline;overflow:visible;enable-background:accumulate"
     id="layer4-3-8-3"
     transform="translate(150.44105,-167.47707)" />
  <g
     style="color:black;fill:#002a3c;fill-opacity:0.74509804;fill-rule:evenodd;stroke:none;stroke-width:3pt;marker:none;visibility:visible;display:inline;overflow:visible;enable-background:accumulate"
     id="layer4-8-4-6"
     transform="translate(206.56605,-164.54184)" />
  <g
     style="color:black;fill:#002a3c;fill-opacity:0.74509804;fill-rule:evenodd;stroke:none;stroke-width:3pt;marker:none;visibility:visible;display:inline;overflow:visible;enable-background:accumulate"
     id="layer4-88-8"
     transform="translate(188.57116,-130.1446)" />
  <g
     style="color:black;fill:#002a3c;fill-opacity:0.74509804;fill-rule:evenodd;stroke:none;stroke-width:3pt;marker:none;visibility:visible;display:inline;overflow:visible;enable-background:accumulate"
     id="layer4-3-3-3"
     transform="translate(215.13555,-119.69074)" />
  <g
     style="color:black;fill:#002a3c;fill-opacity:0.74509804;fill-rule:evenodd;stroke:none;stroke-width:3pt;marker:none;visibility:visible;display:inline;overflow:visible;enable-background:accumulate"
     id="layer4-8-21-2"
     transform="translate(271.26055,-116.75551)" />
  <g
     id="layer2-8"
     style="display:none"
     transform="matrix(0.99945236,0,0,1,101.6187,-179.86082)">
    <rect
       width="86"
       height="85"
       rx="6.0032878"
       ry="6"
       x="5"
       y="7"
       id="rect3745-0"
       style="opacity:0.9;fill:url(#ButtonShadow-0);fill-opacity:1;fill-rule:nonzero;stroke:none;filter:url(#filter3174-44)" />
  </g>
  <g
     id="layer4-39"
     transform="matrix(0.99945236,0,0,1,101.6187,-179.86082)" />
  <g
     id="layer2-0-0"
     style="display:none"
     transform="matrix(0.99945236,0,0,1,128.16853,-169.40696)">
    <rect
       width="86"
       height="85"
       rx="6.0032878"
       ry="6"
       x="5"
       y="7"
       id="rect3745-7-1"
       style="opacity:0.9;fill:url(#ButtonShadow-91-7);fill-opacity:1;fill-rule:nonzero;stroke:none;filter:url(#filter3174-4-4)" />
  </g>
  <g
     id="layer4-3-6"
     transform="matrix(0.99945236,0,0,1,128.16853,-169.40696)" />
  <g
     id="layer2-1-5"
     style="display:none"
     transform="matrix(0.99945236,0,0,1,184.26279,-166.47173)">
    <rect
       width="86"
       height="85"
       rx="6.0032878"
       ry="6"
       x="5"
       y="7"
       id="rect3745-1-3"
       style="opacity:0.9;fill:url(#ButtonShadow-9-1);fill-opacity:1;fill-rule:nonzero;stroke:none;filter:url(#filter3174-2-2)" />
  </g>
  <g
     id="layer4-8-2"
     transform="matrix(0.99945236,0,0,1,184.26279,-166.47173)" />
  <g
     id="layer2"
     style="display:none"
     transform="translate(77.688004,-186.14222)">
    <rect
       width="86"
       height="85"
       rx="6"
       ry="6"
       x="5"
       y="7"
       id="rect3745"
       style="opacity:0.9;fill:url(#linearGradient4045);fill-opacity:1;fill-rule:nonzero;stroke:none;filter:url(#filter3174-34)" />
  </g>
  <g
     id="layer4"
     transform="translate(77.688004,-186.14222)" />
  <g
     id="layer2-0"
     style="display:none"
     transform="translate(104.25239,-175.68836)">
    <rect
       width="86"
       height="85"
       rx="6"
       ry="6"
       x="5"
       y="7"
       id="rect3745-7"
       style="opacity:0.9;fill:url(#linearGradient4047);fill-opacity:1;fill-rule:nonzero;stroke:none;filter:url(#filter3174-4-7)" />
  </g>
  <g
     id="layer4-3"
     transform="translate(104.25239,-175.68836)" />
  <g
     id="layer2-1"
     style="display:none"
     transform="translate(160.37738,-172.75313)">
    <rect
       width="86"
       height="85"
       rx="6"
       ry="6"
       x="5"
       y="7"
       id="rect3745-1"
       style="opacity:0.9;fill:url(#linearGradient4049);fill-opacity:1;fill-rule:nonzero;stroke:none;filter:url(#filter3174-2-0)" />
  </g>
  <g
     id="layer4-8"
     transform="translate(160.37738,-172.75313)" />
  <g
     id="layer2-8-6"
     style="display:none"
     transform="matrix(0.99945236,0,0,1,101.44281,-176.40093)">
    <rect
       width="86"
       height="85"
       rx="6.0032878"
       ry="6"
       x="5"
       y="7"
       id="rect3745-0-8"
       style="opacity:0.9;fill:url(#ButtonShadow-0-3);fill-opacity:1;fill-rule:nonzero;stroke:none;filter:url(#filter3174-44-1)" />
  </g>
  <g
     id="layer4-39-0"
     transform="matrix(0.99945236,0,0,1,101.44281,-176.40093)" />
  <g
     id="layer2-0-0-4"
     style="display:none"
     transform="matrix(0.99945236,0,0,1,127.99264,-165.94707)">
    <rect
       width="86"
       height="85"
       rx="6.0032878"
       ry="6"
       x="5"
       y="7"
       id="rect3745-7-1-9"
       style="opacity:0.9;fill:url(#ButtonShadow-91-7-0);fill-opacity:1;fill-rule:nonzero;stroke:none;filter:url(#filter3174-4-4-2)" />
  </g>
  <g
     id="layer4-3-6-5"
     transform="matrix(0.99945236,0,0,1,127.99264,-165.94707)" />
  <g
     id="layer2-1-5-8"
     style="display:none"
     transform="matrix(0.99945236,0,0,1,184.08691,-163.01184)">
    <rect
       width="86"
       height="85"
       rx="6.0032878"
       ry="6"
       x="5"
       y="7"
       id="rect3745-1-3-0"
       style="opacity:0.9;fill:url(#ButtonShadow-9-1-0);fill-opacity:1;fill-rule:nonzero;stroke:none;filter:url(#filter3174-2-2-8)" />
  </g>
  <g
     id="layer4-8-2-3"
     transform="matrix(0.99945236,0,0,1,184.08691,-163.01184)" />
  <g
     id="layer2-89"
     style="display:none"
     transform="translate(77.512115,-182.68233)">
    <rect
       width="86"
       height="85"
       rx="6"
       ry="6"
       x="5"
       y="7"
       id="rect3745-16"
       style="opacity:0.9;fill:url(#linearGradient4045-1);fill-opacity:1;fill-rule:nonzero;stroke:none;filter:url(#filter3174-34-6)" />
  </g>
  <g
     id="layer4-9"
     transform="translate(77.512115,-182.68233)" />
  <g
     id="layer2-0-7"
     style="display:none"
     transform="translate(104.0765,-172.22847)">
    <rect
       width="86"
       height="85"
       rx="6"
       ry="6"
       x="5"
       y="7"
       id="rect3745-7-0"
       style="opacity:0.9;fill:url(#linearGradient4047-0);fill-opacity:1;fill-rule:nonzero;stroke:none;filter:url(#filter3174-4-7-2)" />
  </g>
  <g
     id="layer4-3-8"
     transform="translate(104.0765,-172.22847)" />
  <g
     id="layer2-1-6"
     style="display:none"
     transform="translate(160.2015,-169.29324)">
    <rect
       width="86"
       height="85"
       rx="6"
       ry="6"
       x="5"
       y="7"
       id="rect3745-1-2"
       style="opacity:0.9;fill:url(#linearGradient4049-7);fill-opacity:1;fill-rule:nonzero;stroke:none;filter:url(#filter3174-2-0-6)" />
  </g>
  <g
     id="layer4-8-4"
     transform="translate(160.2015,-169.29324)" />
  <g
     style="color:black;fill:#002a3c;fill-opacity:0.74509804;fill-rule:evenodd;stroke:none;stroke-width:3pt;marker:none;visibility:visible;display:inline;overflow:visible;enable-background:accumulate"
     id="layer4-88"
     transform="translate(142.20661,-134.896)" />
  <g
     style="color:black;fill:#002a3c;fill-opacity:0.74509804;fill-rule:evenodd;stroke:none;stroke-width:3pt;marker:none;visibility:visible;display:inline;overflow:visible;enable-background:accumulate"
     id="layer4-3-3"
     transform="translate(168.771,-124.44214)" />
  <g
     style="color:black;fill:#002a3c;fill-opacity:0.74509804;fill-rule:evenodd;stroke:none;stroke-width:3pt;marker:none;visibility:visible;display:inline;overflow:visible;enable-background:accumulate"
     id="layer4-8-21"
     transform="translate(224.896,-121.50691)" />
  <rect
     style="color:#000000;fill:none;stroke:url(#linearGradient4349);stroke-width:0.99999994;stroke-linecap:round;stroke-linejoin:round;stroke-miterlimit:4;stroke-opacity:1;stroke-dasharray:none;stroke-dashoffset:0;marker:none;visibility:visible;display:inline;overflow:visible;enable-background:accumulate"
     id="rect4341"
     width="36"
     height="17"
     x="8.5"
     y="10.502668"
     ry="1.4999998"
     rx="1.5" />
  <path
     style="color:#000000;fill:#ffffff;fill-opacity:0.35294118;fill-rule:nonzero;stroke:none;stroke-width:1;marker:none;visibility:visible;display:inline;overflow:visible;enable-background:accumulate"
     d="m 3,15.002668 0,2 4,0 0,-2 z m 0,4 0,2 4,0 0,-2 z m 0,4 0,2 4,0 0,-2 z m 0,4 0,2 4,0 0,-2 z m 0,4 0,2 4,0 0,-2 z m 0,4 0,2 4,0 0,-2 z"
     id="rect4385"
     inkscape:connector-curvature="0"
     sodipodi:nodetypes="cccccccccccccccccccccccccccccc" />
  <rect
     style="opacity:0.4;color:#000000;fill:url(#linearGradient4192-4);fill-opacity:1;fill-rule:nonzero;stroke:none;stroke-width:1;marker:none;visibility:visible;display:inline;overflow:visible;enable-background:accumulate"
     id="rect4217"
     width="35"
     height="12"
     x="9"
     y="28.002668" />
  <path
     sodipodi:nodetypes="ccccccccc"
     inkscape:connector-curvature="0"
     style="color:#000000;fill:none;stroke:url(#linearGradient4069);stroke-width:1;stroke-linecap:round;stroke-linejoin:round;stroke-miterlimit:4;stroke-opacity:1;stroke-dasharray:none;stroke-dashoffset:0;marker:none;visibility:visible;display:inline;overflow:visible;enable-background:accumulate"
     id="path3283"
     d="m 10.500162,17.5 32,0 c 0.897636,0 1.926392,1.11592 1.999838,2 l 0,17 c 0,1.509644 -0.603559,2 -1.999838,2 l -34.5,0 c 0,0 0.5,0.104854 0.5,-1 l 0,-18 c 0,-0.977175 1.07216,-2 2,-2 z" />
  <g
     id="layer2-7"
     style="display:none"
     transform="translate(51.204491,-184.6879)">
    <rect
       width="86"
       height="85"
       rx="6"
       ry="6"
       x="5"
       y="7"
       id="rect3745-02"
       style="opacity:0.9;fill:url(#ButtonShadow);fill-opacity:1;fill-rule:nonzero;stroke:none;filter:url(#filter3174)" />
  </g>
  <g
     id="layer4-71"
     transform="translate(51.204491,-184.6879)" />
</svg>
