<?xml version="1.0" encoding="UTF-8" standalone="no"?>
<!-- Created with Inkscape (http://www.inkscape.org/) -->

<svg
   xmlns:dc="http://purl.org/dc/elements/1.1/"
   xmlns:cc="http://creativecommons.org/ns#"
   xmlns:rdf="http://www.w3.org/1999/02/22-rdf-syntax-ns#"
   xmlns:svg="http://www.w3.org/2000/svg"
   xmlns="http://www.w3.org/2000/svg"
   xmlns:xlink="http://www.w3.org/1999/xlink"
   xmlns:sodipodi="http://sodipodi.sourceforge.net/DTD/sodipodi-0.dtd"
   xmlns:inkscape="http://www.inkscape.org/namespaces/inkscape"
   version="1.0"
   width="48"
   height="48"
   id="svg3437"
   inkscape:version="0.92.1 r15371"
   sodipodi:docname="folder-documents.svg">
  <metadata
     id="metadata101">
    <rdf:RDF>
      <cc:Work
         rdf:about="">
        <dc:format>image/svg+xml</dc:format>
        <dc:type
           rdf:resource="http://purl.org/dc/dcmitype/StillImage" />
        <dc:title />
      </cc:Work>
    </rdf:RDF>
  </metadata>
  <sodipodi:namedview
     pagecolor="#ffffff"
     bordercolor="#666666"
     borderopacity="1"
     objecttolerance="10"
     gridtolerance="10"
     guidetolerance="10"
     inkscape:pageopacity="0"
     inkscape:pageshadow="2"
     inkscape:window-width="1280"
     inkscape:window-height="998"
     id="namedview99"
     showgrid="true"
     inkscape:zoom="5.6568539"
     inkscape:cx="64.602302"
     inkscape:cy="13.938586"
     inkscape:window-x="0"
     inkscape:window-y="0"
     inkscape:window-maximized="1"
     inkscape:current-layer="svg3437"
     inkscape:snap-to-guides="true"
     inkscape:snap-grids="true"
     inkscape:snap-bbox="true"
     showguides="true"
     inkscape:guide-bbox="true"
     inkscape:bbox-paths="true"
     inkscape:bbox-nodes="true">
    <inkscape:grid
       type="xygrid"
       id="grid911"
       empspacing="5"
       visible="true"
       enabled="true"
       snapvisiblegridlinesonly="true" />
    <sodipodi:guide
       orientation="1,0"
       position="26,12"
       id="guide3150" />
    <sodipodi:guide
       orientation="1,0"
       position="41,22"
       id="guide3152" />
    <sodipodi:guide
       orientation="0,1"
       position="42,9"
       id="guide3154" />
    <sodipodi:guide
       orientation="0,1"
       position="45,24"
       id="guide3156" />
  </sodipodi:namedview>
  <defs
     id="defs3439">
    <linearGradient
       id="linearGradient4063">
      <stop
         style="stop-color:white;stop-opacity:0.15686275;"
         offset="0"
         id="stop4065" />
      <stop
         style="stop-color:white;stop-opacity:0;"
         offset="1"
         id="stop4067" />
    </linearGradient>
    <linearGradient
       id="linearGradient4343">
      <stop
         style="stop-color:white;stop-opacity:0.78431374;"
         offset="0"
         id="stop4345" />
      <stop
         style="stop-color:white;stop-opacity:0;"
         offset="1"
         id="stop4347" />
    </linearGradient>
    <linearGradient
       id="linearGradient5060">
      <stop
         id="stop5062"
         style="stop-color:#000000;stop-opacity:1"
         offset="0" />
      <stop
         id="stop5064"
         style="stop-color:#000000;stop-opacity:0"
         offset="1" />
    </linearGradient>
    <linearGradient
       id="linearGradient5048">
      <stop
         id="stop5050"
         style="stop-color:#000000;stop-opacity:0"
         offset="0" />
      <stop
         id="stop5056"
         style="stop-color:#000000;stop-opacity:1"
         offset="0.5" />
      <stop
         id="stop5052"
         style="stop-color:#000000;stop-opacity:0"
         offset="1" />
    </linearGradient>
    <linearGradient
       inkscape:collect="always"
       xlink:href="#linearGradient5048"
       id="linearGradient3127"
       gradientUnits="userSpaceOnUse"
       gradientTransform="matrix(0.06214224,0,0,0.02900085,1.6242719,28.085503)"
       x1="302.85715"
       y1="366.64789"
       x2="302.85715"
       y2="609.50507" />
    <radialGradient
       inkscape:collect="always"
       xlink:href="#linearGradient5060"
       id="radialGradient3129"
       gradientUnits="userSpaceOnUse"
       gradientTransform="matrix(0.06214224,0,0,0.02900085,1.6365015,28.085503)"
       cx="605.71429"
       cy="486.64789"
       fx="605.71429"
       fy="486.64789"
       r="117.14286" />
    <radialGradient
       inkscape:collect="always"
       xlink:href="#linearGradient5060"
       id="radialGradient3131"
       gradientUnits="userSpaceOnUse"
       gradientTransform="matrix(-0.06214224,0,0,0.02900085,46.53201,28.085503)"
       cx="605.71429"
       cy="486.64789"
       fx="605.71429"
       fy="486.64789"
       r="117.14286" />
    <linearGradient
       y2="7.0165396"
       x2="45.447727"
       y1="92.539597"
       x1="45.447727"
       gradientTransform="scale(1.0058652,0.994169)"
       gradientUnits="userSpaceOnUse"
       id="linearGradient4049"
       xlink:href="#ButtonShadow-9-2"
       inkscape:collect="always" />
    <linearGradient
       y2="7.0165396"
       x2="45.447727"
       y1="92.539597"
       x1="45.447727"
       gradientTransform="scale(1.0058652,0.994169)"
       gradientUnits="userSpaceOnUse"
       id="linearGradient4047"
       xlink:href="#ButtonShadow-91-6"
       inkscape:collect="always" />
    <linearGradient
       y2="7.0165396"
       x2="45.447727"
       y1="92.539597"
       x1="45.447727"
       gradientTransform="scale(1.0058652,0.994169)"
       gradientUnits="userSpaceOnUse"
       id="linearGradient4045"
       xlink:href="#ButtonShadow-3"
       inkscape:collect="always" />
    <filter
       id="filter3174-34"
       color-interpolation-filters="sRGB">
      <feGaussianBlur
         stdDeviation="1.71"
         id="feGaussianBlur3176-32" />
    </filter>
    <linearGradient
       gradientTransform="scale(1.0058652,0.994169)"
       gradientUnits="userSpaceOnUse"
       id="ButtonShadow-3"
       y2="7.0165396"
       x2="45.447727"
       y1="92.539597"
       x1="45.447727">
      <stop
         offset="0"
         style="stop-color:#000000;stop-opacity:1"
         id="stop3750-41" />
      <stop
         offset="1"
         style="stop-color:#000000;stop-opacity:0.58823532"
         id="stop3752-4" />
    </linearGradient>
    <filter
       id="filter3174-2-0"
       color-interpolation-filters="sRGB">
      <feGaussianBlur
         stdDeviation="1.71"
         id="feGaussianBlur3176-1-0" />
    </filter>
    <linearGradient
       gradientTransform="scale(1.0058652,0.994169)"
       gradientUnits="userSpaceOnUse"
       id="ButtonShadow-9-2"
       y2="7.0165396"
       x2="45.447727"
       y1="92.539597"
       x1="45.447727">
      <stop
         offset="0"
         style="stop-color:#000000;stop-opacity:1"
         id="stop3750-3-4" />
      <stop
         offset="1"
         style="stop-color:#000000;stop-opacity:0.58823532"
         id="stop3752-0-7" />
    </linearGradient>
    <linearGradient
       x1="45.447727"
       y1="92.539597"
       x2="45.447727"
       y2="7.0165396"
       id="ButtonShadow-91-6"
       gradientUnits="userSpaceOnUse"
       gradientTransform="scale(1.0058652,0.994169)">
      <stop
         id="stop3750-4-7"
         style="stop-color:#000000;stop-opacity:1"
         offset="0" />
      <stop
         id="stop3752-2-68"
         style="stop-color:#000000;stop-opacity:0.58823532"
         offset="1" />
    </linearGradient>
    <filter
       color-interpolation-filters="sRGB"
       id="filter3174-4-7">
      <feGaussianBlur
         id="feGaussianBlur3176-2-4"
         stdDeviation="1.71" />
    </filter>
    <filter
       id="filter3174-44"
       color-interpolation-filters="sRGB">
      <feGaussianBlur
         stdDeviation="1.71"
         id="feGaussianBlur3176-3" />
    </filter>
    <linearGradient
       gradientTransform="scale(1.0058652,0.994169)"
       gradientUnits="userSpaceOnUse"
       id="ButtonShadow-0"
       y2="7.0165396"
       x2="45.447727"
       y1="92.539597"
       x1="45.447727">
      <stop
         offset="0"
         style="stop-color:#000000;stop-opacity:1"
         id="stop3750-2" />
      <stop
         offset="1"
         style="stop-color:#000000;stop-opacity:0.58823532"
         id="stop3752-6" />
    </linearGradient>
    <filter
       id="filter3174-2-2"
       color-interpolation-filters="sRGB">
      <feGaussianBlur
         stdDeviation="1.71"
         id="feGaussianBlur3176-1-3" />
    </filter>
    <linearGradient
       gradientTransform="scale(1.0058652,0.994169)"
       gradientUnits="userSpaceOnUse"
       id="ButtonShadow-9-1"
       y2="7.0165396"
       x2="45.447727"
       y1="92.539597"
       x1="45.447727">
      <stop
         offset="0"
         style="stop-color:#000000;stop-opacity:1"
         id="stop3750-3-65" />
      <stop
         offset="1"
         style="stop-color:#000000;stop-opacity:0.58823532"
         id="stop3752-0-0" />
    </linearGradient>
    <linearGradient
       x1="45.447727"
       y1="92.539597"
       x2="45.447727"
       y2="7.0165396"
       id="ButtonShadow-91-7"
       gradientUnits="userSpaceOnUse"
       gradientTransform="scale(1.0058652,0.994169)">
      <stop
         id="stop3750-4-4"
         style="stop-color:#000000;stop-opacity:1"
         offset="0" />
      <stop
         id="stop3752-2-7"
         style="stop-color:#000000;stop-opacity:0.58823532"
         offset="1" />
    </linearGradient>
    <filter
       color-interpolation-filters="sRGB"
       id="filter3174-4-4">
      <feGaussianBlur
         id="feGaussianBlur3176-2-3"
         stdDeviation="1.71" />
    </filter>
    <linearGradient
       y2="7.0165396"
       x2="45.447727"
       y1="92.539597"
       x1="45.447727"
       gradientTransform="scale(1.0058652,0.994169)"
       gradientUnits="userSpaceOnUse"
       id="linearGradient4049-7"
       xlink:href="#ButtonShadow-9-2-6"
       inkscape:collect="always" />
    <linearGradient
       y2="7.0165396"
       x2="45.447727"
       y1="92.539597"
       x1="45.447727"
       gradientTransform="scale(1.0058652,0.994169)"
       gradientUnits="userSpaceOnUse"
       id="linearGradient4047-0"
       xlink:href="#ButtonShadow-91-6-6"
       inkscape:collect="always" />
    <linearGradient
       y2="7.0165396"
       x2="45.447727"
       y1="92.539597"
       x1="45.447727"
       gradientTransform="scale(1.0058652,0.994169)"
       gradientUnits="userSpaceOnUse"
       id="linearGradient4045-1"
       xlink:href="#ButtonShadow-3-7"
       inkscape:collect="always" />
    <filter
       id="filter3174-34-6"
       color-interpolation-filters="sRGB">
      <feGaussianBlur
         stdDeviation="1.71"
         id="feGaussianBlur3176-32-5" />
    </filter>
    <linearGradient
       gradientTransform="scale(1.0058652,0.994169)"
       gradientUnits="userSpaceOnUse"
       id="ButtonShadow-3-7"
       y2="7.0165396"
       x2="45.447727"
       y1="92.539597"
       x1="45.447727">
      <stop
         offset="0"
         style="stop-color:#000000;stop-opacity:1"
         id="stop3750-41-6" />
      <stop
         offset="1"
         style="stop-color:#000000;stop-opacity:0.58823532"
         id="stop3752-4-9" />
    </linearGradient>
    <filter
       id="filter3174-2-0-6"
       color-interpolation-filters="sRGB">
      <feGaussianBlur
         stdDeviation="1.71"
         id="feGaussianBlur3176-1-0-4" />
    </filter>
    <linearGradient
       gradientTransform="scale(1.0058652,0.994169)"
       gradientUnits="userSpaceOnUse"
       id="ButtonShadow-9-2-6"
       y2="7.0165396"
       x2="45.447727"
       y1="92.539597"
       x1="45.447727">
      <stop
         offset="0"
         style="stop-color:#000000;stop-opacity:1"
         id="stop3750-3-4-7" />
      <stop
         offset="1"
         style="stop-color:#000000;stop-opacity:0.58823532"
         id="stop3752-0-7-0" />
    </linearGradient>
    <linearGradient
       x1="45.447727"
       y1="92.539597"
       x2="45.447727"
       y2="7.0165396"
       id="ButtonShadow-91-6-6"
       gradientUnits="userSpaceOnUse"
       gradientTransform="scale(1.0058652,0.994169)">
      <stop
         id="stop3750-4-7-8"
         style="stop-color:#000000;stop-opacity:1"
         offset="0" />
      <stop
         id="stop3752-2-68-9"
         style="stop-color:#000000;stop-opacity:0.58823532"
         offset="1" />
    </linearGradient>
    <filter
       color-interpolation-filters="sRGB"
       id="filter3174-4-7-2">
      <feGaussianBlur
         id="feGaussianBlur3176-2-4-8"
         stdDeviation="1.71" />
    </filter>
    <filter
       id="filter3174-44-1"
       color-interpolation-filters="sRGB">
      <feGaussianBlur
         stdDeviation="1.71"
         id="feGaussianBlur3176-3-3" />
    </filter>
    <linearGradient
       gradientTransform="scale(1.0058652,0.994169)"
       gradientUnits="userSpaceOnUse"
       id="ButtonShadow-0-3"
       y2="7.0165396"
       x2="45.447727"
       y1="92.539597"
       x1="45.447727">
      <stop
         offset="0"
         style="stop-color:#000000;stop-opacity:1"
         id="stop3750-2-6" />
      <stop
         offset="1"
         style="stop-color:#000000;stop-opacity:0.58823532"
         id="stop3752-6-8" />
    </linearGradient>
    <filter
       id="filter3174-2-2-8"
       color-interpolation-filters="sRGB">
      <feGaussianBlur
         stdDeviation="1.71"
         id="feGaussianBlur3176-1-3-0" />
    </filter>
    <linearGradient
       gradientTransform="scale(1.0058652,0.994169)"
       gradientUnits="userSpaceOnUse"
       id="ButtonShadow-9-1-0"
       y2="7.0165396"
       x2="45.447727"
       y1="92.539597"
       x1="45.447727">
      <stop
         offset="0"
         style="stop-color:#000000;stop-opacity:1"
         id="stop3750-3-65-2" />
      <stop
         offset="1"
         style="stop-color:#000000;stop-opacity:0.58823532"
         id="stop3752-0-0-3" />
    </linearGradient>
    <linearGradient
       x1="45.447727"
       y1="92.539597"
       x2="45.447727"
       y2="7.0165396"
       id="ButtonShadow-91-7-0"
       gradientUnits="userSpaceOnUse"
       gradientTransform="scale(1.0058652,0.994169)">
      <stop
         id="stop3750-4-4-1"
         style="stop-color:#000000;stop-opacity:1"
         offset="0" />
      <stop
         id="stop3752-2-7-5"
         style="stop-color:#000000;stop-opacity:0.58823532"
         offset="1" />
    </linearGradient>
    <filter
       color-interpolation-filters="sRGB"
       id="filter3174-4-4-2">
      <feGaussianBlur
         id="feGaussianBlur3176-2-3-0"
         stdDeviation="1.71" />
    </filter>
    <linearGradient
       inkscape:collect="always"
       xlink:href="#linearGradient4494-6-4"
       id="linearGradient3423-0"
       gradientUnits="userSpaceOnUse"
       gradientTransform="matrix(0.54394931,0,0,0.54419279,-152.08938,-280.28689)"
       x1="404.57297"
       y1="537.98169"
       x2="404.57297"
       y2="589.04877" />
    <linearGradient
       id="linearGradient4494-6-4">
      <stop
         offset="0"
         style="stop-color:#c8eda8;stop-opacity:1"
         id="stop4496-8-1" />
      <stop
         offset="1"
         style="stop-color:#7bda26;stop-opacity:1"
         id="stop4498-8-5" />
    </linearGradient>
    <linearGradient
       inkscape:collect="always"
       xlink:href="#linearGradient3390-4-1-27"
       id="linearGradient3425-7"
       gradientUnits="userSpaceOnUse"
       gradientTransform="matrix(1.7093057,0,0,1.7952339,-50.451108,2.988222)"
       x1="65.869827"
       y1="21.104483"
       x2="65.869827"
       y2="5.6443739" />
    <linearGradient
       id="linearGradient3390-4-1-27">
      <stop
         id="stop3392-3-8-1"
         style="stop-color:#496034;stop-opacity:1"
         offset="0" />
      <stop
         id="stop3394-2-0-7"
         style="stop-color:#758e5e;stop-opacity:1"
         offset="1" />
    </linearGradient>
    <linearGradient
       inkscape:collect="always"
       xlink:href="#linearGradient4343"
       id="linearGradient4349"
       x1="20"
       y1="12"
       x2="20"
       y2="31.617647"
       gradientUnits="userSpaceOnUse"
       gradientTransform="matrix(1,0,0,0.65384618,0,3.3269225)" />
    <linearGradient
       inkscape:collect="always"
       xlink:href="#linearGradient933-0"
       id="linearGradient3433-6"
       gradientUnits="userSpaceOnUse"
       gradientTransform="matrix(1.9110635,0,0,1.9668389,113.8977,-29.0345)"
       x1="-28.531403"
       y1="18.645372"
       x2="-28.531403"
       y2="35.589085" />
    <linearGradient
       id="linearGradient933-0">
      <stop
         offset="0"
         style="stop-color:#ffffff;stop-opacity:1"
         id="stop935-7" />
      <stop
         offset="0.70000005"
         style="stop-color:#cdcdcd;stop-opacity:1"
         id="stop937-2" />
      <stop
         offset="1"
         style="stop-color:#a1a1a1;stop-opacity:1"
         id="stop939-0" />
    </linearGradient>
    <linearGradient
       inkscape:collect="always"
       xlink:href="#linearGradient5157-9-5"
       id="linearGradient3435-5"
       gradientUnits="userSpaceOnUse"
       gradientTransform="matrix(1.9110635,0,0,1.9668389,48.199152,-0.5127335)"
       x1="9.8763561"
       y1="2.6014566"
       x2="9.8763561"
       y2="22.113136" />
    <linearGradient
       id="linearGradient5157-9-5">
      <stop
         id="stop5159-3-4"
         style="stop-color:#b5b5b5;stop-opacity:1;"
         offset="0" />
      <stop
         id="stop5161-0-6"
         style="stop-color:#5d5d5d;stop-opacity:1;"
         offset="1" />
    </linearGradient>
    <linearGradient
       inkscape:collect="always"
       xlink:href="#linearGradient4063"
       id="linearGradient4069"
       x1="20"
       y1="42"
       x2="20"
       y2="29"
       gradientUnits="userSpaceOnUse"
       gradientTransform="translate(1.62e-4,-0.00266841)" />
    <linearGradient
       inkscape:collect="always"
       xlink:href="#linearGradient6129-963-697-142-998-580-273-44-2-2-0"
       id="linearGradient4192-4"
       gradientUnits="userSpaceOnUse"
       gradientTransform="matrix(1.1446925,0,0,0.99775357,40.52077,-0.88704077)"
       x1="-18.800482"
       y1="44.988102"
       x2="-18.800482"
       y2="34.965588" />
    <linearGradient
       id="linearGradient6129-963-697-142-998-580-273-44-2-2-0">
      <stop
         offset="0"
         style="stop-color:#0a0a0a;stop-opacity:0.498"
         id="stop2661-01-6-2-2" />
      <stop
         offset="1"
         style="stop-color:#0a0a0a;stop-opacity:0"
         id="stop2663-64-5-5-9" />
    </linearGradient>
    <linearGradient
       gradientUnits="userSpaceOnUse"
       id="linearGradient1022-8-8-3-0-06-59-9-0"
       x2="0"
       y1="3.0069399"
       y2="11.02436">
      <stop
         offset="0"
         id="stop3001-0-9-4-9-02-6-1" />
      <stop
         offset="1"
         stop-color="#363636"
         id="stop3003-5-6-6-5-70-0-7" />
    </linearGradient>
  </defs>
  <rect
     width="30.005821"
     height="7.0430632"
     x="9.0813398"
     y="38.718601"
     id="rect4173"
     style="opacity:0.5;fill:url(#linearGradient3127);fill-opacity:1;fill-rule:nonzero;stroke:none;stroke-width:104.96237946;marker:none;visibility:visible;display:inline;overflow:visible" />
  <path
     d="m 39.087163,38.718845 c 0,0 0,7.042675 0,7.042675 3.200171,0.01326 7.736457,-1.577906 7.736455,-3.52179 0,-1.943885 -3.57115,-3.520884 -7.736455,-3.520885 z"
     id="path5058"
     style="opacity:0.5;fill:url(#radialGradient3129);fill-opacity:1;fill-rule:nonzero;stroke:none;stroke-width:104.96237946;marker:none;visibility:visible;display:inline;overflow:visible"
     inkscape:connector-curvature="0" />
  <path
     d="m 9.0813406,38.718845 c 0,0 0,7.042675 0,7.042675 -3.2001721,0.01326 -7.7364568,-1.577906 -7.7364568,-3.52179 0,-1.943885 3.57115,-3.520884 7.7364568,-3.520885 z"
     id="path5018"
     style="opacity:0.5;fill:url(#radialGradient3131);fill-opacity:1;fill-rule:nonzero;stroke:none;stroke-width:104.96237946;marker:none;visibility:visible;display:inline;overflow:visible"
     inkscape:connector-curvature="0" />
  <path
     d="m 7.5,4.5 c -0.8095073,0 -2,0.7701641 -2,2 l 0,1 -1,0 c -1.0013529,0 -2,1.1353372 -2,2 l 0,31 c 0.045778,1.4225 0.9108155,1.985435 2.5,2 l 35.5,0 0,-33 c 0,-1.1406972 -1.011011,-2 -2,-2 l -17,0 0,-1 c 0,-0.7942627 -0.56185,-2 -2,-2 z"
     id="path3496"
     style="color:black;fill:url(#linearGradient3433-6);fill-opacity:1;fill-rule:nonzero;stroke:url(#linearGradient3435-5);stroke-width:1;stroke-linecap:round;stroke-linejoin:round;stroke-miterlimit:4;stroke-opacity:1;stroke-dasharray:none;stroke-dashoffset:0;marker:none;visibility:visible;display:inline;overflow:visible;enable-background:accumulate"
     inkscape:connector-curvature="0"
     sodipodi:nodetypes="cccscccccccccc" />
  <path
     d="m 9.5,10.5 34,0 c 0.932164,0 1.923729,1.087401 2,2 l 0,27.5 c 0.01133,1.421105 -0.545177,2.5 -2.5,2.5 l -38,0 c 1.0728427,-10e-7 2.4953635,-0.408714 2.499964,-2 l 3.41e-5,-28 c 0,-1.008697 1.0364716,-2 2.0000019,-2 z"
     id="path3498"
     style="color:black;fill:url(#linearGradient3423-0);fill-opacity:1;fill-rule:nonzero;stroke:url(#linearGradient3425-7);stroke-width:1;stroke-linecap:round;stroke-linejoin:round;stroke-miterlimit:4;stroke-opacity:1;stroke-dasharray:none;stroke-dashoffset:0;marker:none;visibility:visible;display:inline;overflow:visible;enable-background:accumulate"
     inkscape:connector-curvature="0"
     sodipodi:nodetypes="ccccccccc" />
  <g
     style="color:black;fill:#002a3c;fill-opacity:0.74509804;fill-rule:evenodd;stroke:none;stroke-width:3pt;marker:none;visibility:visible;display:inline;overflow:visible;enable-background:accumulate"
     id="layer4-6"
     transform="translate(2.313435,-185.78881)" />
  <g
     style="color:black;fill:#002a3c;fill-opacity:0.74509804;fill-rule:evenodd;stroke:none;stroke-width:3pt;marker:none;visibility:visible;display:inline;overflow:visible;enable-background:accumulate"
     id="layer4-3-5"
     transform="translate(28.877816,-175.33495)" />
  <g
     style="color:black;fill:#002a3c;fill-opacity:0.74509804;fill-rule:evenodd;stroke:none;stroke-width:3pt;marker:none;visibility:visible;display:inline;overflow:visible;enable-background:accumulate"
     id="layer4-8-74"
     transform="translate(85.002817,-172.39972)" />
  <g
     style="color:black;fill:#002a3c;fill-opacity:0.74509804;fill-rule:evenodd;stroke:none;stroke-width:3.00082188pt;marker:none;visibility:visible;display:inline;overflow:visible;enable-background:accumulate"
     id="layer4-39-9"
     transform="matrix(0.99945236,0,0,1,147.98325,-175.10942)" />
  <g
     style="color:black;fill:#002a3c;fill-opacity:0.74509804;fill-rule:evenodd;stroke:none;stroke-width:3.00082188pt;marker:none;visibility:visible;display:inline;overflow:visible;enable-background:accumulate"
     id="layer4-3-6-1"
     transform="matrix(0.99945236,0,0,1,174.53308,-164.65556)" />
  <g
     style="color:black;fill:#002a3c;fill-opacity:0.74509804;fill-rule:evenodd;stroke:none;stroke-width:3.00082188pt;marker:none;visibility:visible;display:inline;overflow:visible;enable-background:accumulate"
     id="layer4-8-2-1"
     transform="matrix(0.99945236,0,0,1,230.62734,-161.72033)" />
  <g
     style="color:black;fill:#002a3c;fill-opacity:0.74509804;fill-rule:evenodd;stroke:none;stroke-width:3pt;marker:none;visibility:visible;display:inline;overflow:visible;enable-background:accumulate"
     id="layer4-7"
     transform="translate(124.05255,-181.39082)" />
  <g
     style="color:black;fill:#002a3c;fill-opacity:0.74509804;fill-rule:evenodd;stroke:none;stroke-width:3pt;marker:none;visibility:visible;display:inline;overflow:visible;enable-background:accumulate"
     id="layer4-3-34"
     transform="translate(150.61694,-170.93696)" />
  <g
     style="color:black;fill:#002a3c;fill-opacity:0.74509804;fill-rule:evenodd;stroke:none;stroke-width:3pt;marker:none;visibility:visible;display:inline;overflow:visible;enable-background:accumulate"
     id="layer4-8-7"
     transform="translate(206.74193,-168.00173)" />
  <g
     style="color:black;fill:#002a3c;fill-opacity:0.74509804;fill-rule:evenodd;stroke:none;stroke-width:3.00082188pt;marker:none;visibility:visible;display:inline;overflow:visible;enable-background:accumulate"
     id="layer4-39-0-8"
     transform="matrix(0.99945236,0,0,1,147.80736,-171.64953)" />
  <g
     style="color:black;fill:#002a3c;fill-opacity:0.74509804;fill-rule:evenodd;stroke:none;stroke-width:3.00082188pt;marker:none;visibility:visible;display:inline;overflow:visible;enable-background:accumulate"
     id="layer4-3-6-5-4"
     transform="matrix(0.99945236,0,0,1,174.35719,-161.19567)" />
  <g
     style="color:black;fill:#002a3c;fill-opacity:0.74509804;fill-rule:evenodd;stroke:none;stroke-width:3.00082188pt;marker:none;visibility:visible;display:inline;overflow:visible;enable-background:accumulate"
     id="layer4-8-2-3-0"
     transform="matrix(0.99945236,0,0,1,230.45146,-158.26044)" />
  <g
     style="color:black;fill:#002a3c;fill-opacity:0.74509804;fill-rule:evenodd;stroke:none;stroke-width:3pt;marker:none;visibility:visible;display:inline;overflow:visible;enable-background:accumulate"
     id="layer4-9-8"
     transform="translate(123.87667,-177.93093)" />
  <g
     style="color:black;fill:#002a3c;fill-opacity:0.74509804;fill-rule:evenodd;stroke:none;stroke-width:3pt;marker:none;visibility:visible;display:inline;overflow:visible;enable-background:accumulate"
     id="layer4-3-8-3"
     transform="translate(150.44105,-167.47707)" />
  <g
     style="color:black;fill:#002a3c;fill-opacity:0.74509804;fill-rule:evenodd;stroke:none;stroke-width:3pt;marker:none;visibility:visible;display:inline;overflow:visible;enable-background:accumulate"
     id="layer4-8-4-6"
     transform="translate(206.56605,-164.54184)" />
  <g
     style="color:black;fill:#002a3c;fill-opacity:0.74509804;fill-rule:evenodd;stroke:none;stroke-width:3pt;marker:none;visibility:visible;display:inline;overflow:visible;enable-background:accumulate"
     id="layer4-88-8"
     transform="translate(188.57116,-130.1446)" />
  <g
     style="color:black;fill:#002a3c;fill-opacity:0.74509804;fill-rule:evenodd;stroke:none;stroke-width:3pt;marker:none;visibility:visible;display:inline;overflow:visible;enable-background:accumulate"
     id="layer4-3-3-3"
     transform="translate(215.13555,-119.69074)" />
  <g
     style="color:black;fill:#002a3c;fill-opacity:0.74509804;fill-rule:evenodd;stroke:none;stroke-width:3pt;marker:none;visibility:visible;display:inline;overflow:visible;enable-background:accumulate"
     id="layer4-8-21-2"
     transform="translate(271.26055,-116.75551)" />
  <g
     id="layer2-8"
     style="display:none"
     transform="matrix(0.99945236,0,0,1,101.6187,-179.86082)">
    <rect
       width="86"
       height="85"
       rx="6.0032878"
       ry="6"
       x="5"
       y="7"
       id="rect3745-0"
       style="opacity:0.9;fill:url(#ButtonShadow-0);fill-opacity:1;fill-rule:nonzero;stroke:none;filter:url(#filter3174-44)" />
  </g>
  <g
     id="layer4-39"
     transform="matrix(0.99945236,0,0,1,101.6187,-179.86082)" />
  <g
     id="layer2-0-0"
     style="display:none"
     transform="matrix(0.99945236,0,0,1,128.16853,-169.40696)">
    <rect
       width="86"
       height="85"
       rx="6.0032878"
       ry="6"
       x="5"
       y="7"
       id="rect3745-7-1"
       style="opacity:0.9;fill:url(#ButtonShadow-91-7);fill-opacity:1;fill-rule:nonzero;stroke:none;filter:url(#filter3174-4-4)" />
  </g>
  <g
     id="layer4-3-6"
     transform="matrix(0.99945236,0,0,1,128.16853,-169.40696)" />
  <g
     id="layer2-1-5"
     style="display:none"
     transform="matrix(0.99945236,0,0,1,184.26279,-166.47173)">
    <rect
       width="86"
       height="85"
       rx="6.0032878"
       ry="6"
       x="5"
       y="7"
       id="rect3745-1-3"
       style="opacity:0.9;fill:url(#ButtonShadow-9-1);fill-opacity:1;fill-rule:nonzero;stroke:none;filter:url(#filter3174-2-2)" />
  </g>
  <g
     id="layer4-8-2"
     transform="matrix(0.99945236,0,0,1,184.26279,-166.47173)" />
  <g
     id="layer2"
     style="display:none"
     transform="translate(77.688004,-186.14222)">
    <rect
       width="86"
       height="85"
       rx="6"
       ry="6"
       x="5"
       y="7"
       id="rect3745"
       style="opacity:0.9;fill:url(#linearGradient4045);fill-opacity:1;fill-rule:nonzero;stroke:none;filter:url(#filter3174-34)" />
  </g>
  <g
     id="layer4"
     transform="translate(77.688004,-186.14222)" />
  <g
     id="layer2-0"
     style="display:none"
     transform="translate(104.25239,-175.68836)">
    <rect
       width="86"
       height="85"
       rx="6"
       ry="6"
       x="5"
       y="7"
       id="rect3745-7"
       style="opacity:0.9;fill:url(#linearGradient4047);fill-opacity:1;fill-rule:nonzero;stroke:none;filter:url(#filter3174-4-7)" />
  </g>
  <g
     id="layer4-3"
     transform="translate(104.25239,-175.68836)" />
  <g
     id="layer2-1"
     style="display:none"
     transform="translate(160.37738,-172.75313)">
    <rect
       width="86"
       height="85"
       rx="6"
       ry="6"
       x="5"
       y="7"
       id="rect3745-1"
       style="opacity:0.9;fill:url(#linearGradient4049);fill-opacity:1;fill-rule:nonzero;stroke:none;filter:url(#filter3174-2-0)" />
  </g>
  <g
     id="layer4-8"
     transform="translate(160.37738,-172.75313)" />
  <g
     id="layer2-8-6"
     style="display:none"
     transform="matrix(0.99945236,0,0,1,101.44281,-176.40093)">
    <rect
       width="86"
       height="85"
       rx="6.0032878"
       ry="6"
       x="5"
       y="7"
       id="rect3745-0-8"
       style="opacity:0.9;fill:url(#ButtonShadow-0-3);fill-opacity:1;fill-rule:nonzero;stroke:none;filter:url(#filter3174-44-1)" />
  </g>
  <g
     id="layer4-39-0"
     transform="matrix(0.99945236,0,0,1,101.44281,-176.40093)" />
  <g
     id="layer2-0-0-4"
     style="display:none"
     transform="matrix(0.99945236,0,0,1,127.99264,-165.94707)">
    <rect
       width="86"
       height="85"
       rx="6.0032878"
       ry="6"
       x="5"
       y="7"
       id="rect3745-7-1-9"
       style="opacity:0.9;fill:url(#ButtonShadow-91-7-0);fill-opacity:1;fill-rule:nonzero;stroke:none;filter:url(#filter3174-4-4-2)" />
  </g>
  <g
     id="layer4-3-6-5"
     transform="matrix(0.99945236,0,0,1,127.99264,-165.94707)" />
  <g
     id="layer2-1-5-8"
     style="display:none"
     transform="matrix(0.99945236,0,0,1,184.08691,-163.01184)">
    <rect
       width="86"
       height="85"
       rx="6.0032878"
       ry="6"
       x="5"
       y="7"
       id="rect3745-1-3-0"
       style="opacity:0.9;fill:url(#ButtonShadow-9-1-0);fill-opacity:1;fill-rule:nonzero;stroke:none;filter:url(#filter3174-2-2-8)" />
  </g>
  <g
     id="layer4-8-2-3"
     transform="matrix(0.99945236,0,0,1,184.08691,-163.01184)" />
  <g
     id="layer2-89"
     style="display:none"
     transform="translate(77.512115,-182.68233)">
    <rect
       width="86"
       height="85"
       rx="6"
       ry="6"
       x="5"
       y="7"
       id="rect3745-16"
       style="opacity:0.9;fill:url(#linearGradient4045-1);fill-opacity:1;fill-rule:nonzero;stroke:none;filter:url(#filter3174-34-6)" />
  </g>
  <g
     id="layer4-9"
     transform="translate(77.512115,-182.68233)" />
  <g
     id="layer2-0-7"
     style="display:none"
     transform="translate(104.0765,-172.22847)">
    <rect
       width="86"
       height="85"
       rx="6"
       ry="6"
       x="5"
       y="7"
       id="rect3745-7-0"
       style="opacity:0.9;fill:url(#linearGradient4047-0);fill-opacity:1;fill-rule:nonzero;stroke:none;filter:url(#filter3174-4-7-2)" />
  </g>
  <g
     id="layer4-3-8"
     transform="translate(104.0765,-172.22847)" />
  <g
     id="layer2-1-6"
     style="display:none"
     transform="translate(160.2015,-169.29324)">
    <rect
       width="86"
       height="85"
       rx="6"
       ry="6"
       x="5"
       y="7"
       id="rect3745-1-2"
       style="opacity:0.9;fill:url(#linearGradient4049-7);fill-opacity:1;fill-rule:nonzero;stroke:none;filter:url(#filter3174-2-0-6)" />
  </g>
  <g
     id="layer4-8-4"
     transform="translate(160.2015,-169.29324)" />
  <g
     style="color:black;fill:#002a3c;fill-opacity:0.74509804;fill-rule:evenodd;stroke:none;stroke-width:3pt;marker:none;visibility:visible;display:inline;overflow:visible;enable-background:accumulate"
     id="layer4-88"
     transform="translate(142.20661,-134.896)" />
  <g
     style="color:black;fill:#002a3c;fill-opacity:0.74509804;fill-rule:evenodd;stroke:none;stroke-width:3pt;marker:none;visibility:visible;display:inline;overflow:visible;enable-background:accumulate"
     id="layer4-3-3"
     transform="translate(168.771,-124.44214)" />
  <g
     style="color:black;fill:#002a3c;fill-opacity:0.74509804;fill-rule:evenodd;stroke:none;stroke-width:3pt;marker:none;visibility:visible;display:inline;overflow:visible;enable-background:accumulate"
     id="layer4-8-21"
     transform="translate(224.896,-121.50691)" />
  <rect
     style="color:black;fill:none;stroke:url(#linearGradient4349);stroke-width:0.99999994000000003;stroke-linecap:round;stroke-linejoin:round;stroke-miterlimit:4;stroke-opacity:1;stroke-dasharray:none;stroke-dashoffset:0;marker:none;visibility:visible;display:inline;overflow:visible;enable-background:accumulate"
     id="rect4341"
     width="36"
     height="17"
     x="8.5"
     y="11.5"
     ry="1.4999998"
     rx="1.5" />
  <path
     style="color:black;fill:white;fill-opacity:0.35294119;fill-rule:nonzero;stroke:none;stroke-width:1;marker:none;visibility:visible;display:inline;overflow:visible;enable-background:accumulate"
     d="m 3,14 0,2 4,0 0,-2 -4,0 z m 0,4 0,2 4,0 0,-2 -4,0 z m 0,4 0,2 4,0 0,-2 -4,0 z m 0,4 0,2 4,0 0,-2 -4,0 z m 0,4 0,2 4,0 0,-2 -4,0 z m 0,4 0,2 4,0 0,-2 -4,0 z m 0,4 0,2 4,0 0,-2 -4,0 z"
     id="rect4385"
     inkscape:connector-curvature="0" />
  <rect
     style="opacity:0.4;color:black;fill:url(#linearGradient4192-4);fill-opacity:1;fill-rule:nonzero;stroke:none;stroke-width:1;marker:none;visibility:visible;display:inline;overflow:visible;enable-background:accumulate"
     id="rect4217"
     width="35"
     height="12"
     x="9"
     y="29" />
  <path
     sodipodi:nodetypes="ccccccccc"
     inkscape:connector-curvature="0"
     style="color:black;fill:none;stroke:url(#linearGradient4069);stroke-width:1;stroke-linecap:round;stroke-linejoin:round;stroke-miterlimit:4;stroke-opacity:1;stroke-dasharray:none;stroke-dashoffset:0;marker:none;visibility:visible;display:inline;overflow:visible;enable-background:accumulate"
     id="path3283"
     d="m 10.500162,18.497332 32,0 c 0.897636,0 1.926392,1.11592 1.999838,2 l 0,19 c 0,1.509644 -0.603559,2 -1.999838,2 l -34.5,0 c 0,0 0.5,0.104854 0.5,-1 l 0,-20 c 0,-0.977175 1.07216,-2 2,-2 z" />
  <g
     style="color:#000000;clip-rule:nonzero;display:inline;overflow:visible;visibility:visible;opacity:0.3;isolation:auto;mix-blend-mode:normal;color-interpolation:sRGB;color-interpolation-filters:linearRGB;solid-color:#000000;solid-opacity:1;fill:#ffffff;fill-opacity:1;fill-rule:nonzero;stroke:none;stroke-width:5;stroke-linecap:butt;stroke-linejoin:miter;stroke-miterlimit:4;stroke-dasharray:none;stroke-dashoffset:0;stroke-opacity:1;marker:none;color-rendering:auto;image-rendering:auto;shape-rendering:auto;text-rendering:auto;enable-background:accumulate;filter-blend-mode:normal;filter-gaussianBlur-deviation:0"
     transform="translate(26,24)"
     id="g3549"
     inkscape:label="Layer 1">
    <path
       inkscape:connector-curvature="0"
       id="path3551"
       style="color:#000000;clip-rule:nonzero;display:inline;overflow:visible;visibility:visible;opacity:0.7;isolation:auto;mix-blend-mode:normal;color-interpolation:sRGB;color-interpolation-filters:linearRGB;solid-color:#000000;solid-opacity:1;fill:#ffffff;fill-opacity:1;fill-rule:nonzero;stroke:none;stroke-width:5;stroke-linecap:butt;stroke-linejoin:miter;stroke-miterlimit:4;stroke-dasharray:none;stroke-dashoffset:0;stroke-opacity:1;marker:none;color-rendering:auto;image-rendering:auto;shape-rendering:auto;text-rendering:auto;enable-background:accumulate;filter-blend-mode:normal;filter-gaussianBlur-deviation:0"
       d="m 4,3 c 2.666667,0 5.333333,0 8,0 0,0.333333 0,0.666667 0,1 C 9.333333,4 6.666667,4 4,4 4,3.666667 4,3.333333 4,3 Z m 0,3 c 2.666667,0 5.333333,0 8,0 0,0.333333 0,0.666667 0,1 C 9.333333,7 6.666667,7 4,7 4,6.666667 4,6.333333 4,6 Z m 0,3 c 2.666667,0 5.333333,0 8,0 0,0.333333 0,0.666667 0,1 C 9.333333,10 6.666667,10 4,10 4,9.666667 4,9.333333 4,9 Z m 0,3 c 1.666667,0 3.333333,0 5,0 0,0.333333 0,0.666667 0,1 -1.666667,0 -3.333333,0 -5,0 0,-0.333333 0,-0.666667 0,-1 z M 2,2 c 0,4 0,8 0,12 0.304462,0.333333 0.608924,0.666667 0.913386,1 C 5.608924,15 8.304462,15 11,15 12,14 13,13 14,12 14,8.666667 14,5.333333 14,2 13.695538,1.666667 13.391076,1.333333 13.086614,1 9.695538,1 6.304462,1 2.913386,1 2.608924,1.333333 2.304462,1.666667 2,2 Z" />
    <g
       style="color:#000000;clip-rule:nonzero;display:inline;overflow:visible;visibility:visible;isolation:auto;mix-blend-mode:normal;color-interpolation:sRGB;color-interpolation-filters:linearRGB;solid-color:#000000;solid-opacity:1;fill:#ffffff;fill-opacity:1;fill-rule:nonzero;stroke:none;stroke-width:5;stroke-linecap:butt;stroke-linejoin:miter;stroke-miterlimit:4;stroke-dasharray:none;stroke-dashoffset:0;stroke-opacity:1;marker:none;color-rendering:auto;image-rendering:auto;shape-rendering:auto;text-rendering:auto;enable-background:accumulate;filter-blend-mode:normal;filter-gaussianBlur-deviation:0"
       transform="translate(-423.999,-176.0004)"
       id="g3553">
      <g
         style="color:#000000;clip-rule:nonzero;display:inline;overflow:visible;visibility:visible;isolation:auto;mix-blend-mode:normal;color-interpolation:sRGB;color-interpolation-filters:linearRGB;solid-color:#000000;solid-opacity:1;fill:#ffffff;fill-opacity:1;fill-rule:nonzero;stroke:none;stroke-width:5;stroke-linecap:butt;stroke-linejoin:miter;stroke-miterlimit:4;stroke-dasharray:none;stroke-dashoffset:0;stroke-opacity:1;marker:none;color-rendering:auto;image-rendering:auto;shape-rendering:auto;text-rendering:auto;enable-background:accumulate;filter-blend-mode:normal;filter-gaussianBlur-deviation:0"
         transform="translate(234,-820)"
         id="g3555" />
    </g>
    <g
       style="color:#000000;clip-rule:nonzero;display:inline;overflow:visible;visibility:visible;isolation:auto;mix-blend-mode:normal;color-interpolation:sRGB;color-interpolation-filters:linearRGB;solid-color:#000000;solid-opacity:1;fill:#ffffff;fill-opacity:1;fill-rule:nonzero;stroke:none;stroke-width:5;stroke-linecap:butt;stroke-linejoin:miter;stroke-miterlimit:4;stroke-dasharray:none;stroke-dashoffset:0;stroke-opacity:1;marker:none;color-rendering:auto;image-rendering:auto;shape-rendering:auto;text-rendering:auto;enable-background:accumulate;filter-blend-mode:normal;filter-gaussianBlur-deviation:0"
       transform="translate(-430.50937,-166.94842)"
       id="g3557">
      <g
         style="color:#000000;clip-rule:nonzero;display:inline;overflow:visible;visibility:visible;isolation:auto;mix-blend-mode:normal;color-interpolation:sRGB;color-interpolation-filters:linearRGB;solid-color:#000000;solid-opacity:1;fill:#ffffff;fill-opacity:1;fill-rule:nonzero;stroke:none;stroke-width:5;stroke-linecap:butt;stroke-linejoin:miter;stroke-miterlimit:4;stroke-dasharray:none;stroke-dashoffset:0;stroke-opacity:1;marker:none;color-rendering:auto;image-rendering:auto;shape-rendering:auto;text-rendering:auto;enable-background:accumulate;filter-blend-mode:normal;filter-gaussianBlur-deviation:0"
         transform="translate(234,-820)"
         id="g3559" />
    </g>
  </g>
  <g
     inkscape:label="Layer 1"
     id="layer1"
     transform="translate(26,23)"
     style="color:#000000;clip-rule:nonzero;display:inline;overflow:visible;visibility:visible;opacity:1;isolation:auto;mix-blend-mode:normal;color-interpolation:sRGB;color-interpolation-filters:linearRGB;solid-color:#000000;solid-opacity:1;fill:#323232;fill-opacity:1;fill-rule:nonzero;stroke:none;stroke-width:5;stroke-linecap:butt;stroke-linejoin:miter;stroke-miterlimit:4;stroke-dasharray:none;stroke-dashoffset:0;stroke-opacity:1;marker:none;filter-blend-mode:normal;filter-gaussianBlur-deviation:0;color-rendering:auto;image-rendering:auto;shape-rendering:auto;text-rendering:auto;enable-background:accumulate">
    <path
       d="m 4,3 c 2.666667,0 5.333333,0 8,0 0,0.333333 0,0.666667 0,1 C 9.333333,4 6.666667,4 4,4 4,3.666667 4,3.333333 4,3 Z m 0,3 c 2.666667,0 5.333333,0 8,0 0,0.333333 0,0.666667 0,1 C 9.333333,7 6.666667,7 4,7 4,6.666667 4,6.333333 4,6 Z m 0,3 c 2.666667,0 5.333333,0 8,0 0,0.333333 0,0.666667 0,1 C 9.333333,10 6.666667,10 4,10 4,9.666667 4,9.333333 4,9 Z m 0,3 c 1.666667,0 3.333333,0 5,0 0,0.333333 0,0.666667 0,1 -1.666667,0 -3.333333,0 -5,0 0,-0.333333 0,-0.666667 0,-1 z M 2,2 c 0,4 0,8 0,12 0.304462,0.333333 0.608924,0.666667 0.913386,1 C 5.608924,15 8.304462,15 11,15 12,14 13,13 14,12 14,8.666667 14,5.333333 14,2 13.695538,1.666667 13.391076,1.333333 13.086614,1 9.695538,1 6.304462,1 2.913386,1 2.608924,1.333333 2.304462,1.666667 2,2 Z"
       style="color:#000000;display:inline;overflow:visible;visibility:visible;opacity:0.7;fill:#323232;fill-opacity:1;fill-rule:nonzero;stroke:none;stroke-width:5;marker:none;enable-background:accumulate;clip-rule:nonzero;isolation:auto;mix-blend-mode:normal;color-interpolation:sRGB;color-interpolation-filters:linearRGB;solid-color:#000000;solid-opacity:1;stroke-linecap:butt;stroke-linejoin:miter;stroke-miterlimit:4;stroke-dasharray:none;stroke-dashoffset:0;stroke-opacity:1;filter-blend-mode:normal;filter-gaussianBlur-deviation:0;color-rendering:auto;image-rendering:auto;shape-rendering:auto;text-rendering:auto"
       id="path3737"
       inkscape:connector-curvature="0" />
    <g
       id="layer13"
       transform="translate(-423.999,-176.0004)"
       style="color:#000000;clip-rule:nonzero;display:inline;overflow:visible;visibility:visible;isolation:auto;mix-blend-mode:normal;color-interpolation:sRGB;color-interpolation-filters:linearRGB;solid-color:#000000;solid-opacity:1;fill:#323232;fill-opacity:1;fill-rule:nonzero;stroke:none;stroke-width:5;stroke-linecap:butt;stroke-linejoin:miter;stroke-miterlimit:4;stroke-dasharray:none;stroke-dashoffset:0;stroke-opacity:1;marker:none;filter-blend-mode:normal;filter-gaussianBlur-deviation:0;color-rendering:auto;image-rendering:auto;shape-rendering:auto;text-rendering:auto;enable-background:accumulate">
      <g
         id="g14154"
         transform="translate(234,-820)"
         style="color:#000000;clip-rule:nonzero;display:inline;overflow:visible;visibility:visible;isolation:auto;mix-blend-mode:normal;color-interpolation:sRGB;color-interpolation-filters:linearRGB;solid-color:#000000;solid-opacity:1;fill:#323232;fill-opacity:1;fill-rule:nonzero;stroke:none;stroke-width:5;stroke-linecap:butt;stroke-linejoin:miter;stroke-miterlimit:4;stroke-dasharray:none;stroke-dashoffset:0;stroke-opacity:1;marker:none;filter-blend-mode:normal;filter-gaussianBlur-deviation:0;color-rendering:auto;image-rendering:auto;shape-rendering:auto;text-rendering:auto;enable-background:accumulate" />
    </g>
    <g
       id="layer13-8"
       transform="translate(-430.50937,-166.94842)"
       style="color:#000000;clip-rule:nonzero;display:inline;overflow:visible;visibility:visible;isolation:auto;mix-blend-mode:normal;color-interpolation:sRGB;color-interpolation-filters:linearRGB;solid-color:#000000;solid-opacity:1;fill:#323232;fill-opacity:1;fill-rule:nonzero;stroke:none;stroke-width:5;stroke-linecap:butt;stroke-linejoin:miter;stroke-miterlimit:4;stroke-dasharray:none;stroke-dashoffset:0;stroke-opacity:1;marker:none;filter-blend-mode:normal;filter-gaussianBlur-deviation:0;color-rendering:auto;image-rendering:auto;shape-rendering:auto;text-rendering:auto;enable-background:accumulate">
      <g
         id="g14154-0"
         transform="translate(234,-820)"
         style="color:#000000;clip-rule:nonzero;display:inline;overflow:visible;visibility:visible;isolation:auto;mix-blend-mode:normal;color-interpolation:sRGB;color-interpolation-filters:linearRGB;solid-color:#000000;solid-opacity:1;fill:#323232;fill-opacity:1;fill-rule:nonzero;stroke:none;stroke-width:5;stroke-linecap:butt;stroke-linejoin:miter;stroke-miterlimit:4;stroke-dasharray:none;stroke-dashoffset:0;stroke-opacity:1;marker:none;filter-blend-mode:normal;filter-gaussianBlur-deviation:0;color-rendering:auto;image-rendering:auto;shape-rendering:auto;text-rendering:auto;enable-background:accumulate" />
    </g>
  </g>
</svg>
