<?xml version="1.0" encoding="UTF-8" standalone="no"?>
<!-- Created with Inkscape (http://www.inkscape.org/) -->

<svg
   xmlns:dc="http://purl.org/dc/elements/1.1/"
   xmlns:cc="http://creativecommons.org/ns#"
   xmlns:rdf="http://www.w3.org/1999/02/22-rdf-syntax-ns#"
   xmlns:svg="http://www.w3.org/2000/svg"
   xmlns="http://www.w3.org/2000/svg"
   xmlns:xlink="http://www.w3.org/1999/xlink"
   xmlns:sodipodi="http://sodipodi.sourceforge.net/DTD/sodipodi-0.dtd"
   xmlns:inkscape="http://www.inkscape.org/namespaces/inkscape"
   width="24"
   height="24"
   id="svg6662"
   version="1.1"
   inkscape:version="0.91 r13725"
   sodipodi:docname="tools-check-spelling.svg">
  <defs
     id="defs6664">
    <linearGradient
       inkscape:collect="always"
       xlink:href="#linearGradient1022-8-8-3-0-2-3-3"
       id="linearGradient3042-5"
       gradientUnits="userSpaceOnUse"
       gradientTransform="matrix(1.679991,0,0,1.5097216,-318.97504,457.00351)"
       x1="196.41476"
       y1="381.10251"
       x2="196.41476"
       y2="391.7005" />
    <linearGradient
       gradientUnits="userSpaceOnUse"
       id="linearGradient1022-8-8-3-0-2-3-3"
       x2="0"
       y1="3.0069399"
       y2="11.02436">
      <stop
         offset="0"
         id="stop3001-0-9-4-1-4-7" />
      <stop
         offset="1"
         stop-color="#363636"
         id="stop3003-5-6-6-1-1-1" />
    </linearGradient>
  </defs>
  <sodipodi:namedview
     id="base"
     pagecolor="#ffffff"
     bordercolor="#666666"
     borderopacity="1.0"
     inkscape:pageopacity="0.0"
     inkscape:pageshadow="2"
     inkscape:zoom="11.313708"
     inkscape:cx="29.088258"
     inkscape:cy="14.608387"
     inkscape:document-units="px"
     inkscape:current-layer="capa1"
     showgrid="true"
     inkscape:showpageshadow="false"
     inkscape:window-width="1366"
     inkscape:window-height="704"
     inkscape:window-x="0"
     inkscape:window-y="27"
     inkscape:window-maximized="1">
    <inkscape:grid
       type="xygrid"
       id="grid3327" />
  </sodipodi:namedview>
  <metadata
     id="metadata6667">
    <rdf:RDF>
      <cc:Work
         rdf:about="">
        <dc:format>image/svg+xml</dc:format>
        <dc:type
           rdf:resource="http://purl.org/dc/dcmitype/StillImage" />
        <dc:title />
      </cc:Work>
    </rdf:RDF>
  </metadata>
  <g
     inkscape:label="Capa 1"
     inkscape:groupmode="layer"
     id="capa1"
     transform="translate(0,-1028.3622)">
    <path
       inkscape:connector-curvature="0"
       id="path3110"
       d="m 10.96875,1032.7685 -1.75,0.2812 0,10.6875 c 0.3466517,0.1059 0.792519,0.2255 1.3125,0.3125 0.529607,0.087 1.078491,0.125 1.65625,0.125 0.597009,0 1.121911,-0.098 1.59375,-0.2812 0.471827,-0.183 0.891349,-0.4659 1.21875,-0.8125 0.337017,-0.3467 0.576666,-0.7374 0.75,-1.2188 0.182944,-0.4911 0.281242,-1.0496 0.28125,-1.6562 -8e-6,-0.5874 -0.06469,-1.1123 -0.21875,-1.5938 -0.144447,-0.4911 -0.377009,-0.9034 -0.65625,-1.25 -0.279255,-0.3467 -0.607569,-0.6296 -1.03125,-0.8125 -0.414063,-0.1929 -0.907896,-0.2812 -1.4375,-0.2812 -0.356287,0 -0.670247,0.038 -0.96875,0.125 -0.288881,0.087 -0.547789,0.1753 -0.75,0.2812 l 0,-3.9062 z m -6.9375,3.4687 c -0.4814659,0 -0.9200655,0.048 -1.34375,0.125 -0.4236891,0.077 -0.7472787,0.1418 -0.96875,0.2188 l 0.21875,1.4062 c 0.2118419,-0.077 0.4754741,-0.1295 0.8125,-0.1875 0.3370213,-0.058 0.7205682,-0.094 1.125,-0.094 0.2985032,0 0.5261609,0.048 0.71875,0.125 0.20221,0.077 0.3844444,0.1681 0.5,0.3125 0.1251755,0.1349 0.201849,0.317 0.25,0.5 0.048141,0.183 0.062495,0.3603 0.0625,0.5625 l 0,0.2812 c -0.2407362,-0.058 -0.4444109,-0.075 -0.65625,-0.094 -0.2118477,-0.029 -0.4324188,-0.062 -0.625,-0.062 -0.4140613,0 -0.8023327,0.038 -1.1875,0.125 -0.3755431,0.077 -0.7111242,0.2136 -1,0.4062 -0.2888789,0.1829 -0.5141744,0.4203 -0.6875,0.7188 -0.163698,0.2985 -0.25000057,0.6917 -0.25,1.125 -5.7e-7,0.4526 0.074311,0.8168 0.21875,1.125 0.1540672,0.3081 0.365009,0.5575 0.625,0.75 0.2696175,0.1926 0.593207,0.3505 0.96875,0.4375 0.3755382,0.087 0.7661718,0.125 1.21875,0.125 0.6836728,0 1.3045068,-0.038 1.84375,-0.125 0.5488616,-0.077 0.9491244,-0.1608 1.21875,-0.2188 l 0,-4.5625 c -6.7e-6,-0.4429 -0.050335,-0.8528 -0.15625,-1.2187 -0.096299,-0.3755 -0.2592749,-0.7088 -0.5,-0.9688 -0.2311079,-0.26 -0.542706,-0.4493 -0.9375,-0.5937 -0.3948042,-0.1447 -0.8909989,-0.2188 -1.46875,-0.2188 z m 17.125,0 c -0.577759,0 -1.100299,0.1103 -1.5625,0.3125 -0.462206,0.2023 -0.860107,0.4562 -1.1875,0.8125 -0.317767,0.3563 -0.545425,0.7902 -0.71875,1.2813 -0.17333,0.4815 -0.281251,1.004 -0.28125,1.5625 -1e-6,0.5681 0.09593,1.1026 0.25,1.5937 0.154067,0.4815 0.379362,0.8937 0.6875,1.25 0.317763,0.3467 0.715664,0.6103 1.1875,0.8125 0.481459,0.1929 1.042336,0.3125 1.6875,0.3125 0.414053,0 0.802324,-0.048 1.1875,-0.125 0.394793,-0.077 0.682409,-0.154 0.875,-0.25 l -0.21875,-1.4687 c -0.211849,0.087 -0.461128,0.1607 -0.75,0.2187 -0.288882,0.058 -0.607748,0.094 -0.90625,0.094 -0.799232,0 -1.350479,-0.223 -1.6875,-0.6563 -0.337026,-0.4429 -0.500002,-1.0301 -0.5,-1.7812 -2e-6,-0.78 0.174965,-1.3888 0.53125,-1.8125 0.356279,-0.4333 0.878819,-0.6563 1.5625,-0.6563 0.288872,0 0.562134,0.036 0.8125,0.094 0.259984,0.058 0.48528,0.1317 0.6875,0.2187 l 0.375,-1.4375 c -0.635536,-0.26 -1.318691,-0.375 -2.03125,-0.375 z m -8.75,1.5313 c 0.635526,0 1.086117,0.2229 1.375,0.6562 0.298501,0.4334 0.468744,1.0085 0.46875,1.75 -6e-6,0.7703 -0.196594,1.3696 -0.5625,1.8125 -0.365917,0.4333 -0.854845,0.6563 -1.5,0.6563 -0.279252,0 -0.516539,-0.012 -0.71875,-0.031 -0.192588,-0.029 -0.374823,-0.065 -0.5,-0.094 l 0,-4.3438 c 0.154065,-0.1059 0.374636,-0.1942 0.625,-0.2812 0.259986,-0.087 0.523619,-0.125 0.8125,-0.125 z m -8.03125,2.8437 c 0.2214687,0 0.4420397,0 0.625,0.031 0.1829511,0.029 0.309952,0.065 0.40625,0.094 l 0,1.9375 c -0.2792531,0.058 -0.679516,0.062 -1.21875,0.062 -0.442949,0 -0.8025131,-0.065 -1.0625,-0.2187 -0.2599924,-0.1637 -0.3750023,-0.461 -0.375,-0.875 -2.3e-6,-0.2119 0.028705,-0.3652 0.125,-0.5 0.09629,-0.1445 0.2209292,-0.2668 0.375,-0.3438 0.1636944,-0.077 0.3386617,-0.1272 0.53125,-0.1562 0.2022108,-0.029 0.4011611,-0.031 0.59375,-0.031 z m -1.375,4.75 -2,2 0,2 2,-2 2,2 2,-2 2,2 2,-2 2,2 2,-2 2,2 2,-2 2,2 2,-2 0,-2 -2,2 -2,-2 -2,2 -2,-2 -2,2 -2,-2 -2,2 -2,-2 -2,2 -2,-2 z"
       style="font-size:14.44388294px;font-style:normal;font-variant:normal;font-weight:500;font-stretch:normal;line-height:125%;letter-spacing:0px;word-spacing:0px;opacity:0.6;color:#000000;fill:#ffffff;fill-opacity:1;fill-rule:nonzero;stroke:none;stroke-width:0.66666669;marker:none;visibility:visible;display:inline;overflow:visible;enable-background:accumulate;font-family:Ubuntu;-inkscape-font-specification:Ubuntu Medium" />
    <path
       style="font-size:14.44388293999999995px;font-style:normal;font-variant:normal;font-weight:500;font-stretch:normal;line-height:125%;letter-spacing:0px;word-spacing:0px;opacity:0.75000000000000000;color:#000000;fill:url(#linearGradient3042-5);fill-opacity:1;fill-rule:nonzero;stroke:none;stroke-width:1;marker:none;visibility:visible;display:inline;overflow:visible;enable-background:accumulate;font-family:Ubuntu;-inkscape-font-specification:Ubuntu Medium"
       d="m 10.96875,1031.7681 -1.75,0.2812 0,10.6875 c 0.3466517,0.1059 0.792519,0.2255 1.3125,0.3125 0.529607,0.087 1.078491,0.125 1.65625,0.125 0.597009,0 1.121911,-0.098 1.59375,-0.2812 0.471827,-0.183 0.891349,-0.4659 1.21875,-0.8125 0.337017,-0.3467 0.576666,-0.7374 0.75,-1.2188 0.182944,-0.4911 0.281242,-1.0496 0.28125,-1.6562 -8e-6,-0.5874 -0.06469,-1.1123 -0.21875,-1.5938 -0.144447,-0.4911 -0.377009,-0.9034 -0.65625,-1.25 -0.279255,-0.3467 -0.607569,-0.6296 -1.03125,-0.8125 -0.414063,-0.1929 -0.907896,-0.2812 -1.4375,-0.2812 -0.356287,0 -0.670247,0.038 -0.96875,0.125 -0.288881,0.087 -0.547789,0.1753 -0.75,0.2812 l 0,-3.9062 z m -6.9375,3.4687 c -0.4814659,0 -0.9200655,0.048 -1.34375,0.125 -0.4236891,0.077 -0.7472787,0.1418 -0.96875,0.2188 l 0.21875,1.4062 c 0.2118419,-0.077 0.4754741,-0.1295 0.8125,-0.1875 0.3370213,-0.058 0.7205682,-0.094 1.125,-0.094 0.2985032,0 0.5261609,0.048 0.71875,0.125 0.20221,0.077 0.3844444,0.1681 0.5,0.3125 0.1251755,0.1349 0.201849,0.317 0.25,0.5 0.048141,0.183 0.062495,0.3603 0.0625,0.5625 l 0,0.2812 c -0.2407362,-0.058 -0.4444109,-0.075 -0.65625,-0.094 -0.2118477,-0.029 -0.4324188,-0.062 -0.625,-0.062 -0.4140613,0 -0.8023327,0.038 -1.1875,0.125 -0.3755431,0.077 -0.7111242,0.2136 -1,0.4062 -0.2888789,0.1829 -0.5141744,0.4203 -0.6875,0.7188 -0.163698,0.2985 -0.25000057,0.6917 -0.25,1.125 -5.7e-7,0.4526 0.074311,0.8168 0.21875,1.125 0.1540672,0.3081 0.365009,0.5575 0.625,0.75 0.2696175,0.1926 0.593207,0.3505 0.96875,0.4375 0.3755382,0.087 0.7661718,0.125 1.21875,0.125 0.6836728,0 1.3045068,-0.038 1.84375,-0.125 0.5488616,-0.077 0.9491244,-0.1608 1.21875,-0.2188 l 0,-4.5625 c -6.7e-6,-0.4429 -0.050335,-0.8528 -0.15625,-1.2187 -0.096299,-0.3755 -0.2592749,-0.7088 -0.5,-0.9688 -0.2311079,-0.26 -0.542706,-0.4493 -0.9375,-0.5937 -0.3948042,-0.1447 -0.8909989,-0.2188 -1.46875,-0.2188 z m 17.125,0 c -0.577759,0 -1.100299,0.1103 -1.5625,0.3125 -0.462206,0.2023 -0.860107,0.4562 -1.1875,0.8125 -0.317767,0.3563 -0.545425,0.7902 -0.71875,1.2813 -0.17333,0.4815 -0.281251,1.004 -0.28125,1.5625 -1e-6,0.5681 0.09593,1.1026 0.25,1.5937 0.154067,0.4815 0.379362,0.8937 0.6875,1.25 0.317763,0.3467 0.715664,0.6103 1.1875,0.8125 0.481459,0.1929 1.042336,0.3125 1.6875,0.3125 0.414053,0 0.802324,-0.048 1.1875,-0.125 0.394793,-0.077 0.682409,-0.154 0.875,-0.25 l -0.21875,-1.4687 c -0.211849,0.087 -0.461128,0.1607 -0.75,0.2187 -0.288882,0.058 -0.607748,0.094 -0.90625,0.094 -0.799232,0 -1.350479,-0.223 -1.6875,-0.6563 -0.337026,-0.4429 -0.500002,-1.0301 -0.5,-1.7812 -2e-6,-0.78 0.174965,-1.3888 0.53125,-1.8125 0.356279,-0.4333 0.878819,-0.6563 1.5625,-0.6563 0.288872,0 0.562134,0.036 0.8125,0.094 0.259984,0.058 0.48528,0.1317 0.6875,0.2187 l 0.375,-1.4375 c -0.635536,-0.26 -1.318691,-0.375 -2.03125,-0.375 z m -8.75,1.5313 c 0.635526,0 1.086117,0.2229 1.375,0.6562 0.298501,0.4334 0.468744,1.0085 0.46875,1.75 -6e-6,0.7703 -0.196594,1.3696 -0.5625,1.8125 -0.365917,0.4333 -0.854845,0.6563 -1.5,0.6563 -0.279252,0 -0.516539,-0.012 -0.71875,-0.031 -0.192588,-0.029 -0.374823,-0.065 -0.5,-0.094 l 0,-4.3438 c 0.154065,-0.1059 0.374636,-0.1942 0.625,-0.2812 0.259986,-0.087 0.523619,-0.125 0.8125,-0.125 z m -8.03125,2.8437 c 0.2214687,0 0.4420397,0 0.625,0.031 0.1829511,0.029 0.309952,0.065 0.40625,0.094 l 0,1.9375 c -0.2792531,0.058 -0.679516,0.062 -1.21875,0.062 -0.442949,0 -0.8025131,-0.065 -1.0625,-0.2187 -0.2599924,-0.1637 -0.3750023,-0.461 -0.375,-0.875 -2.3e-6,-0.2119 0.028705,-0.3652 0.125,-0.5 0.09629,-0.1445 0.2209292,-0.2668 0.375,-0.3438 0.1636944,-0.077 0.3386617,-0.1272 0.53125,-0.1562 0.2022108,-0.029 0.4011611,-0.031 0.59375,-0.031 z m -1.375,4.75 -2,2 0,2 2,-2 2,2 2,-2 2,2 2,-2 2,2 2,-2 2,2 2,-2 2,2 2,-2 0,-2 -2,2 -2,-2 -2,2 -2,-2 -2,2 -2,-2 -2,2 -2,-2 -2,2 -2,-2 z"
       id="path3056"
       inkscape:connector-curvature="0" />
  </g>
</svg>
