<?xml version="1.0" encoding="UTF-8" standalone="no"?>
<svg
   xmlns:dc="http://purl.org/dc/elements/1.1/"
   xmlns:cc="http://creativecommons.org/ns#"
   xmlns:rdf="http://www.w3.org/1999/02/22-rdf-syntax-ns#"
   xmlns:svg="http://www.w3.org/2000/svg"
   xmlns="http://www.w3.org/2000/svg"
   xmlns:xlink="http://www.w3.org/1999/xlink"
   xmlns:sodipodi="http://sodipodi.sourceforge.net/DTD/sodipodi-0.dtd"
   xmlns:inkscape="http://www.inkscape.org/namespaces/inkscape"
   viewBox="0 0 48 48"
   id="svg2"
   version="1.1"
   inkscape:version="0.91 r13725"
   width="100%"
   height="100%"
   sodipodi:docname="preferences-desktop-locale.svg">
  <metadata
     id="metadata51">
    <rdf:RDF>
      <cc:Work
         rdf:about="">
        <dc:format>image/svg+xml</dc:format>
        <dc:type
           rdf:resource="http://purl.org/dc/dcmitype/StillImage" />
      </cc:Work>
    </rdf:RDF>
  </metadata>
  <sodipodi:namedview
     pagecolor="#ffffff"
     bordercolor="#666666"
     borderopacity="1"
     objecttolerance="10"
     gridtolerance="10"
     guidetolerance="10"
     inkscape:pageopacity="0"
     inkscape:pageshadow="2"
     inkscape:window-width="1280"
     inkscape:window-height="976"
     id="namedview49"
     showgrid="true"
     inkscape:zoom="11.313708"
     inkscape:cx="41.44902"
     inkscape:cy="25.31503"
     inkscape:window-x="0"
     inkscape:window-y="24"
     inkscape:window-maximized="1"
     inkscape:current-layer="svg2"
     inkscape:snap-bbox="true">
    <inkscape:grid
       type="xygrid"
       id="grid3259" />
  </sodipodi:namedview>
  <defs
     id="defs4">
    <linearGradient
       inkscape:collect="always"
       id="linearGradient3040">
      <stop
         style="stop-color:#173555;stop-opacity:1;"
         offset="0"
         id="stop3042" />
      <stop
         style="stop-color:#173555;stop-opacity:0;"
         offset="1"
         id="stop3044" />
    </linearGradient>
    <linearGradient
       id="linearGradient4416">
      <stop
         style="stop-color:black;stop-opacity:0.54901963;"
         offset="0"
         id="stop4420" />
      <stop
         id="stop4422"
         offset="1"
         style="stop-color:black;stop-opacity:0;" />
    </linearGradient>
    <linearGradient
       id="linearGradient4404">
      <stop
         style="stop-color:#dcdcdc;stop-opacity:1;"
         offset="0"
         id="stop4408" />
      <stop
         id="stop4410"
         offset="1"
         style="stop-color:black;stop-opacity:1;" />
    </linearGradient>
    <linearGradient
       id="linearGradient4338">
      <stop
         style="stop-color:black;stop-opacity:1;"
         offset="0"
         id="stop4340" />
      <stop
         id="stop4346"
         offset="0.5"
         style="stop-color:#d2d2d2;stop-opacity:1;" />
      <stop
         style="stop-color:black;stop-opacity:1;"
         offset="1"
         id="stop4342" />
    </linearGradient>
    <linearGradient
       id="linearGradient4309">
      <stop
         style="stop-color:white;stop-opacity:0;"
         offset="0"
         id="stop4311" />
      <stop
         id="stop4317"
         offset="0.5"
         style="stop-color:white;stop-opacity:0.50196081;" />
      <stop
         style="stop-color:white;stop-opacity:0;"
         offset="1"
         id="stop4313" />
    </linearGradient>
    <linearGradient
       id="linearGradient5048-8">
      <stop
         offset="0"
         style="stop-color:#000000;stop-opacity:0"
         id="stop5050-4" />
      <stop
         offset="0.5"
         style="stop-color:#000000;stop-opacity:1"
         id="stop5056-7" />
      <stop
         offset="1"
         style="stop-color:#000000;stop-opacity:0"
         id="stop5052-0-1" />
    </linearGradient>
    <linearGradient
       id="linearGradient5060-29">
      <stop
         offset="0"
         style="stop-color:#000000;stop-opacity:1"
         id="stop5062-9" />
      <stop
         offset="1"
         style="stop-color:#000000;stop-opacity:0"
         id="stop5064-08" />
    </linearGradient>
    <radialGradient
       inkscape:collect="always"
       xlink:href="#linearGradient5060-29"
       id="radialGradient3579"
       gradientUnits="userSpaceOnUse"
       gradientTransform="matrix(0.06214224,0,0,0.02900085,1.6365015,28.953157)"
       cx="605.71429"
       cy="486.64789"
       fx="605.71429"
       fy="486.64789"
       r="117.14286" />
    <linearGradient
       inkscape:collect="always"
       xlink:href="#linearGradient5048-8"
       id="linearGradient3581"
       gradientUnits="userSpaceOnUse"
       gradientTransform="matrix(0.06214224,0,0,0.02900085,1.6242719,28.953157)"
       x1="302.85715"
       y1="366.64789"
       x2="302.85715"
       y2="609.50507" />
    <radialGradient
       inkscape:collect="always"
       xlink:href="#linearGradient5060-29"
       id="radialGradient3583"
       gradientUnits="userSpaceOnUse"
       gradientTransform="matrix(-0.06214224,0,0,0.02900085,46.53201,28.953157)"
       cx="605.71429"
       cy="486.64789"
       fx="605.71429"
       fy="486.64789"
       r="117.14286" />
    <linearGradient
       inkscape:collect="always"
       xlink:href="#linearGradient4309"
       id="linearGradient4315"
       x1="7"
       y1="24"
       x2="19"
       y2="24"
       gradientUnits="userSpaceOnUse"
       gradientTransform="matrix(0.83333334,0,0,0.97222223,3.1666662,0.16666673)" />
    <linearGradient
       inkscape:collect="always"
       xlink:href="#linearGradient4309"
       id="linearGradient4321"
       gradientUnits="userSpaceOnUse"
       gradientTransform="matrix(1.4166668,0,0,0.97222223,15.083332,0.16666673)"
       x1="7"
       y1="24"
       x2="19"
       y2="24" />
    <linearGradient
       inkscape:collect="always"
       xlink:href="#linearGradient4338"
       id="linearGradient4344"
       x1="1"
       y1="11"
       x2="4"
       y2="11"
       gradientUnits="userSpaceOnUse"
       gradientTransform="matrix(1.3333333,0,0,0.90581395,-0.33333333,4.5209302)" />
    <radialGradient
       inkscape:collect="always"
       xlink:href="#linearGradient4404"
       id="radialGradient4402"
       cx="2.7142859"
       cy="-0.21428591"
       fx="2.7142859"
       fy="-0.21428591"
       r="2"
       gradientTransform="matrix(1.2,0,0,0.89999984,-0.65714282,0.39285721)"
       gradientUnits="userSpaceOnUse" />
    <linearGradient
       inkscape:collect="always"
       xlink:href="#linearGradient4416"
       id="linearGradient3081"
       gradientUnits="userSpaceOnUse"
       gradientTransform="matrix(0.50000002,0,0,0.88888889,0.49999995,2.6666667)"
       x1="1.0000001"
       y1="24.580645"
       x2="17"
       y2="24.580645" />
    <linearGradient
       inkscape:collect="always"
       xlink:href="#linearGradient3040"
       id="linearGradient3046"
       x1="3"
       y1="0.50000024"
       x2="3"
       y2="2.7500002"
       gradientUnits="userSpaceOnUse" />
    <linearGradient
       id="linearGradient4050-7-6">
      <stop
         id="stop4052-6-6"
         offset="0"
         style="stop-color:white;stop-opacity:0.50196081;" />
      <stop
         id="stop4054-0-3"
         offset="1"
         style="stop-color:#ffffff;stop-opacity:0;" />
    </linearGradient>
    <linearGradient
       inkscape:collect="always"
       xlink:href="#linearGradient4050-7-6"
       id="linearGradient3892"
       gradientUnits="userSpaceOnUse"
       gradientTransform="matrix(7.3570454,0,0,0.9007588,-26.474387,2.5995851)"
       x1="13.839919"
       y1="3.2931969"
       x2="13.839919"
       y2="23.579182" />
    <linearGradient
       inkscape:collect="always"
       xlink:href="#linearGradient3791-2"
       id="linearGradient4336-5"
       gradientUnits="userSpaceOnUse"
       gradientTransform="matrix(-1.0737009,0,0,0.87657305,51.304463,2.4622461)"
       x1="10"
       y1="45"
       x2="10"
       y2="3" />
    <linearGradient
       id="linearGradient3791-2">
      <stop
         style="stop-color:#163453;stop-opacity:1;"
         offset="0"
         id="stop3793-5" />
      <stop
         style="stop-color:#4b92db;stop-opacity:1;"
         offset="1"
         id="stop3795-8" />
    </linearGradient>
  </defs>
  <path
     style="color:black;fill:url(#linearGradient4344);fill-opacity:1;fill-rule:nonzero;stroke:url(#linearGradient3425-9);stroke-width:0.99999994;stroke-linecap:butt;stroke-linejoin:miter;stroke-miterlimit:4;stroke-opacity:1;stroke-dasharray:none;stroke-dashoffset:0;marker:none;visibility:visible;display:inline;overflow:visible;enable-background:accumulate"
     d="M 2.3333333,10 1,11.767442 1,48 5,48 5,11.767442 3.6666667,10 2.3333333,10 z"
     id="rect4323"
     inkscape:connector-curvature="0" />
  <g
     id="g1017-7"
     transform="matrix(1.0114617,0,0,0.99388573,-0.36029845,-1.3442093)"
     style="stroke:none">
    <path
       inkscape:connector-curvature="0"
       style="opacity:0.5;fill:url(#radialGradient3579);fill-opacity:1;fill-rule:nonzero;stroke:none;stroke-width:104.96237946;marker:none;visibility:visible;display:inline;overflow:visible"
       id="path5058-0"
       d="m 39.087163,39.586499 c 0,0 0,7.042675 0,7.042675 3.200171,0.01326 7.736457,-1.577906 7.736455,-3.52179 0,-1.943885 -3.57115,-3.520884 -7.736455,-3.520885 z" />
    <rect
       style="opacity:0.5;fill:url(#linearGradient3581);fill-opacity:1;fill-rule:nonzero;stroke:none;stroke-width:104.96237946;marker:none;visibility:visible;display:inline;overflow:visible"
       id="rect4173-6"
       y="39.58625"
       x="9.0813398"
       height="7.0430632"
       width="30.005821" />
    <path
       inkscape:connector-curvature="0"
       style="opacity:0.5;fill:url(#radialGradient3583);fill-opacity:1;fill-rule:nonzero;stroke:none;stroke-width:104.96237946;marker:none;visibility:visible;display:inline;overflow:visible"
       id="path5018-7"
       d="m 9.0813406,39.586499 c 0,0 0,7.042675 0,7.042675 -3.2001721,0.01326 -7.7364568,-1.577906 -7.7364568,-3.52179 0,-1.943885 3.57115,-3.520884 7.7364568,-3.520885 z" />
  </g>
  <path
     sodipodi:type="arc"
     style="color:black;fill:url(#linearGradient3046);fill-opacity:1;fill-rule:nonzero;stroke:url(#linearGradient3425-9);stroke-width:0.69282031;stroke-linecap:butt;stroke-linejoin:miter;stroke-miterlimit:4;stroke-opacity:1;stroke-dasharray:none;stroke-dashoffset:0;marker:none;visibility:visible;display:inline;overflow:visible;enable-background:accumulate"
     id="path3038"
     sodipodi:cx="3"
     sodipodi:cy="0.5"
     sodipodi:rx="2"
     sodipodi:ry="1.5"
     d="m 5,0.5 a 2,1.5 0 1 1 -4,0 2,1.5 0 1 1 4,0 z"
     transform="matrix(1,0,0,1.6666665,0,40.666667)" />
  <rect
     y="5.5"
     x="1.5"
     height="36"
     width="45"
     id="rect3894"
     style="color:black;fill:#4b92db;fill-opacity:1;fill-rule:nonzero;stroke:url(#linearGradient4336-5);stroke-width:1;stroke-linecap:round;stroke-linejoin:round;stroke-miterlimit:4;stroke-opacity:1;stroke-dasharray:none;stroke-dashoffset:0;marker:none;visibility:visible;display:inline;overflow:visible;enable-background:accumulate"
     ry="3" />
  <rect
     rx="1.9999999"
     ry="1.9999998"
     style="color:black;fill:none;stroke:url(#linearGradient3892);stroke-width:0.99999988;stroke-linecap:butt;stroke-linejoin:miter;stroke-miterlimit:4;stroke-opacity:1;stroke-dasharray:none;stroke-dashoffset:0;marker:none;visibility:visible;display:inline;overflow:visible;enable-background:accumulate"
     id="rect3857"
     width="43"
     height="34"
     x="2.5"
     y="6.5" />
  <g
     style="font-size:24.41373444px;font-style:normal;font-variant:normal;font-weight:bold;font-stretch:normal;text-align:start;line-height:125%;letter-spacing:0px;word-spacing:0px;writing-mode:lr-tb;text-anchor:start;fill:black;fill-opacity:1;stroke:none;font-family:Century Gothic;-inkscape-font-specification:Century Gothic Bold"
     id="text3835"
     transform="translate(-382.29915,-954.63472)" />
  <rect
     style="color:black;fill:url(#linearGradient4315);fill-opacity:1;stroke:url(#linearGradient3425-9);stroke-width:0.99999994;stroke-linecap:butt;stroke-linejoin:miter;stroke-miterlimit:4;stroke-opacity:1;stroke-dasharray:none;stroke-dashoffset:0;marker:none;visibility:visible;display:inline;overflow:visible;enable-background:accumulate"
     id="rect4307"
     width="10"
     height="35"
     x="9"
     y="6" />
  <rect
     y="6"
     x="25"
     height="35"
     width="17"
     id="rect4319"
     style="color:black;fill:url(#linearGradient4321);fill-opacity:1;stroke:url(#linearGradient3425-9);stroke-width:0.99999994;stroke-linecap:butt;stroke-linejoin:miter;stroke-miterlimit:4;stroke-opacity:1;stroke-dasharray:none;stroke-dashoffset:0;marker:none;visibility:visible;display:inline;overflow:visible;enable-background:accumulate" />
  <rect
     y="8"
     x="4"
     height="32"
     width="6"
     id="rect4412"
     style="color:black;fill:url(#linearGradient3081);fill-opacity:1;stroke:url(#linearGradient3425-9);stroke-width:0.99999994;stroke-linecap:butt;stroke-linejoin:miter;stroke-miterlimit:4;stroke-opacity:1;stroke-dasharray:none;stroke-dashoffset:0;marker:none;visibility:visible;display:inline;overflow:visible;enable-background:accumulate"
     ry="2"
     rx="2" />
  <path
     id="path247"
     style="fill:white"
     d="m 23.987626,23.934723 c 0.02338,-0.04804 0.0776,-0.255905 0.139779,-0.19189 0.06189,0.06395 0.100816,0 0.100816,0 0,0 0.03106,0.03206 0.0155,0.09603 -0.0155,0.06386 -0.03111,0.127928 -0.07005,0.135911 -0.03867,0.008 -0.06981,0.032 -0.116135,0.04 -0.04651,0.008 -0.06994,-0.08004 -0.06994,-0.08004 z m 0.512373,-0.08025 c 0.01552,-0.01574 0.03111,0.04803 0.06213,0.04004 0.03081,-0.008 0.04652,0.05602 0.0155,0.05602 -0.03111,0 -0.03111,0.04004 -0.03111,0.05602 0,0.01611 0,0.05588 -0.02337,0.0799 -0.02327,0.02402 -0.04662,0.008 -0.07775,-0.008 -0.03097,-0.01592 -0.04634,-0.01592 -0.0853,-0.01592 -0.03871,0 -0.0079,0.06401 -0.0079,0.06401 0,0 -0.162995,-0.008 -0.131879,-0.03205 0.03106,-0.0238 0.06213,-0.032 0.03892,-0.04803 -0.02338,-0.01593 0,-0.03186 0,-0.06387 0,-0.03206 0.07765,-0.01593 0.05418,-0.04004 -0.02313,-0.02402 5e-4,-0.116763 0.03878,-0.06402 l 0.02341,-0.05608 c -0.02341,-0.02393 -0.0077,-0.032 -0.05429,-0.04773 -0.04653,-0.01611 -0.0079,-0.112045 -0.0079,-0.112045 l 0.0079,-0.06396 c 0.01549,-0.07979 0.170651,-0.08792 0.178513,-0.01611 0.0077,0.072 0,0.119984 0,0.119984 l 0.04664,0.01593 c 0,0 -0.0079,0.04824 -0.04664,0.04824 -0.03898,0 0,0.02367 -0.02338,0.04777 l 0.02347,0.03994 z m 5.733223,-3.843448 c -0.04138,0.04271 -0.134512,0.06402 -0.134512,0.06402 L 30.0676,20.19232 30.016,20.23494 c 0,0 0.01025,0.03196 0,0.106621 -0.01046,0.07456 -0.103551,0.117276 -0.103551,0.117276 l -0.04138,0.05331 c 0,0 -0.249479,0.01365 -0.279427,0 -0.09316,-0.04263 -0.03097,-0.170584 0.03111,-0.159931 0.062,0.01061 -0.01046,-0.181297 -0.01046,-0.181297 l 0.08291,-0.01061 c 0,0 0.01025,-0.191992 0.04138,-0.191992 0.03106,0 -0.01025,-0.06392 -0.05186,-0.09593 -0.04138,-0.03186 -0.09307,-0.138471 -0.134625,-0.127872 -0.04136,0.01063 -0.206948,0 -0.206948,0 l -0.03108,0.06402 -0.113893,0.02125 c 0,0 0.0097,0.08246 -0.01005,0.106677 -0.06232,0.07457 -0.300202,0.2345 -0.196856,-0.032 l 0.03097,-0.06386 v -0.09604 l -0.186079,-0.01061 c 0,0 -0.09316,-0.03206 -0.09316,-0.0747 0,-0.04267 -0.01046,-0.09587 -0.01046,-0.09587 l -0.217391,-0.245197 -0.258601,-0.03196 -0.02083,-0.05341 -0.155057,-0.02131 c -0.186415,-0.09586 -0.352051,-0.01062 -0.320935,0.149278 0.03102,0.160025 0.08267,0.223944 -0.02064,0.223944 -0.103639,0 -0.124278,-0.08528 -0.124278,-0.08528 0,0 -0.08267,-0.03206 -0.08267,0.01064 0,0.04271 -0.03111,0.127987 0,0.170585 0.03093,0.04264 -0.04155,0.106619 -0.07261,0.07464 -0.03083,-0.032 -0.113689,-0.127778 -0.09297,-0.159778 0.02064,-0.032 -0.145045,-0.234651 0.02064,-0.266609 0.165647,-0.032 -0.01025,-0.127987 0.05186,-0.149181 l 0.08267,-0.04271 h 0.08271 l 0.05177,-0.04271 -0.134512,-0.02122 -0.08267,-0.01062 -0.155336,-0.01062 c -0.155149,0.106621 -0.186117,0.234602 -0.186117,0.234602 -0.08296,0.159874 -0.279427,-0.06402 -0.206948,-0.149276 0.07233,-0.08532 -0.227771,-0.01062 -0.27957,0.03196 -0.05186,0.04263 -0.207046,0.02131 -0.207046,0.02131 -0.03097,0.09603 -0.175825,-0.01061 -0.134512,-0.07457 0.04141,-0.06396 0.04141,-0.10662 0.04141,-0.10662 l -0.05166,-0.01062 -0.06205,0.117275 c -0.144916,0 -0.186416,0.08523 -0.155395,0.138585 0.03102,0.05322 -0.04135,-0.01063 -0.06213,0.06396 -0.02053,0.07463 0.01046,0.07463 0.07261,0.106619 0.06213,0.032 -0.03111,0.032 0.01025,0.08523 0.04138,0.05342 0.165591,0 0.09319,0.0747 -0.07243,0.07457 -0.217482,0.04271 -0.217482,0.04271 -0.01025,0.09578 -0.206948,0.07456 -0.227481,0.04262 -0.02082,-0.032 -0.175938,-0.223944 -0.175938,-0.223944 l -0.196898,-0.01062 c -0.02052,-0.149181 0.09325,-0.07462 0.134623,-0.191887 0.04161,-0.117332 0.0623,-0.309113 0.0623,-0.309113 0,0 -0.165777,-0.01061 -0.176069,0.04264 -0.01025,0.05337 -0.113799,0.08532 -0.113799,0.08532 0,0 -0.08287,0.03193 -0.05179,0.07462 0.03105,0.04271 -0.06213,0.06386 -0.06213,0.06386 0,0 0.01605,0.0689 -0.01025,0.09598 -0.08266,0.08543 -0.28982,0.01062 -0.32074,-0.0213 l -0.124277,-0.05331 -0.124221,-0.08527 -0.144804,0.06387 -0.04134,0.04271 h -0.155329 l -0.01025,0.127778 0.279428,0.03196 0.02074,0.263891 -0.113985,-0.03985 h -0.07243 l -0.03097,-0.06401 -0.06213,-0.01061 v 0.234499 l 0.06213,0.0534 0.05186,0.05315 0.103489,0.01063 0.02072,0.127872 0.258602,0.0108 0.03106,0.05321 0.155337,0.01062 0.300108,0.309062 -0.02073,0.09603 -0.05186,0.032 c 0.02083,0.07461 -0.13438,0.032 -0.13438,0.032 v 0.06386 l 0.07224,0.01062 0.07261,0.04263 0.103395,-0.181181 c 0.1138,-0.07464 0.165442,0.032 0.175976,0.09597 0.01025,0.06396 -0.05191,0.05325 -0.05191,0.05325 v 0.149389 l 0.06213,0.02122 c 0.103639,0.127968 -0.04134,0.202643 -0.04134,0.202643 l -0.03111,0.106562 c -0.03108,0.09598 -0.14486,0.07457 -0.14486,0.07457 l -0.04125,0.06402 -0.124371,0.032 0.245728,0.03196 c 0.02338,-0.08532 0.08529,-0.106621 0.116377,-0.06396 0.03111,0.04271 0.03111,0.117331 0.03111,0.117331 l 0.06232,0.01061 -0.01046,0.117218 0.06213,0.0214 v 0.341077 l 0.07243,0.08528 c 0.12422,-0.05317 0.12422,0.03207 0.06205,0.07464 -0.06205,0.04256 -0.02074,0.2346 -0.02074,0.2346 l -0.05175,0.05321 v 0.08537 l -0.06205,0.04263 v 0.117218 c -0.103551,-0.05325 -0.227771,-0.03205 -0.258895,0 -0.09296,-0.06402 -0.289617,-0.04264 -0.289617,0.0108 0.062,0.08528 -0.07234,0.10662 -0.07234,0.10662 l -0.07261,0.08527 c 0.05186,0.10668 -0.0516,0.117219 -0.0516,0.117219 v 0.202644 l -0.124277,0.117276 0.01046,0.277204 c 0,0.07464 0.155149,0.08523 0.186077,0.04264 0.03111,-0.04264 0.155395,0.08538 0.155395,0.08538 h 0.09295 l 0.02083,-0.191991 -0.06218,-0.032 V 23.09213 l 0.103551,-0.117331 c 0.124221,-0.04262 0.08288,0.277356 0.08288,0.309312 0.01025,0.117219 0.06189,0.106622 0.113798,0.08521 0.103456,-0.04264 0.02052,0.117428 -0.06213,0.106622 -0.08273,-0.01062 -0.03111,0.106619 -0.03111,0.106619 l 0.0519,0.0214 -0.09324,0.07464 -0.08257,0.09603 -0.103749,-0.03206 -0.124035,-0.01064 -0.04141,-0.07481 -0.07258,-0.01064 -0.01025,0.149182 -0.05166,0.06396 -0.12422,0.128119 c 0.165647,0 -0.02083,0.117029 -0.06213,0.117029 0.09311,0.032 -0.01025,0.128081 -0.248309,0.05351 v 0.07453 l -0.0829,0.01062 0.07261,0.08515 0.08267,0.01063 -0.03108,0.181241 c 0,0.138582 -0.341464,0.0425 -0.372588,0.01062 l -0.01025,0.191938 -0.06213,0.01043 0.01025,0.12808 -0.01025,0.181297 0.113797,-0.02135 v 0.07467 l 0.279579,0.01062 0.403604,-0.437244 0.23797,-0.05321 c 0.02064,-0.106773 0.124034,0.02135 0.124034,0.02135 0.103551,-0.01101 0.124278,0.06387 0.124278,0.06387 l 0.134624,0.02135 c 0.113688,0.03206 0.04497,0.04326 0.05164,0.08543 0.01025,0.06386 0.06205,0.0425 0.06205,0.0425 l 0.02083,-0.138586 0.06213,0.01062 -0.06213,-0.07466 -0.113985,-0.05342 -0.12409,-0.05321 c -0.08288,-0.117218 0.02068,-0.09586 0.103539,-0.08516 h 0.134513 c 0,0 0.155338,0.213096 0.155338,0.266459 0,0.0534 0.07243,0.06406 0.07243,0.06406 l 0.09295,-0.01062 0.03111,0.07452 h 0.09311 l 0.0311,0.06386 h 0.186322 l 0.01025,-0.09587 -0.176126,-0.03181 -0.01025,-0.106771 -0.124091,-0.032 c -0.04155,-0.181089 0.03093,-0.234503 0.08267,-0.149088 l 0.06208,0.01043 -0.02073,-0.159931 0.07238,-0.02135 -0.02064,-0.223948 -0.06205,-0.02118 v -0.0747 l 0.258602,0.0108 c -0.02052,-0.138772 0.01046,-0.202696 0.01046,-0.202696 h 0.07243 l 0.01025,0.05346 0.316642,0.03029 0.223877,-0.260674 c -0.01122,-0.01992 0.0225,-0.03206 -0.0021,-0.05763 -0.03111,-0.03196 -0.07261,0 -0.124575,-0.03196 -0.0516,-0.0318 0,-0.213198 -0.01025,-0.255802 -0.01025,-0.04264 0.176124,-0.106772 0.145046,-0.01061 -0.03108,0.09602 0,0.138621 0,0.138621 0.13451,-0.127988 0.24836,0.01062 0.23807,0.04264 -0.01065,0.03196 0.07235,0.06396 0.123978,0.03196 0.05186,-0.03196 0.11393,0.09603 0.09321,0.159836 -0.02083,0.06396 -0.206898,0.05341 -0.217189,-0.01062 -0.01065,-0.06402 -0.04166,-0.04263 -0.06213,-0.01062 -0.02083,0.032 -0.1138,0.05322 -0.165647,0.02121 -0.01046,-0.0064 -0.01552,-0.01194 -0.01849,-0.01705 l -0.223876,0.260675 0.01457,0.0016 c 0.12409,0.0747 0.06213,0.17064 0.02082,0.191938 -0.04155,0.02135 -0.113987,0.02135 -0.113987,0.02135 l -0.02052,0.04271 -0.269135,0.0212 -0.02083,0.106716 c -0.134511,-0.02154 -0.186117,0.127872 -0.155094,0.202391 0.03111,0.07452 0,0.138584 0,0.138584 l 0.113836,0.05342 0.144766,-0.0425 c 0.02083,-0.106773 0.113798,-0.128118 0.196707,-0.191939 0.08266,-0.06402 0.21739,0.11703 0.175825,0.202441 -0.04136,0.08515 -0.04136,0.117218 -0.04136,0.117218 l 0.01025,0.09603 -0.103397,0.04256 -0.08273,0.04271 -0.01046,0.05337 h -0.27932 l -0.05166,0.05322 -0.134625,0.011 -0.04155,0.06388 -0.09297,0.01061 c 0,0 -0.155337,0.07468 -0.09316,0.159932 0.06208,0.08537 -0.258653,0.07466 -0.331274,-0.04271 -0.02073,0.106526 -0.134513,0.01062 -0.134513,0.01062 l -0.113798,-0.03206 -0.01025,-0.159741 c -0.02072,-0.106716 -0.217387,-0.106716 -0.206947,-0.032 0.01025,0.07468 -0.372732,0.032 -0.372732,0.032 l -0.12409,0.06121 -0.113986,0.06674 -0.01025,0.05322 -0.186415,0.02135 -0.08267,0.04271 -0.03102,-0.06402 h -0.08271 l -0.08288,0.117371 c -0.217288,0.01055 -0.424235,0.138551 -0.403604,0.191869 0.02072,0.05322 -0.08267,0.106772 -0.08267,0.106772 l -0.09325,0.03159 -0.06195,0.09608 -0.12422,0.04271 -0.02083,0.223993 -0.06195,0.04251 v 0.09607 l -0.07258,0.02117 v 0.05342 l -0.103458,0.01063 0.06194,0.159987 0.08306,0.04271 c 0.14486,0.02117 0.08266,0.202594 0.08266,0.202594 l 0.08272,0.01045 0.04155,0.117217 0.08267,0.170587 c 0.03111,0.128118 0.124275,0.09608 0.165646,0.08543 0.04138,-0.01045 0.08267,0.127871 0.08267,0.127871 l 0.413895,0.01062 c 0,0 -0.02053,0.04271 0.05191,0.06402 0.07233,0.02117 0.548419,0.04271 0.569244,0.01061 -0.02083,-0.09606 0.258554,-0.117428 0.372539,-0.03207 0.113686,0.08516 0.269035,0.03207 0.269035,0.03207 l 0.155206,0.191692 0.103696,0.234651 0.175826,0.05322 0.124091,0.03206 0.04155,0.18124 0.09296,0.01062 0.0311,0.117369 c 0.113928,0.08523 -0.0311,0.266508 -0.0311,0.266508 v 0.234451 l 0.08288,0.04271 -0.01046,0.08543 0.134718,0.138377 0.15515,0.0108 0.393364,0.426387 0.31035,0.09586 0.05166,0.170642 0.08296,-0.01062 0.06205,-0.05321 0.248309,-0.01062 0.124278,-0.117427 0.134513,-0.02118 1.14876,-0.991574 -0.103637,-0.06402 v -0.233602 c 0.186322,-0.138584 0.196658,-0.383929 0.02074,-0.405239 -0.133449,-0.0161 -0.07235,-0.15993 0.0519,-0.181238 l 0.07233,-0.03186 v -0.09612 l 0.238096,-0.223744 v -0.170681 l -0.517323,-0.437237 c -0.227772,-0.08515 0,-0.597025 0.155056,-0.586327 0.155336,0.01045 -0.01025,-0.78891 -0.01025,-0.78891 l -0.08292,-0.04256 0.02083,-0.256007 h -0.113774 l -0.18636,0.245351 -0.05166,0.170433 c -0.02074,0.224149 -0.662413,0.181241 -0.693539,0.14924 -0.03108,-0.032 -0.248309,-0.127873 -0.248309,-0.127873 0,0 -0.165591,-0.138584 -0.196658,-0.09586 -0.03108,0.04271 -0.175826,-0.05341 -0.175826,-0.02135 0,0.032 -0.134512,-0.07453 -0.134512,-0.07453 l -0.206947,-0.0747 0.155336,-0.03205 -0.03111,-0.127873 0.26884,0.138583 c 0.03111,0.0425 0.165647,0.03207 0.165647,0.03207 l 0.04136,0.05337 c 0,0 0.08292,-0.0108 0.134811,0.05322 0.05164,0.06402 0.320638,0.01061 0.320638,0.01061 l 0.07243,0.06386 0.113799,0.04271 0.320933,0.01061 0.01025,-0.20244 0.06213,-0.06402 -0.01046,-0.128083 0.07243,-0.06386 v -0.106526 l 0.06213,-0.02136 0.01025,-0.234445 0.05164,-0.01062 V 23.93491 l -0.155218,-0.149332 c -0.01025,0.0534 -0.175826,0.0534 -0.175826,0.0534 0,0 -0.04136,0.07454 -0.07243,0.07454 -0.03097,0 0.04141,0.09587 0.02064,0.159932 -0.02064,0.06386 -0.10349,0.06386 -0.10349,0.06386 l -0.155335,0.04276 -0.04135,0.05337 h -0.165579 l -0.02053,-0.138584 0.186117,-0.05342 0.103489,-0.05317 0.05186,-0.106774 c 0.01025,-0.106469 0.134511,-0.09593 0.134511,-0.09593 0,0 0.23802,-0.20259 0.248312,-0.298362 0.01046,-0.09603 0.09325,-0.362575 0.238069,-0.362575 h 0.269135 c 0.103396,-0.04275 0.07238,-0.181296 0.07238,-0.181296 l 0.134568,-0.0212 0.02074,0.07463 c 0,0 0.18636,0.02131 0.206947,-0.01063 0.02083,-0.03185 0.06213,-0.106619 0.113985,-0.07462 0.0517,0.03196 0.217289,-0.07467 0.217289,-0.07467 0.01025,-0.07464 0.269037,-0.04264 0.269037,-0.04264 l 0.03111,-0.09593 c 0,0 -0.175881,-0.245204 -0.206948,-0.245204 -0.03111,0 -0.196657,-0.149393 -0.217438,-0.09603 -0.165385,-0.04262 -0.155151,-0.277205 -0.155151,-0.277205 l -0.06213,-0.149183 c 0,-0.08543 -0.155055,-0.266608 -0.186321,-0.2452 -0.155336,-0.117276 -0.04138,-0.255902 0,-0.266557 0.04138,-0.01063 0.145011,-0.159929 0.145011,-0.159929 l 0.05164,-0.149277 0.175938,-0.05315 0.02073,-0.138622 -0.09296,-0.01063 c 0,0 0.103304,-0.19194 0.15515,-0.19194 0.05186,0 0.393364,0 0.424189,-0.0214 0.03105,-0.0212 0.09311,-0.191786 0.09311,-0.223791 0,-0.032 0.08302,-0.04271 0.113838,-0.0534 0.03108,-0.0106 0.103487,-0.09585 0.124221,-0.138584 0.02073,-0.0429 -0.05155,-0.309517 -0.09307,-0.266855 z m 2.866302,3.406148 c -0.0031,-0.02049 -0.01532,-0.03645 -0.03396,-0.04481 -0.04594,-0.02049 -0.1234,0.01346 -0.161351,0.03954 l 0.03432,0.05325 c 0.03933,-0.02703 0.09092,-0.04004 0.102423,-0.03405 -9.67e-4,-3.79e-4 -0.0025,-0.0024 -0.0027,-0.0035 l 0.06136,-0.01045 z m 0.272063,1.272093 -0.06183,-0.0063 c -0.0049,0.05029 0.0068,0.112458 0.0559,0.122545 l 0.01214,-0.06272 c 4.37e-4,0 9.66e-4,3.78e-4 0.0011,3.78e-4 -0.005,-0.0046 -0.0095,-0.03025 -0.0074,-0.05393 z m 0.225993,-0.251515 c 0.01569,0.06481 0.03878,0.128687 0.03979,0.131341 l 0.05824,-0.0225 c -4.36e-4,-5.69e-4 -0.02302,-0.06312 -0.0379,-0.124517 l -0.06014,0.01574 z m 0.138209,-0.05247 c -8.06e-4,-0.0021 -0.0012,-0.0095 -0.002,-0.01478 -0.0012,-0.01764 -0.0035,-0.04156 -0.01588,-0.06674 l -0.05545,0.02857 c 0.0068,0.01421 0.0081,0.02934 0.0093,0.04381 0.0017,0.01877 0.0035,0.04004 0.02122,0.05355 0.01122,0.0086 0.02517,0.01101 0.0419,0.0078 l -0.01177,-0.0619 c 0.0049,7.53e-4 0.01103,0.0051 0.01251,0.0097 z m -0.526691,0.45247 c 0.04425,-0.02839 0.100816,-0.0801 0.09316,0.04004 -0.0079,0.11989 -0.05439,0.08004 -0.09316,0.11989 -0.03878,0.04004 -0.06208,-0.11989 0,-0.15993 z m -2.499552,0.823694 0.0079,-0.09598 0.100971,0.01611 -0.0079,0.08742 z m 0.0056,0.208893 c -0.01363,-0.05431 -0.07403,-0.07662 -0.08087,-0.07888 l -0.01976,0.0608 v -3.8e-4 c 0.0049,0.002 0.01214,0.0056 0.01926,0.01045 l 0.0127,0.05525 c -0.0047,0.007 -0.0097,0.01365 -0.01363,0.01857 l 0.04555,0.04326 c 0.03322,-0.03754 0.04551,-0.07393 0.03683,-0.109028 z m -7.735315,1.973292 -0.06244,0.05325 -0.03072,0.02664 0.03269,0.02411 0.07268,0.05326 0.03608,-0.05176 -0.03999,-0.02966 0.03122,-0.02664 z m 0.73747,0.76374 -0.02782,0.05727 0.06487,0.03316 -0.02145,0.02209 0.04439,0.04522 0.0517,-0.05325 0.03023,-0.03115 -0.03853,-0.0201 z m -2.90269,-13.668856 0.04399,-0.04523 0.06203,0.06399 -0.04399,0.04524 z m 1.885574,1.994624 0.03968,-0.04925 0.06211,0.05309 -0.03968,0.04925 z m -0.197327,-0.0033 0.01065,0.117332 h 0.155058 c 0.06213,0 -0.05164,-0.07462 -0.05164,-0.07462 0,0 -0.124219,0.01061 -0.113983,-0.04271 z m 3.407828,-2.974049 -0.103394,-0.01101 -0.0063,0.06382 0.08877,0.0091 0.06439,0.104004 0.05218,-0.03417 -0.07218,-0.117067 -0.0081,-0.01307 z m 0.282405,-2.23434 -0.03269,0.05425 0.0829,0.05316 0.01605,0.0108 0.01661,-0.0108 0.114137,-0.0747 -0.03317,-0.05392 -0.09755,0.06376 z m 0.555054,0.303988 -0.05267,-0.05432 -0.04388,0.04518 0.07219,0.07462 0.02,0.02034 0.02145,-0.01782 0.103885,-0.08538 -0.03903,-0.0499 z m -3.437817,2.218031 c -0.0075,-0.03773 0.206947,-0.04261 0.238069,-0.0108 0.03111,0.03206 0.01025,0.08532 0.103457,0.08532 0.09301,0 0.0517,0.06402 0.04134,0.09603 -0.01025,0.03196 -0.113687,0.0213 -0.124276,-0.01062 -0.01025,-0.03206 -0.165591,-0.04288 -0.165591,-0.04288 0,0 -0.08271,-0.06402 -0.09301,-0.117181 z m 1.189726,-0.120062 c 0.159148,0.05125 0.217239,0.01327 0.227772,-0.02929 0.01025,-0.04271 0.02055,-0.0534 0.08271,-0.06396 0.06205,-0.01062 -0.01046,-0.138621 -0.07243,-0.127988 -0.06218,0.01063 -0.124277,-0.0213 -0.134512,-0.07463 -0.01065,-0.05325 -0.113986,-0.191889 -0.124277,-0.08522 -0.01025,0.106621 -0.07243,0.106621 -0.06213,0.181243 0.01046,0.07446 0.04149,0.186357 0.08287,0.199829 z m 1.024737,-1.799169 c -0.02279,-0.09372 -0.155337,0.117218 -0.02052,0.159779 0.134512,0.04287 0.268841,0 0.268841,0 l 0.03111,-0.06391 0.517297,0.01062 c 0.04166,-0.04271 0.06213,-0.106621 0.06213,-0.106621 0,0 0.124277,-0.04271 0.175882,-0.02138 0.05186,0.02138 0.01046,-0.149183 -0.04135,-0.127872 -0.05164,0.0213 -0.155095,0.01062 -0.155095,0.01062 h -0.18639 c -0.01025,-0.07457 -0.17588,-0.04271 -0.186227,0 -0.01046,0.04262 -0.07234,0.05325 -0.07234,0.05325 l -0.238069,0.02138 c -0.02077,0.06402 -0.144804,0.106621 -0.1553,0.06402 z m 0.02055,0.522613 -0.134811,-0.138622 v -0.117305 l -0.04138,-0.04275 -0.04138,-0.149181 -0.134512,-0.04262 -0.134513,0.0532 -0.144916,0.09598 -0.155149,0.02146 -0.0829,0.09586 0.331223,0.03186 0.062,0.106774 0.238263,0.0213 0.155056,0.159872 c 0.134811,0.04271 0.165741,-0.0213 0.08301,-0.09586 z m 0.534965,1.047192 -0.05659,-0.02596 0.04151,-0.09598 0.05657,0.02597 z m 3.035458,-0.130243 c -0.01644,-0.08416 0.207142,-0.159931 0.258795,-0.09603 0.05186,0.06396 0.196659,0.07481 0.217387,0.394632 0.0074,0.114508 -0.186321,-0.117276 -0.186321,-0.117276 l -0.155335,-0.05331 c -0.08272,-0.0214 -0.124221,-0.07457 -0.134513,-0.128025 z m -1.087005,0.276787 c -0.03023,0.09331 -0.04133,0.223949 -0.09316,0.223949 -0.05164,0 -0.03105,0.138736 -0.03105,0.138736 0,0 0.134756,0 0.176123,0.01063 0.04125,0.01062 0.04125,0.117181 0.04125,0.117181 0.155335,-0.01063 0.217481,0.202643 0.196657,0.255954 -0.02073,0.05325 0.06213,0.05325 0.06213,0.05325 0,0 0,0.170642 -0.02083,0.213197 -0.02052,0.04271 0.134626,0.07471 0.175975,0.138623 0.04136,0.06402 -0.02083,0.277205 -0.05175,0.287859 -0.03102,0.01062 0.08266,0.04262 0.07243,0.09594 -0.01046,0.0534 0.03105,0 0.04138,0.08538 0.01025,0.08521 0.03111,0.266457 0.03111,0.266457 l 0.144767,0.0108 c 0.02083,-0.138584 0.287621,-0.143911 0.331226,-0.127986 0.175939,0.06396 0.310642,0.341171 0.310642,0.405085 0,0.06392 -0.113986,0.07471 -0.113986,0.07471 l 0.02083,0.309062 c 0.175826,0.05338 0.320741,0.309315 0.300109,0.351927 -0.02072,0.04263 0.124034,0.03207 0.124034,0.03207 0.02083,-0.192042 0.196706,-0.128025 0.206946,-0.06402 0.01065,0.06402 0.04141,0.202594 0.04141,0.202594 l 0.05179,0.0958 0.07243,0.07468 0.113799,-0.01062 0.03111,0.06402 0.134513,0.0214 c 0,0 0.113985,0.127781 0.124221,0.159874 0.01046,0.03193 0.165647,0.02131 0.206946,0.03193 0.04138,0.01061 0.103552,0.04271 0.113799,0.09597 0.01046,0.05338 0.07261,0.138621 0.07261,0.138621 0,0 0.12409,0.03206 0.13451,0.07465 0.01025,0.04256 0.06213,0.138583 0.06213,0.138583 l 0.10325,0.08532 0.01046,0.09603 0.113799,0.01062 0.03112,0.127779 0.186117,-0.01061 0.103694,-0.07464 c 0.134513,-0.07457 0.22768,-0.170586 0.238071,-0.213293 0.01025,-0.04263 0.03097,-0.20244 0.134514,-0.170491 0.103394,0.032 0.03105,-0.234601 0.03105,-0.234601 0,0 -0.144859,-0.106621 -0.134624,-0.160027 0.01046,-0.05321 -0.144766,-0.159778 -0.134511,-0.20249 0.01025,-0.04271 -0.134512,-0.127875 -0.124222,-0.170529 0.01025,-0.04271 -0.07243,-0.160026 -0.07243,-0.160026 l -0.155336,-0.149182 -0.02073,-0.09603 -0.12409,-0.01062 -0.248311,-0.309213 0.01025,-0.08538 -0.07243,-0.01062 v -0.117221 l -0.07233,-0.04271 -0.113986,-0.01061 -0.227578,-0.255802 -0.02072,-0.117334 h -0.1138 l 0.02064,-0.223944 c 0.07252,-0.09598 0.03102,-0.277208 0.03102,-0.277208 0,0 -0.145007,0.07462 -0.217239,0.04262 -0.07258,-0.03186 0.03093,-0.106619 0.03093,-0.106619 v -0.08522 l -0.062,-0.06397 c 0,0 -0.176071,0.0214 -0.186323,-0.01062 -0.01046,-0.032 -0.04135,-0.170643 -0.04135,-0.170643 l -0.01046,-0.181295 -0.07233,-0.03186 -0.01046,-0.06406 -0.113686,0.01062 v -0.127874 l -0.06219,-0.0213 -0.06205,-0.032 -0.01025,-0.127987 -0.22768,-0.01063 -0.07243,-0.106622 -0.08273,-0.127969 -0.258743,-0.0213 -0.06213,-0.06387 -0.103447,-0.0214 -0.07243,-0.032 -0.03106,0.0534 -0.196706,0.0106 -0.01025,0.06396 c -0.103458,0.05331 -0.517398,0.01062 -0.527933,0.04256 z m -1.903799,-0.06382 c -0.108179,-0.08337 0.144764,0.06402 0.144764,0.06402 0.08271,0 0.134513,0.06396 0.134513,0.09603 0,0.03196 0.113835,0.02131 0.113835,0.02131 l 0.01046,-0.07471 -0.08296,-0.106622 -0.07233,-0.05316 c 0,0 -0.1138,-0.01062 -0.1138,-0.04271 -4.8e-5,-0.03192 -0.09322,0.127928 -0.134569,0.09587 z m 3.36e-4,0.362374 -0.08292,-0.02111 0,0.09597 0.11365,0.01062 z m 1.1483,1.172602 v -0.08523 c 0,0 -0.01046,-0.08528 -0.06213,-0.08528 -0.0516,0 -0.144802,-0.06393 -0.124275,-0.106621 0.02088,-0.04271 -0.175827,-0.08532 -0.175827,-0.08532 0,0 -0.175826,-0.170588 -0.113799,-0.149184 0.06213,0.0213 0.03111,-0.07471 0.03111,-0.07471 0,0 -0.124279,0.0213 -0.155338,0.01063 -0.03111,-0.01063 -0.02083,-0.106622 -0.02083,-0.106622 0,0 -0.123978,-0.032 -0.123978,0 0,0.032 0.04136,0.032 0.06189,0.09586 0.02083,0.06392 0.01046,0.170642 0.103751,0.191886 0.09316,0.0214 0.113687,0.04263 0.124221,0.08532 0.01025,0.04271 0.12409,0.05331 0.12409,0.05331 l 0.08287,0.04261 0.24826,0.213243 z m 0.08279,0.288164 c -0.01025,-0.04271 -0.03111,-0.192039 0.03108,-0.181392 0.06205,0.0108 0.02072,0 0.09316,0.03206 0.07243,0.03206 0.08273,-0.05325 0.08273,-0.05325 h 0.11393 l 0.144803,0.117179 -0.02072,0.09603 -0.103487,0.01063 c -0.05166,-0.08515 -0.155207,-0.05321 -0.134513,0.02146 0.02072,0.07457 -0.05166,0.213197 -0.09295,0.223795 -0.04141,0.01062 -0.176181,0.01062 -0.165647,-0.05322 0.01025,-0.06396 0.05164,-0.213191 0.05164,-0.213191 z m 1.707702,1.449668 0.07258,-0.234397 c -0.103395,-0.0214 -0.08287,-0.138585 -0.08287,-0.138585 -0.01025,-0.09603 -0.155151,-0.202594 -0.20695,-0.170587 -0.05164,0.03186 -0.03111,-0.223995 -0.03111,-0.223995 0,0 0.09324,-0.06386 0.134624,-0.03192 0.04141,0.03192 -0.351806,-0.533058 -0.434677,-0.479748 -0.08271,0.05331 -0.268894,-0.05331 -0.258602,-0.149334 0.01025,-0.09586 -0.372588,-0.415792 -0.372588,-0.415792 0,0 -0.124221,-0.08515 -0.14486,-0.02121 -0.02074,0.06392 -0.06208,0.10662 0,0.13847 0.062,0.03206 0.05166,-0.05325 0.124035,0.02131 0.07243,0.07461 0.20714,0.170643 0.155336,0.2346 -0.05179,0.06406 -0.113931,0.08538 -0.113931,0.08538 l 0.07258,0.08532 h 0.113799 l 0.02072,0.181146 c 0,0 0.124091,0.06402 0.155208,0.138624 0.03105,0.07457 0.03105,0.117275 0,0.159986 -0.03111,0.04262 -0.09295,0.117219 -0.08271,0.19179 0.01025,0.07461 0.09316,0.106619 0.09316,0.106619 l 0.08266,0.01063 0.06218,0.03206 v 0.138679 c 0.08267,-0.02139 0.217187,0.09578 0.206946,0.170489 -0.01025,0.07464 0.02053,0.03196 0.124035,0.106622 0.103638,0.07463 0.07261,0.08532 0.145008,0.138621 0.07248,0.05316 0.134623,0.02122 0.165441,-0.07487 z m -2.380697,1.364986 c 0,0.03193 -0.02053,0.07456 0.04135,0.08532 0.06238,0.01063 0.176179,-0.04262 0.186415,0.0213 0.01046,0.06392 0.01046,0.106715 0.09315,0.138735 0.08267,0.03193 0.134626,0.04263 0.196659,0.04263 0.06195,0 0.196705,-0.02146 0.196705,-0.02146 0,0 0.14643,0.02325 0.175826,0.05342 0.1138,0.117218 0.186229,0.149182 0.217238,0.09593 0.03106,-0.05337 -0.01025,-0.170528 -0.02058,-0.213193 -0.01046,-0.04275 -0.155339,-0.245298 -0.207096,-0.202642 -0.05166,0.04271 -0.062,0 -0.155207,0.03192 -0.09316,0.032 -0.289818,0.0108 -0.300059,-0.03192 -0.01025,-0.04271 -0.155207,-0.06387 -0.155207,-0.106619 0,-0.04271 -0.103397,-0.09593 -0.09315,-0.032 0.01025,0.06393 -0.07238,0.09593 -0.0934,0.07471 -0.02052,-0.02134 -0.08266,0.06392 -0.08266,0.06392 z m -0.517356,0.117543 -0.01025,0.07464 0.113686,0.01062 c 0,0 0.05164,0.04271 0.05164,0.07457 0,0.032 0.07261,0.06396 0.113987,0.06396 0.04138,0 0.155148,-0.08532 0.155148,-0.08532 0,0 0.05186,-0.149278 0.01046,-0.138622 -0.04155,0.01061 -0.124277,0.07464 -0.134512,0.01061 -0.01046,-0.06396 -0.134513,-0.032 -0.134513,-0.032 l -0.165645,0.02149 z m -0.517613,0.179816 -0.01964,-0.06069 0.03101,-0.01062 0.01964,0.06069 z m 0.04349,-0.06608 -0.02062,-0.09584 0.06071,-0.01384 0.02062,0.09584 z m 0.152424,-0.082 0.003,0.06381 0.227288,-0.01062 -0.003,-0.06381 z m 2.023225,0.0091 -0.0062,-0.06355 0.10364,-0.01062 0.0062,0.06355 z m 0.324765,0.194048 -0.05687,-0.02519 0.03111,-0.0746 0.05687,0.02519 z m 0.853834,-1.025333 -0.0062,-0.0637 0.103489,-0.01044 0.0062,0.06371 z m 0.162976,9.62e-4 0.06213,0 0,0.05341 -0.06213,0 z m 0.176105,-0.993989 0.01046,0.09586 -0.06172,0.0072 -0.01046,-0.09586 z m -0.05222,1.420544 0.06213,0 0,0.07463 -0.06213,0 z m 0.108345,0.1015 0.0311,-0.06398 0.05565,0.0287 -0.0311,0.06398 z m -0.273939,-0.900897 c 0.06292,0 -0.02053,0.245199 0.144802,0.223896 0.165647,-0.0214 0.01046,0.07463 0.134625,0.08523 0.12422,0.0108 0.09316,-0.09594 0.13451,-0.17049 0.04155,-0.07462 0.02083,-0.11733 -0.05164,-0.138621 -0.07261,-0.02131 -0.07261,-0.02131 -0.09316,-0.106716 -0.02064,-0.08523 -0.103487,-0.106621 -0.103487,-0.106621 l -0.03111,-0.127834 -0.134513,0.08523 -0.134512,0.18124 c 0,0.138735 0.07238,0.07471 0.134512,0.07471 z m 0.404045,0.575695 c 0.08273,-0.04263 0.258604,-0.04263 0.248312,-0.10662 -0.01025,-0.06396 0.103447,-0.08527 0.103447,-0.08527 l 0.03105,0.12787 0.09316,0.06396 0.01046,0.117276 c 0,0 0.03097,-0.02131 -0.08271,0.01061 -0.113988,0.032 -0.04138,0.08523 -0.04138,0.08523 l -0.248504,0.01061 -0.03105,-0.106622 -0.08273,-0.117179 z m -1.335407,0.895457 c 0.05191,-0.01061 0.175825,-0.0214 0.196655,0.01064 0.02083,0.03196 -0.07243,0.07456 -0.07243,0.07456 l -0.124219,0.0214 c -0.04138,-0.05338 -0.05164,-0.09593 0,-0.106563 z m 0.662411,-0.09606 c 0.05707,0.05889 -0.310399,0.04255 -0.310399,0 0,-0.04263 0.03112,-0.191785 0.124089,-0.160026 0.09316,0.03214 0.103394,-0.191789 0.103394,-0.191789 0,0 -0.08267,0.01062 -0.01025,-0.032 0.07243,-0.04261 0,-0.10662 -0.03111,-0.138584 -0.03097,-0.03206 -0.06205,-0.08532 -0.06205,-0.08532 h 0.145008 c 0.06213,-0.04271 0.08267,-0.2452 0.08267,-0.2452 0.12409,0.04263 0.18623,-0.04271 0.18623,-0.04271 0,0 0.02105,0.06396 0.06233,0.117369 0.04135,0.05322 -0.103695,0.07457 -0.0519,0.106623 0.0519,0.032 0.07243,0.127871 0.0519,0.159777 -0.02083,0.032 -0.134812,0.01062 -0.134812,-0.03192 0,-0.04271 -0.04138,0.05331 0,0.106618 0.04136,0.05331 -0.05166,0.127874 -0.07243,0.127874 -0.02075,0 -0.155058,0.0214 -0.04135,0.08532 0.113798,0.06392 0.238212,0.03214 0.238212,0.03214 0,0 0.09307,-0.0108 0.124089,0.04261 0.03111,0.05325 -0.01025,0.06396 -0.06205,0.06396 -0.05164,0 -0.300201,-0.0214 -0.300201,-0.0214 0,0 -0.07238,0.07467 -0.04138,0.106676 z m 1.210895,-1.204475 c -0.03111,-0.04275 -0.06218,-0.07471 -0.10355,-0.09593 -0.04125,-0.0214 -0.07233,-0.04271 -0.113892,-0.04271 -0.04138,0 -0.08267,-0.04271 -0.06213,-0.09593 0.02083,-0.05338 -0.03111,-0.07466 -0.03111,-0.11737 0,-0.04262 0.03111,-0.04262 0.0829,-0.01061 0.05186,0.032 0.04136,0.04263 0.08296,0.09603 0.04125,0.05325 0.06189,0.106565 0.103209,0.09587 0.04159,-0.01063 0.07261,0.09593 0.113986,0.06396 0.04138,-0.03196 0.03111,0.07463 0.03111,0.07463 l -0.10349,0.03206 z m -0.103343,0.09543 c 0.03094,0.04263 0.09307,0.07455 0.09307,0.11733 0,0.04271 -0.02064,0.07457 0.04155,0.08528 0.06195,0.01061 0.103457,-0.01061 0.12409,0.04263 0.02073,0.05325 0.02073,0.138582 0.01046,0.181237 -0.01046,0.04271 0.01025,0.106622 0.06195,0.106622 0.05186,0 0.06213,0.01061 0.06213,0.04271 0,0.03192 0.06213,-0.117372 0.06213,-0.117372 -0.05191,-0.04263 -0.09326,-0.138621 -0.09326,-0.138621 0,0 -0.05164,-0.149241 -0.05164,-0.17053 0,-0.0213 -0.07237,-0.04271 -0.103395,-0.05331 -0.0311,-0.01062 -0.08296,-0.106565 -0.08296,-0.106565 l -0.12409,0.0106 z m 0.672374,1.727718 -0.04155,-0.09603 c 0,0 0,-0.08516 0.02072,-0.127988 0.02083,-0.04261 -0.04135,-0.08515 -0.07233,-0.09586 -0.03108,-0.01062 -0.02064,-0.09593 -0.03108,-0.138621 -0.01025,-0.04263 -0.08266,-0.07456 -0.08266,-0.07456 0,0 -0.02088,-0.159928 -0.02088,-0.191887 0,-0.032 -0.09311,-0.07464 -0.06205,-0.106679 0.03111,-0.03196 0.05186,-0.07457 0.0829,-0.09597 0.03105,-0.02131 -0.03111,-0.170588 0.02053,-0.138623 0.05186,0.03206 0.05186,0.08532 0.07258,0.127985 0.02064,0.04262 -0.01046,0.191939 0.04141,0.223947 0.0516,0.03193 -0.01046,0.138471 0.07238,0.138471 0.08272,0 0.03111,0.202642 0.03111,0.202642 0,0 -0.02083,0.149181 0.03083,0.15993 0.05186,0.01062 0.02083,0.266507 0.02083,0.266507 l -0.08277,-0.05325 z m 0.09025,0.846458 -0.05537,-0.02856 0.03108,-0.06394 0.05537,0.02856 z m 0.0037,-0.294594 0.01065,-0.08533 0.06174,0.0082 -0.01065,0.08532 z m -0.125154,-0.434954 -0.08272,-0.01063 -0.186566,0.03196 -0.10325,0.202542 c 0,0 0.05164,0.032 0.09295,0.106621 0.04138,0.07473 0.06213,0.511706 -0.06205,0.586425 -0.124091,0.07467 0.01046,0.03185 0.01046,0.03185 l -0.02083,0.2346 c 0.03111,0.10662 0.08272,0.0534 0.113799,0 0.0313,-0.05315 0.06238,-0.06386 0.103752,-0.11718 0.04138,-0.0534 0.103395,-0.149276 0.113799,-0.223997 0.01025,-0.07457 0.06205,-0.191787 0.03097,-0.223796 -0.03097,-0.032 0.03111,-0.181181 0.03111,-0.181181 0,0 0.04135,-0.08543 0,-0.170645 -0.04135,-0.08538 0.01025,-0.181297 0.04135,-0.223997 l -0.08278,-0.04267 z m -0.45507,-1.087573 h -0.155337 c 0,0 0.05178,0.02131 -0.09297,-0.117332 -0.145102,-0.138582 -0.238069,0.032 -0.238069,0.032 l -0.165591,0.0213 v 0.170589 l -0.08292,0.03196 0.01046,0.106677 0.113799,-0.01063 c 0,0 0,0.127873 0.03108,0.07464 0.03111,-0.05338 0.289868,0.01061 0.269086,0.138584 -0.0084,0.05254 0.258847,0.191784 0.227772,0.36237 0.134513,0.0214 0.103489,0.160028 0.103489,0.160028 l 0.175825,0.02131 0.05186,-0.106619 0.05164,0.01062 v -0.06393 l -0.113986,-0.03196 -0.02052,-0.341222 -0.07243,-0.05331 0.02064,-0.08532 -0.08271,-0.032 0.04141,-0.138585 -0.07252,-0.149179 z m -0.481975,2.628268 0.01568,0.01006 0.01568,-0.0091 0.06244,-0.03569 0.0079,0.01959 0.05757,-0.02362 -0.02097,-0.05325 -0.01326,-0.03368 -0.03073,0.01765 -0.07706,0.04421 -0.0673,-0.04321 -0.03269,0.05376 z m 0.373125,-0.155267 0.11365,0.0211 0.01122,-0.0628 -0.114135,-0.0211 z m -0.211771,1.365389 c -0.04517,-0.0621 0.206945,-0.170586 0.248311,-0.04262 0.04136,0.127778 0,0.106619 -0.04138,0.09597 -0.0415,-0.0108 -0.144801,0.03185 -0.206948,-0.05337 z m -1.071441,2.052536 0.07233,0 0,0.202643 -0.07233,0 z M 29.2813,26.43971 c -0.01963,0.0808 -0.09295,0.12793 -0.134326,0.09586 -0.04166,-0.03206 0.05147,0.05322 0.07234,0.09606 0.02064,0.0425 0.08267,0.0425 0.103488,0 0.02052,-0.04291 0.01025,-0.138584 0.03111,-0.181238 0.02053,-0.04271 -0.06218,-0.05337 -0.07261,-0.01062 z m 0.22786,0.426559 0.09325,0.0425 0.01025,0.18124 c 0.124277,0.127928 0.52788,0.02135 0.52788,-0.01062 0,-0.03205 -0.02083,-0.394431 -0.02083,-0.394431 l -0.05186,-0.05337 -0.01025,-0.266702 c 0.04136,-0.138584 -0.196706,-0.341173 -0.217338,-0.298316 -0.02073,0.0425 -0.155243,0.01044 -0.155243,0.05321 0,0.0425 -0.08267,0.255803 -0.04136,0.330514 0.04136,0.07467 -0.0311,0.07467 -0.04136,0.149242 -0.01025,0.07461 -0.113891,0.202743 -0.09316,0.266753 z m -2.912291,-2.276058 -0.03317,-0.05376 -0.08242,0.05276 0.03269,0.05426 z m -1.579531,0.207736 0,0.128288 m 0.320665,0.127247 0.07268,-0.117064 -0.06195,-0.02163 -0.07219,0.05376 0.03073,0.03166 z m -0.06168,-3.326118 c 0.04134,0.09603 0.03111,0.234652 0.186117,0.341273 0.05243,0.03594 -0.03102,0.106622 -0.08288,0.07457 -0.05166,-0.03196 -0.196414,-0.26661 -0.196414,-0.26661 V 21.73794 c 0.03102,-0.08523 0.0752,-0.05194 0.09316,-0.01062 z m -0.548482,0.554842 c 0.02239,0.09295 0.02052,-0.149426 0.06195,-0.138621 0.04136,0.01061 0.01046,-0.14918 0.01046,-0.14918 l -0.186322,0.138375 c 0.09311,0.0108 0.103396,0.106827 0.113931,0.149426 z m -0.559066,0.681864 c -0.01025,0.127871 -0.165628,0.170585 -0.165628,0.170585 l -0.113798,-0.03196 -0.06205,-0.05331 -0.01046,-0.149334 0.09307,-0.01061 0.02073,0.06402 0.23807,0.01062 z m -0.16561,-1.289788 v -0.149276 l -0.02082,-0.138621 -0.155057,-0.07457 -0.113799,0.10662 -0.02083,0.149277 v 0.09587 l -0.103447,0.0214 -0.02082,0.287811 -0.08266,0.03206 0.01025,0.106621 -0.113799,0.03196 -0.1138,0.032 -0.02073,0.138583 -0.08267,0.05325 -0.04166,0.127968 -0.05166,0.309161 c 0,0 0.09326,0.181239 0.144915,0.09593 0.05179,-0.08522 0.134512,-0.09593 0.134512,-0.09593 l 0.03108,-0.07466 0.279428,0.0106 c 0.02073,-0.117371 0.155242,-0.07456 0.155242,-0.02131 0,0.05331 0.103551,0.01061 0.103551,0.01061 l 0.07236,-0.117216 h 0.113745 l 0.01025,-0.127872 0.05186,-0.032 V 22.26056 c 0.165646,-0.05325 0.144766,-0.213193 0.144766,-0.213193 l 0.04166,-0.05321 -0.02079,-0.07457 c -0.0829,-0.0321 -0.04162,-0.106829 0.01025,-0.08546 0.05191,0.0213 -0.07243,-0.09597 -0.07243,-0.09597 -0.06205,0.0534 -0.113689,-0.06392 -0.113689,-0.06392 h -0.155391 z m -0.40349,-0.735951 -0.0205,0.05325 -0.0517,0 -0.01065,0.08543 0.06244,0 0.01025,0.06381 -0.04146,0.04271 -0.0205,0.05325 -0.08292,0.0216 -0.186323,0.181392 -0.01025,0.0849 -0.0517,0.07486 -0.06195,0.159778 -0.217533,0.01062 -0.04146,0.191938 0.03073,0.159781 0.186321,0.07489 0.02097,-0.106525 0.06195,-0.03215 0.01065,-0.106525 0.04097,-0.07487 0.06244,-0.07437 0.0205,-0.08543 0.103395,-0.06381 0.124371,-0.02162 0.0517,-0.06381 0.02097,-0.127626 0.0074,-0.09598 0.04438,-0.06432 0.123885,-0.05325 0,-0.202493 -0.06195,0 -0.01025,-0.07485 z M 20.23863,22.5246 c 0,0.02496 -0.01965,0.04522 -0.04388,0.04522 -0.02425,0 -0.04388,-0.02025 -0.04388,-0.04522 0,-0.02497 0.01965,-0.04521 0.04388,-0.04521 0.02425,0 0.04388,0.02025 0.04388,0.04521 z m -0.0025,1.217962 c 0,0.02496 -0.01965,0.04522 -0.04388,0.04522 -0.02425,0 -0.04388,-0.02025 -0.04388,-0.04522 0,-0.02496 0.01965,-0.04521 0.04388,-0.04521 0.02425,0 0.04388,0.02025 0.04388,0.04521 z m -0.115981,-0.178841 c 0.02425,0 0.04374,-0.02015 0.04374,-0.04505 0,-0.02513 -0.01951,-0.04532 -0.04374,-0.04532 -0.02425,0 -0.04388,0.02015 -0.04388,0.04532 0,0.02493 0.01965,0.04505 0.04388,0.04505 z m -0.122036,0.253151 -0.0878,0.01062 0,0.07485 0.0878,-0.01062 z m 0.09316,-0.543663 -0.07219,0.0106 -0.01065,0.08543 0.08292,0.0106 z m -0.0205,-0.575822 0.01025,-0.07487 -0.155599,0.107019 -0.103395,-0.06381 0,0.255752 0.165832,0.223596 0.06195,-0.14924 0.02097,-0.09598 -0.07268,-0.03166 0.01025,-0.15978 z m -0.06208,-0.89551 -0.186324,-0.0213 0.01046,0.07457 h 0.05164 c 0.08272,0.149332 0.01046,0.511756 0.01046,0.511756 0,0 -0.124089,0.01062 -0.144915,-0.05325 -0.02052,-0.06396 -0.07243,0.138622 -0.03106,0.170643 0.04136,0.0318 0.186358,0 0.196656,0.117332 0.01025,0.11718 0.09316,-0.0747 0.09316,-0.0747 v -0.725027 z m 4.170577,-2.110673 h -0.113799 l -0.02073,-0.234501 0.06208,-0.0428 v -0.117219 h -0.362249 l -0.01025,-0.117181 0.05191,-0.032 -0.08292,-0.032 -0.06213,0.08522 -0.02053,0.09598 -0.10354,0.0214 v 0.05322 h -0.07238 v 0.138582 l -0.289866,0.245205 -0.579487,-0.0212 c -0.04155,0.09587 -0.145103,-0.0108 -0.145103,-0.0108 -0.02052,-0.06393 -0.165346,0 -0.165346,0 0,0.117425 -0.196659,-0.05322 -0.196659,-0.05322 l -0.362264,-0.266654 c -0.206947,-0.191887 -0.517396,0.0534 -0.527687,0.106622 0.01025,0.149276 -0.23802,0.032 -0.23802,0.032 0,0 -0.206947,-0.06392 -0.238069,0.0214 -0.03097,0.08523 -0.165739,0.06402 -0.165739,0.06402 l -0.02072,0.04262 -0.103551,0.0213 -0.02052,0.06393 -0.124276,0.0214 0.310399,-0.01063 c 0.08288,-0.01061 -0.03111,0.181298 -0.08272,0.170644 l -0.144765,0.01061 -0.05191,0.05322 h -0.134512 l -0.06205,0.08546 -0.196515,-0.01064 c 0,0 -0.113985,0.09593 -0.103489,0.127873 0.01025,0.032 -0.02072,0.127986 -0.05186,0.127986 -0.03106,0 -0.09316,0.09593 -0.07243,0.127874 0.02082,0.032 -0.06205,0.138621 -0.06205,0.138621 l -0.02064,0.106715 -0.06205,0.02122 v 0.287912 l -0.124278,0.08532 v 0.12787 l -0.186414,0.202597 0.02083,0.17049 -0.155149,0.170641 0.02053,0.170585 -0.09311,0.032 -0.02058,0.07464 -0.04135,0.223794 0.103457,0.0108 c 0.0516,-0.0214 0.04135,0.138585 0,0.15978 -0.04155,0.0214 -0.155393,0.06396 -0.09316,0.106564 0.06213,0.0428 -0.165646,0.03206 -0.165646,-0.03196 0,-0.06381 -0.124223,-0.117219 -0.155151,-0.0958 -0.03111,0.02121 -0.08292,-0.09598 -0.08292,-0.09598 -0.113801,-0.117217 -0.465693,0.01061 -0.465693,0.01061 l -0.0519,0.170585 c -0.113688,0.0214 -0.186117,0.213293 -0.186117,0.213293 -0.09316,0.032 -0.16559,0.149183 -0.134513,0.181184 0.03097,0.032 -0.0519,0.04263 -0.0519,0.04263 v 0.23465 l -0.05164,0.07464 0.01025,0.255803 c 0.06219,0 0.05191,0.117371 0.05191,0.117371 -0.103541,0.01063 -0.08296,0.149274 -0.08296,0.149274 l -0.217241,0.07457 -0.04136,0.06392 -0.269035,-0.01062 -0.07243,0.07471 -0.07261,-0.07471 h -0.51744 l -0.02054,-0.05325 -0.10355,-0.02146 -0.01046,-0.11718 -0.155151,0.01062 -0.03102,0.06396 -0.165683,0.01064 c 0.01025,0.106677 -0.165591,0.266657 -0.186118,0.224098 -0.02097,-0.04271 -0.134715,-0.160141 -0.08287,-0.181241 0.05178,-0.02146 0.186414,-0.04285 0.186414,-0.04285 v -0.07456 l -0.383073,-0.01064 -0.04125,0.06401 -0.15545,0.01062 v 0.170657 l -0.07234,0.02135 c -0.05186,0.03186 0.01025,0.149277 0.01025,0.149277 0.07243,0.07452 -0.01025,0.191735 -0.01025,0.191735 -0.06219,0.06402 0.0516,0.181449 0.0516,0.181449 0.0829,0.02117 -0.0516,0.08515 -0.0516,0.08515 0.02053,0.106564 0.08273,0.138584 0.08273,0.138584 -0.06219,0.106564 0.04155,0.15978 0.04155,0.15978 l 0.01025,0.181428 0.07243,0.04271 v 0.117029 l 0.04138,0.0747 h 0.16559 l -0.01025,-0.266506 c -0.144953,-0.170641 0.12409,-0.213291 0.134624,-0.149428 0.01046,0.06402 0.124221,0.09603 0.124221,0.09603 0.02073,0.159987 0.196707,0.255802 0.248311,0.09607 0.05179,-0.160141 0.09316,-0.06402 0.12422,0.01043 0.03105,0.07471 0.227483,0.256003 0.227483,0.256003 h 0.155335 l 0.02083,0.149277 c 0.175882,-0.01061 0.227487,0.0108 0.299917,0.255804 0.07261,0.2451 0.269135,0.309112 0.269135,0.309112 l 0.144953,-0.01062 c 0,-0.127721 0.144915,0.02154 0.144915,0.08558 0,0.06373 0.279377,0.308962 0.279377,0.308962 l 0.279328,0.06387 0.259036,0.213494 0.196465,-0.02135 h 0.0829 c 0.05161,-0.181428 0.300109,0.01045 0.32064,0.07453 0.02088,0.06401 0.186416,0.170643 0.20695,0.117219 0.02083,-0.05322 0.134623,-0.02117 0.155393,0.138583 0.02064,0.160141 0.09295,0.128081 0.09295,0.128081 l 0.59002,-0.01062 0.206948,-0.181449 0.52788,-0.01044 c 0.269036,-0.01062 0.103458,-0.383878 0.05186,-0.383878 -0.09316,-0.07452 0.03093,-0.38373 0.03093,-0.38373 l -0.755428,-0.714263 c -0.175881,0 -0.02072,-0.256004 -0.02072,-0.256004 0.134511,-0.08538 -0.03111,-0.223746 -0.03111,-0.223746 0.02083,-0.12812 -0.07243,-0.277359 -0.07243,-0.277359 -0.186149,-0.127963 -0.134545,-0.373263 -0.134545,-0.373263 v -0.17062 c -0.15515,-0.149087 0.06213,-0.170642 0.06213,-0.170642 0.07233,-0.127684 -0.05186,-0.223695 -0.05186,-0.223695 l -0.01025,-0.138622 -0.165647,-0.0214 -0.02053,-0.501102 -0.372537,-0.543612 c -0.07261,-0.0215 -0.02083,-0.149277 -0.02083,-0.149277 0.09316,-0.05337 -0.02083,-0.181144 -0.02083,-0.181144 l -0.01025,-0.234602 0.217239,-0.02146 0.05186,-0.08515 h 0.103447 l -0.01025,-0.277257 c 0.05164,-0.138585 0.175826,-0.06402 0.175826,-0.06402 l 0.144914,0.01063 0.08288,-0.159934 0.02052,-0.127986 -0.113685,-0.01063 c -0.124222,-0.07471 -0.06213,-0.351824 -0.06213,-0.351824 0.196657,-0.298617 0.424186,-0.128024 0.424186,-0.128024 l 0.145044,-0.01061 c 0.217238,0.149182 0.02053,0.426386 0.02053,0.426386 -0.04136,0.06401 -0.02053,0.266559 -0.02053,0.266559 l 0.05164,0.341018 -0.134514,0.117427 c -0.113799,0.06402 -0.113799,0.213192 0.01046,0.245199 0.08271,0.01062 0.05164,0.213197 -0.07258,0.07456 -0.186116,0 0.103695,0.170586 0.02083,0.12778 0.186358,0.09603 0.144765,-0.08523 0.144765,-0.08523 L 20.58864,22.08978 c 0.09316,-0.07456 0.258796,0.160025 0.258796,0.192038 0,0.03196 0.413896,0.01061 0.413896,0.01061 0.113797,0.07461 0.15515,0.266609 0.15515,0.266609 0.113984,-0.149392 0.351906,-0.0108 0.17603,0.07457 0.16544,0.10662 0.16544,0.202544 0.16544,0.202544 0.134718,-0.04263 0.134718,0.06396 0.134718,0.09598 0,0.032 0.04138,-0.159874 0.04138,-0.159874 -0.155244,-0.117333 0.206948,-0.15993 0.103539,0.05331 l -0.06218,0.09603 0.10354,0.08523 0.01025,0.2453 c 0.227774,-0.0214 0.165647,-0.309314 0.165647,-0.309314 l 0.103488,-0.02121 c 0,-0.09603 0.07233,-0.04271 0.07233,-0.04271 -0.07233,-0.362575 0.165685,-0.426387 0.165685,-0.426387 0.134511,-0.032 0.144803,-0.32002 0.144803,-0.32002 -0.09296,-0.04263 -0.04141,-0.191788 0.06213,-0.06376 0.103396,0.127721 -0.06213,-0.256055 -0.06213,-0.256055 l -0.08272,-0.07456 -0.1138,-0.01063 -0.01046,-0.117274 h -0.186141 l -0.03111,0.149333 -0.07243,0.0213 -0.02083,-0.04271 -0.03097,0.117276 H 22.00647 l -0.01025,-0.127929 0.1138,-0.03196 0.04141,-0.06395 0.03097,-0.170643 h 0.134626 l 0.17588,-0.05322 c 0.01025,-0.181299 0.103489,-0.138586 0.103489,-0.138586 l 0.06205,0.05325 0.09315,0.07463 0.01046,0.06387 -0.06219,0.03196 -0.01025,0.08543 0.03108,0.117217 h 0.08271 c 0.03102,-0.170585 0.248504,-0.170585 0.310545,-0.06396 l 0.06213,-0.149237 c -0.144858,-0.07464 -0.0027,-0.19199 0.03867,-0.138622 0.04133,0.05337 0.137201,-0.138586 0.137201,-0.138586 0,0 0.07243,0.09598 0,-0.032 -0.07243,-0.127985 0.05164,-0.191885 0.05164,-0.191885 -0.02058,-0.127872 0.134626,-0.106621 0.134626,-0.106621 l 0.01046,-0.170491 -0.145044,-0.0108 c -0.03081,0.149274 -0.155093,0.0214 -0.09301,-0.01062 0.06219,-0.03206 0.124088,-0.09603 0.124088,-0.09603 v -0.106635 l 0.06213,-0.0213 0.01025,-0.106621 h 0.155337 l 0.134513,-0.06392 0.03111,-0.05338 0.144766,-0.01063 0.206948,-0.191989 -0.02052,-0.08523 c -0.124222,0 0,-0.09598 0,-0.09598 l 0.02043,-0.159592 z m -5.619538,9.584396 -0.0829,-0.128118 0.124369,0.0216 0.13414,0.117065 0.05219,0.138681 -0.07268,0.04271 -0.04146,-0.06381 -0.103395,-0.03215 z m -2.245571,-2.868045 -0.08292,-0.117066 -0.04146,-0.09598 -0.07268,-0.191942 0.155095,0.07434 0.05218,0.149237 0.07218,0.05376 0.07268,0.159779 -0.04146,0.07437 z m -0.662848,-0.895382 -0.0517,0 0,0.106524 0.08293,0 0,0.138678 0.06244,0 -0.01065,-0.159778 -0.08293,-0.03215 z m 8.155304,-6.435028 -0.01025,-0.06398 0.06129,-0.01045 0.01025,0.06398 z m 0.148165,-0.07877 -0.08294,-0.0214 0.01513,-0.06205 0.08294,0.02139 z m 0.06477,-0.08601 0.0088,-0.0633 -0.07219,-0.01062 -0.0088,0.06331 z m 0.108065,-0.138089 0.08266,0 0,0.06402 -0.08266,0 z m 0.596445,0.08448 -0.07224,-0.01061 0.0088,-0.06343 0.07224,0.01062 z m 0.133934,0.03251 0.0088,-0.0633 -0.07268,-0.01063 -0.0088,0.0628 z m 0.07647,0.01138 0.08267,0 0,0.06396 -0.08267,0 z m 0.09082,0.102775 0.003,0.07537 0.06244,-0.003 -0.0033,-0.07486 z m 8.710654,6.950299 -0.223353,-0.123701 c -0.473543,0.991257 -1.100575,1.89335 -1.850644,2.673604 L 30.35714,27.18114 c 0.639253,-0.668653 1.154677,-1.427613 1.53438,-2.247869 l -0.222343,-0.123354 c -0.375361,0.813365 -0.880375,1.55343 -1.489432,2.191056 L 28.9978,25.801145 c 0.507424,-0.535453 0.910068,-1.146399 1.200685,-1.80665 l -0.22059,-0.122183 c -0.284601,0.650708 -0.677229,1.242453 -1.156979,1.749648 l -1.30627,-1.325934 c 0.363273,-0.390764 0.643734,-0.840349 0.834612,-1.326881 L 28.128622,22.84696 c -0.182383,0.474415 -0.451998,0.905125 -0.789727,1.270449 l -1.185618,-1.203276 c 0.337749,-0.382587 0.533627,-0.862595 0.561342,-1.375412 h 1.678194 c -0.0142,0.460279 -0.107168,0.900574 -0.264168,1.308301 l 0.220639,0.122186 c 0.17661,-0.450768 0.276352,-0.932932 0.29062,-1.430521 h 1.84996 c -0.01662,0.82904 -0.198747,1.617383 -0.512031,2.333686 l 0.220589,0.122187 c 0.336385,-0.764709 0.522272,-1.595709 0.538726,-2.455964 h 1.675017 c -0.01756,1.167505 -0.282948,2.274534 -0.743032,3.271292 l 0.22233,0.123359 c 0.486356,-1.050533 0.750691,-2.201989 0.768124,-3.394647 h 1.849836 c -0.01849,1.536811 -0.375117,2.991915 -0.996856,4.293391 l 0.223454,0.123646 c 0.668821,-1.398292 1.023873,-2.942434 1.023873,-4.542563 0,-1.360752 -0.256839,-2.680874 -0.744841,-3.90557 l -0.229222,0.10001 c 0.459617,1.155689 0.70873,2.398523 0.724046,3.680029 h -1.850084 c -0.01494,-1.022348 -0.212918,-2.013734 -0.57498,-2.93788 l -0.227522,0.09898 c 0.349249,0.893433 0.540425,1.851198 0.555181,2.838918 h -1.675209 c -0.0142,-0.752886 -0.158942,-1.483407 -0.42001,-2.166911 l -0.227522,0.09923 c 0.248301,0.652286 0.385993,1.349376 0.400454,2.067701 h -1.850147 c -0.01307,-0.459046 -0.09877,-0.905441 -0.250675,-1.325932 l -0.22748,0.09907 c 0.139535,0.389485 0.217966,0.802247 0.231072,1.226844 h -1.678224 c -0.02772,-0.512961 -0.223596,-0.992903 -0.561344,-1.375478 l 1.1868,-1.204476 c 0.36648,0.395646 0.643672,0.855076 0.821725,1.353107 l 0.227481,-0.09907 C 28.198887,19.43489 27.903995,18.948868 27.514847,18.530208 l 1.308203,-1.327765 c 0.558236,0.589794 0.98434,1.274558 1.266736,2.017398 l 0.227524,-0.09923 c -0.294841,-0.771598 -0.738677,-1.483029 -1.319407,-2.095634 l 1.184498,-1.202514 c 0.733569,0.767932 1.29718,1.659027 1.674892,2.62621 l 0.227524,-0.09898 c -0.390264,-0.996062 -0.971516,-1.913828 -1.727563,-2.704445 l 1.308014,-1.327955 c 0.925073,0.961935 1.638662,2.078129 2.120529,3.29025 l 0.229221,-0.10001 C 33.505854,16.228557 32.74467,15.053847 31.754726,14.049065 30.761171,13.040429 29.598774,12.26605 28.333281,11.749128 l -0.09114,0.235535 c 1.196761,0.489298 2.298831,1.214459 3.248247,2.155226 l -1.308014,1.327892 c -0.765765,-0.75327 -1.652925,-1.337183 -2.616034,-1.732777 l -0.09027,0.233515 c 0.931298,0.383523 1.789758,0.948287 2.531546,1.67868 l -1.184434,1.202326 C 28.247375,16.28727 27.583401,15.85062 26.86365,15.551713 l -0.09042,0.233516 c 0.688685,0.286468 1.323827,0.704294 1.875174,1.241819 l -1.308015,1.327704 c -0.36794,-0.352045 -0.788672,-0.628317 -1.243271,-0.821014 l -0.09047,0.233709 c 0.423651,0.180216 0.815439,0.437321 1.15891,0.764837 l -1.186613,1.204474 c -0.377156,-0.34288 -0.849864,-0.541665 -1.355265,-0.569646 v -1.70339 c 0.482279,0.01518 0.949228,0.119078 1.382971,0.303766 l 0.09047,-0.233707 c -0.462186,-0.196022 -0.959874,-0.305785 -1.473429,-0.321108 v -1.877866 c 0.749075,0.01535 1.474863,0.169806 2.149601,0.450474 l 0.09042,-0.233513 c -0.703131,-0.292035 -1.459677,-0.452494 -2.240065,-0.467769 v -1.701177 c 0.99337,0.01536 1.956545,0.216472 2.852356,0.585114 l 0.09027,-0.233516 c -0.924329,-0.380072 -1.917697,-0.587081 -2.94269,-0.602502 v -1.878057 c 1.260074,0.01556 2.482236,0.267556 3.61867,0.732037 l 0.09114,-0.235535 C 27.130968,11.258948 25.835279,11 24.500121,11 c -1.649493,0 -3.208026,0.399486 -4.590128,1.104437 l 0.112754,0.219031 c 1.3374,-0.680219 2.817056,-1.050788 4.353802,-1.069619 v 1.878119 c -1.25329,0.01896 -2.437539,0.327609 -3.493661,0.859943 l 0.112361,0.218434 c 1.040497,-0.522847 2.189074,-0.809257 3.38129,-0.82771 v 1.700481 c -0.931922,0.01857 -1.813726,0.246127 -2.602956,0.637121 l 0.113034,0.21942 c 0.768311,-0.378548 1.613134,-0.58777 2.489958,-0.605705 v 1.878059 c -0.581433,0.01744 -1.132887,0.157257 -1.630816,0.394409 l 0.113612,0.220264 c 0.471022,-0.222234 0.984902,-0.34717 1.517197,-0.363871 v 1.703644 c -0.260333,0.0146 -0.508637,0.07498 -0.737494,0.172974 l 0.113424,0.220159 c 0.234081,-0.09729 0.486994,-0.148535 0.747642,-0.148535 0.527131,0 1.022631,0.208336 1.395425,0.586642 0.372744,0.378352 0.57799,0.881488 0.57799,1.416613 0,1.104502 -0.885103,2.003371 -1.973415,2.003371 -0.527271,0 -1.022876,-0.208439 -1.395607,-0.586791 -0.372738,-0.378553 -0.578042,-0.881492 -0.578042,-1.416616 0,-0.535113 0.205297,-1.038275 0.578042,-1.416616 0.188548,-0.191296 0.408462,-0.338594 0.647904,-0.43811 l -0.113425,-0.220163 c -0.227428,0.0975 -0.435542,0.232231 -0.616964,0.397174 L 21.83475,18.531387 c 0.306733,-0.29258 0.652138,-0.529146 1.024498,-0.704798 l -0.113604,-0.220262 c -0.400455,0.190802 -0.766196,0.444367 -1.084514,0.748974 l -1.309382,-1.329158 c 0.459181,-0.447716 0.977056,-0.811536 1.534813,-1.086553 l -0.11303,-0.219423 c -0.589056,0.291747 -1.126788,0.674152 -1.594461,1.130538 l -1.186626,-1.204348 c 0.59891,-0.589845 1.274769,-1.070441 2.002676,-1.436082 l -0.112359,-0.218433 c -0.761962,0.384166 -1.457869,0.884144 -2.062566,1.479807 L 17.50944,14.141104 c 0.75144,-0.744612 1.599314,-1.352726 2.513181,-1.817645 l -0.112753,-0.219028 c -1.997632,1.019 -3.623967,2.679607 -4.614285,4.715334 l 0.214952,0.11775 c 0.461847,-0.953471 1.072687,-1.83749 1.824125,-2.61907 l 1.31088,1.33061 c -0.609782,0.637689 -1.119253,1.374402 -1.502941,2.183727 l 0.214132,0.11735 c 0.365458,-0.774948 0.855469,-1.492702 1.460793,-2.126347 l 1.186676,1.204411 c -0.4783,0.50506 -0.874022,1.0906 -1.167378,1.733787 l 0.214619,0.11754 c 0.2763,-0.611419 0.653882,-1.177618 1.12554,-1.675964 l 1.309383,1.329154 c -0.334693,0.360421 -0.607302,0.780762 -0.800807,1.243215 l 0.21636,0.118772 c 0.177825,-0.433774 0.432729,-0.834917 0.757851,-1.185959 l 1.187298,1.205043 c -0.32595,0.36983 -0.532898,0.847935 -0.561629,1.374846 H 20.60687 c 0.01496,-0.485797 0.115798,-0.956501 0.295034,-1.393994 l -0.21636,-0.118772 c -0.195492,0.467172 -0.310132,0.977544 -0.325808,1.512735 h -1.849959 c 0.01662,-0.845093 0.203355,-1.661114 0.541588,-2.409203 l -0.214618,-0.117541 c -0.352016,0.771469 -0.556586,1.626104 -0.573862,2.526806 h -1.675516 c 0.01757,-1.174395 0.282999,-2.307334 0.769369,-3.338657 l -0.214133,-0.117352 c -0.497668,1.049019 -0.783875,2.219936 -0.802053,3.456009 h -1.850335 c 0.01811,-1.533777 0.371287,-3.011694 1.020202,-4.351213 l -0.214955,-0.117751 c -0.67455,1.386853 -1.055375,2.946033 -1.055375,4.594446 0,1.00832 0.141871,1.993828 0.412876,2.935228 l 0.242325,-0.06189 c -0.254802,-0.882188 -0.393853,-1.804373 -0.405059,-2.747795 h 1.850021 c 0.01139,0.786637 0.130796,1.555264 0.349976,2.289071 l 0.239901,-0.06139 c -0.214569,-0.71391 -0.331195,-1.462065 -0.342792,-2.22772 h 1.675204 c 0.01214,0.62364 0.113425,1.232154 0.295862,1.811263 l 0.240293,-0.06153 c -0.177879,-0.55905 -0.276837,-1.147094 -0.288871,-1.749712 h 1.84996 c 0.01288,0.445993 0.09416,0.879975 0.238057,1.289915 l 0.240437,-0.06163 C 20.698836,22.37812 20.619925,21.964692 20.60687,21.539713 h 1.67838 c 0.02772,0.512845 0.223453,0.992841 0.561195,1.375417 l -1.186677,1.20461 c -0.366083,-0.395476 -0.643229,-0.8543 -0.821534,-1.351764 l -0.240436,0.06164 c 0.189915,0.540531 0.489219,1.039349 0.887158,1.467488 l -1.308014,1.32783 c -0.636263,-0.672383 -1.101945,-1.469257 -1.37774,-2.335013 l -0.240294,0.06153 c 0.2864,0.909108 0.774723,1.745415 1.443796,2.451289 l -1.184683,1.202578 C 17.932108,26.078021 17.292232,24.971813 16.930707,23.76778 l -0.239901,0.0614 c 0.372545,1.247256 1.034523,2.393593 1.952374,3.353506 l -1.308078,1.327825 C 16.177376,27.306423 15.35048,25.861244 14.895884,24.287969 l -0.242331,0.06189 c 0.476844,1.656374 1.356576,3.174671 2.592248,4.428686 0.836792,0.849579 1.793243,1.533401 2.83013,2.037307 L 20.198715,30.5948 c -0.981353,-0.474711 -1.889118,-1.114425 -2.688808,-1.907 l 1.308013,-1.32764 c 0.679844,0.669792 1.455067,1.203906 2.293291,1.592988 l 0.122055,-0.219772 c -0.81911,-0.377318 -1.576651,-0.897479 -2.240371,-1.550585 l 1.18456,-1.202459 c 0.555181,0.542152 1.192652,0.967182 1.882955,1.264886 l 0.121962,-0.219376 c -0.670506,-0.285636 -1.290584,-0.696396 -1.829725,-1.22217 l 1.3082,-1.327829 c 0.42035,0.40254 0.909694,0.705688 1.440186,0.898554 l 0.123623,-0.222233 c -0.512032,-0.179975 -0.98428,-0.467772 -1.388947,-0.853691 l 1.186676,-1.204665 c 0.376915,0.34313 0.849556,0.541762 1.355017,0.569896 v 1.703642 c -0.398074,-0.01251 -0.78568,-0.08631 -1.152746,-0.215091 l -0.123623,0.222233 c 0.405502,0.147645 0.834738,0.230463 1.276387,0.243665 v 1.877676 c -0.76551,-0.01554 -1.507237,-0.176426 -2.194489,-0.469049 l -0.121961,0.21937 c 0.72473,0.312687 1.507547,0.484813 2.316449,0.500675 v 1.700483 C 23.2751,29.430058 22.21051,29.184136 21.233826,28.734291 l -0.122053,0.219769 c 1.01385,0.470229 2.120214,0.726791 3.265678,0.74417 v 1.877615 c -1.469384,-0.01801 -2.887469,-0.356034 -4.178113,-0.980137 l -0.122783,0.221053 c 1.363983,0.662716 2.867545,1.013062 4.424526,1.013062 1.633243,0 3.206845,-0.387366 4.623123,-1.114739 l -0.116972,-0.23026 c -1.320779,0.678955 -2.807658,1.071388 -4.382692,1.09104 v -1.877677 c 1.24881,-0.01877 2.450925,-0.322585 3.537056,-0.877131 l -0.115461,-0.227208 c -1.032397,0.527755 -2.192801,0.833891 -3.421561,0.85329 v -1.700481 c 0.936962,-0.01838 1.838752,-0.246521 2.655685,-0.660123 L 27.16547,26.860407 c -0.76856,0.389091 -1.62957,0.6164 -2.540884,0.635286 v -1.877677 c 0.596722,-0.01781 1.171172,-0.163514 1.694006,-0.423279 l -0.114004,-0.224791 c -0.480195,0.237897 -1.01485,0.378991 -1.580078,0.397121 v -1.70339 c 0.505383,-0.02811 0.978118,-0.226764 1.355268,-0.569896 l 1.185431,1.203403 c -0.283829,0.270413 -0.607402,0.49772 -0.960621,0.672822 l 0.114004,0.224793 c 0.370359,-0.184102 0.715205,-0.42461 1.022629,-0.718955 l 1.306021,1.325743 c -0.436027,0.4252 -0.935657,0.782531 -1.481833,1.058876 l 0.114789,0.226128 c 0.56018,-0.283472 1.0809,-0.653362 1.543904,-1.105389 l 1.182008,1.199672 c -0.575807,0.566836 -1.236731,1.043838 -1.959967,1.41308 l 0.11546,0.227206 c 0.734443,-0.374852 1.416218,-0.863229 2.021851,-1.460159 l 1.304841,1.324482 c -0.72797,0.721231 -1.564949,1.328586 -2.480995,1.79932 l 0.116974,0.230256 c 0.959935,-0.493037 1.848589,-1.140774 2.631592,-1.935626 0.823159,-0.83536 1.487376,-1.788703 1.981322,-2.82129 z M 16.854093,12.006089 c -1.029575,0.407309 -2.133212,0.823649 -2.801553,1.895815 -0.390851,0.627008 -0.451001,1.366176 -0.758755,2.014306 0.570141,-0.543891 1.209455,-0.95142 1.692604,-1.599595 0.58091,-0.779324 1.111501,-1.637011 1.867704,-2.310526 z m 15.291818,0 c 0.756202,0.673515 1.286794,1.531202 1.867704,2.310526 0.483149,0.648175 1.122463,1.055704 1.692604,1.599595 -0.307755,-0.64813 -0.367905,-1.387298 -0.758753,-2.014306 -0.668342,-1.072166 -1.77198,-1.488506 -2.801555,-1.895815 z m -18.093371,1.42186 c -0.524709,0.136387 -0.949157,0.50534 -1.342413,0.947911 -0.822802,0.925984 -0.751864,2.276715 -0.642023,3.495407 0.03392,0.376261 0.04159,0.680915 0,1.066396 0.248878,-0.517908 0.629021,-0.99464 1.108948,-1.362616 1.070046,-0.820441 2.260015,-1.863324 2.276263,-3.258432 -0.354607,1.003937 -1.442867,1.387206 -2.15953,2.073547 -0.378945,0.362906 -0.647609,0.790112 -0.817121,1.244129 l -0.05836,0 c 0.08912,-0.401604 0.294499,-0.796308 0.408559,-1.184884 0.311957,-1.062715 0.20677,-2.310289 1.225681,-3.021458 z m 20.894926,0 c 1.01891,0.711169 0.913722,1.958743 1.225679,3.021458 0.11406,0.388576 0.31944,0.78328 0.408561,1.184884 l -0.05836,0 c -0.169513,-0.454017 -0.438178,-0.881223 -0.81712,-1.244129 -0.716666,-0.686341 -1.804924,-1.06961 -2.159531,-2.073547 0.01625,1.395108 1.206219,2.437991 2.276263,3.258432 0.479926,0.367976 0.860068,0.844708 1.108947,1.362616 -0.04158,-0.385481 -0.03392,-0.690135 0,-1.066396 0.109841,-1.218692 0.180776,-2.569423 -0.642023,-3.495407 -0.393254,-0.442571 -0.817705,-0.811528 -1.342411,-0.947911 z M 11.83464,15.383011 c -0.710381,0.919447 -1.167314,1.905356 -1.167314,3.139944 0,1.524991 0.826047,2.5963 0.933851,4.028605 0.222316,-1.494494 1.461219,-2.535805 2.101167,-3.850874 0.24963,-0.512979 0.397784,-1.09435 0.466927,-1.658838 -0.09274,0.24049 -0.2119,0.462445 -0.40856,0.651687 -0.8314,0.800057 -1.796168,1.591999 -1.984437,2.725235 -0.02688,0.161827 -0.07053,0.317227 -0.116731,0.473953 -0.03632,0.01611 -0.04304,-0.04901 -0.05836,-0.05924 l 0.11673,-1.421858 c 0.09861,-1.343941 -0.596482,-2.83226 0.116733,-4.028608 z m 25.330723,0 c 0.713213,1.196349 0.01811,2.684668 0.116731,4.028606 l 0.116731,1.421861 c -0.01532,0.01026 -0.02204,0.07538 -0.05836,0.05924 -0.0462,-0.156727 -0.08986,-0.312128 -0.116732,-0.473953 -0.188266,-1.133236 -1.153033,-1.925178 -1.984433,-2.725236 -0.19666,-0.18924 -0.315821,-0.411195 -0.408559,-0.651686 0.06914,0.564488 0.217297,1.145859 0.466925,1.658838 0.639948,1.315069 1.87885,2.35638 2.101166,3.850876 0.107805,-1.432306 0.933852,-2.503617 0.933852,-4.028607 0,-1.234588 -0.456933,-2.220497 -1.167313,-3.139944 z m -26.789866,3.732387 c -0.165441,0.354107 -0.204327,0.798892 -0.291829,1.184883 -0.1849021,0.997445 -0.03364,2.045409 0.233464,2.96221 0.334197,1.147119 1.423537,1.970416 1.984434,3.021456 l 0.116733,0.05924 c -0.08169,-0.570523 -0.159167,-1.173539 0,-1.718086 0.241768,-0.871624 0.599197,-1.762556 0.758753,-2.665989 0.123923,-0.701733 0.25653,-1.452784 0.175098,-2.132791 -0.09249,0.366376 -0.21054,0.695913 -0.40856,1.007151 -0.753348,1.184075 -1.519768,2.585681 -0.992217,4.087851 -0.01214,0.01612 -0.03859,0.0108 -0.05836,0 -0.211911,-0.496334 -0.270985,-1.008437 -0.40856,-1.540353 -0.365071,-1.411504 -1.422196,-2.634117 -1.10895,-4.265584 z m 28.249008,0 c 0.313249,1.631466 -0.743877,2.85408 -1.108949,4.265583 -0.137575,0.531916 -0.196648,1.04402 -0.408559,1.540347 -0.01978,0.0108 -0.04614,0.01611 -0.05836,0 0.527551,-1.502168 -0.23887,-2.903775 -0.992218,-4.08785 -0.198019,-0.311238 -0.316078,-0.640774 -0.408558,-1.00715 -0.08144,0.680006 0.05116,1.431057 0.175097,2.13279 0.159557,0.903432 0.516983,1.794365 0.758753,2.665991 0.159185,0.544545 0.08169,1.147561 0,1.718083 l 0.116732,-0.05923 c 0.560899,-1.051041 1.650237,-1.874338 1.984434,-3.021457 0.267099,-0.916803 0.41836,-1.964768 0.233462,-2.962213 -0.0875,-0.385989 -0.126386,-0.830775 -0.291828,-1.184883 z m -25.447453,4.08785 c 0.139202,0.929093 -0.265942,1.723582 -0.350194,2.606746 -0.06924,0.725874 0.07277,1.463557 0.350194,2.073548 0.08216,0.180651 0.250012,0.349057 0.291831,0.533198 -0.268269,-0.245214 -0.457291,-0.585026 -0.642025,-0.888664 -0.864944,-1.421653 -2.678063,-2.358377 -2.801557,-4.087852 -0.062043,0.76916 -0.01935,1.626829 0.233465,2.310525 0.350839,0.948824 1.031746,1.629139 1.809338,2.251281 0.804049,0.643311 1.777215,1.152457 2.509726,1.718082 -0.144449,-0.370049 -0.371599,-0.675673 -0.466926,-1.066397 -0.430882,-1.766182 -0.188312,-3.817029 -0.933852,-5.450467 z m 22.645901,0 c -0.745538,1.633438 -0.502971,3.684285 -0.933853,5.450467 -0.09533,0.390724 -0.322484,0.696348 -0.466926,1.066397 0.732509,-0.565625 1.705675,-1.074771 2.509725,-1.718082 0.777591,-0.622142 1.458499,-1.302457 1.809338,-2.251281 0.252806,-0.683696 0.295504,-1.541365 0.233463,-2.310525 -0.123494,1.729475 -1.936611,2.666199 -2.801555,4.087852 -0.184735,0.303638 -0.373755,0.64345 -0.642022,0.888664 0.04181,-0.184141 0.209666,-0.352541 0.29183,-0.533198 0.277419,-0.609991 0.419435,-1.347674 0.350192,-2.073548 -0.08423,-0.883164 -0.489399,-1.677653 -0.350192,-2.606746 z m -21.712049,2.962213 c 0.628822,1.275257 0.351753,2.885022 1.167314,4.087848 0.255044,0.376152 0.604576,0.763982 0.933852,1.066397 -0.29806,-0.141104 -0.604157,-0.363452 -0.875486,-0.592442 -1.426916,-1.204248 -3.581618,-1.354666 -4.435795,-3.317675 0.231688,1.441227 1.410111,2.745976 2.626458,3.554651 1.15717,0.769333 2.625458,0.695307 3.910504,1.125641 -1.18733,-0.97219 -1.396678,-2.452999 -1.92607,-3.732386 -0.328971,-0.795029 -0.829473,-1.497662 -1.400777,-2.192034 z m 20.778196,0 c -0.571304,0.694372 -1.071806,1.397005 -1.400777,2.192034 -0.529392,1.279387 -0.738741,2.760196 -1.926069,3.732386 1.285046,-0.430334 2.753332,-0.356308 3.910503,-1.125641 1.216345,-0.808675 2.394769,-2.113424 2.626457,-3.554651 -0.854176,1.963009 -3.008879,2.113427 -4.435795,3.317675 -0.271328,0.22899 -0.577424,0.451338 -0.875485,0.592442 0.329273,-0.302415 0.678807,-0.690245 0.933853,-1.066397 0.815561,-1.202826 0.53849,-2.812591 1.167313,-4.087848 z M 16.153705,29.24616 c 0.776234,1.060485 0.974605,2.597556 2.392994,3.139943 0.251054,0.096 0.541414,0.156367 0.758755,0.296222 -0.273115,0.04258 -0.504307,-0.06349 -0.758755,-0.118491 -1.828033,-0.395175 -4.058627,0.101168 -5.428013,-1.481104 0.51967,1.034048 1.598039,1.847543 2.626458,2.192036 1.593589,0.533809 3.229978,-0.03757 4.727624,-0.41471 0.215765,-0.05432 0.500044,-0.04417 0.700388,-0.118488 -0.833755,-0.172195 -1.630989,-0.408059 -2.276263,-1.007153 -0.927149,-0.860791 -1.751745,-1.819203 -2.743188,-2.488255 z m 16.692595,0 c -0.991446,0.669052 -1.816038,1.627464 -2.743188,2.488255 -0.645275,0.599094 -1.442511,0.834951 -2.276264,1.007153 0.200344,0.07431 0.484622,0.06415 0.700388,0.118488 1.497648,0.377124 3.134037,0.948519 4.727624,0.41471 1.02842,-0.344493 2.106791,-1.157988 2.626456,-2.192036 -1.369383,1.582269 -3.59998,1.085929 -5.428012,1.481104 -0.254448,0.055 -0.485639,0.16107 -0.758753,0.118491 0.21734,-0.139855 0.5077,-0.200226 0.758753,-0.296222 1.41839,-0.542387 1.61676,-2.079458 2.392996,-3.139943 z m -9.863807,3.436165 c -1.403089,0 -2.620965,0.725668 -3.852137,1.244128 -1.113835,0.469049 -2.632013,0.335237 -3.618675,-0.355466 0.488192,0.621822 1.135085,1.04353 1.809338,1.303373 1.253572,0.507807 2.727348,0.09944 3.793773,-0.59244 0.768457,-0.498577 1.4201,-1.184886 2.334627,-1.184886 0.166132,0 0.35765,0.02267 0.525293,0.05924 -1.28176,0.522741 -2.475298,1.428102 -3.385213,2.310525 0.167701,0.194507 0.379047,0.365594 0.583657,0.533201 0.991398,-1.039999 2.147744,-2.168756 3.268479,-2.66599 0.03736,0.01518 0.07938,-0.01649 0.116733,0 1.120735,0.497234 2.277081,1.625991 3.26848,2.66599 0.204608,-0.167608 0.415955,-0.338694 0.583656,-0.533198 -0.909912,-0.882423 -2.103453,-1.787783 -3.38521,-2.310525 0.167645,-0.03656 0.359161,-0.05924 0.525291,-0.05924 0.914529,0 1.566172,0.686309 2.334628,1.184886 1.066426,0.691889 2.540202,1.100247 3.793772,0.592439 0.674256,-0.259842 1.321144,-0.68155 1.809338,-1.303373 -0.986662,0.690705 -2.504841,0.824516 -3.618676,0.355467 -1.23117,-0.51846 -2.449047,-1.244129 -3.852137,-1.244129 -0.51707,0 -1.020823,0.08294 -1.517508,0.236977 -0.496686,-0.154037 -1.000438,-0.236977 -1.517509,-0.236977 z"
     inkscape:connector-curvature="0" />
  <path
     transform="matrix(1.25,0,0,1.6666667,-1.25,4.6666667)"
     d="m 5,0.5 a 2,1.5 0 1 1 -4,0 2,1.5 0 1 1 4,0 z"
     sodipodi:ry="1.5"
     sodipodi:rx="2"
     sodipodi:cy="0.5"
     sodipodi:cx="3"
     id="path3077"
     style="color:black;fill:white;fill-opacity:1;fill-rule:nonzero;stroke:url(#linearGradient3425-9);stroke-width:0.69282031;stroke-linecap:butt;stroke-linejoin:miter;stroke-miterlimit:4;stroke-opacity:1;stroke-dasharray:none;stroke-dashoffset:0;marker:none;visibility:visible;display:inline;overflow:visible;enable-background:accumulate"
     sodipodi:type="arc" />
  <path
     sodipodi:type="arc"
     style="color:black;fill:url(#radialGradient4402);fill-opacity:1;fill-rule:nonzero;stroke:url(#linearGradient3425-9);stroke-width:0.69282031;stroke-linecap:butt;stroke-linejoin:miter;stroke-miterlimit:4;stroke-opacity:1;stroke-dasharray:none;stroke-dashoffset:0;marker:none;visibility:visible;display:inline;overflow:visible;enable-background:accumulate"
     id="path4329"
     sodipodi:cx="3"
     sodipodi:cy="0.5"
     sodipodi:rx="2"
     sodipodi:ry="1.5"
     d="m 5,0.5 a 2,1.5 0 1 1 -4,0 2,1.5 0 1 1 4,0 z"
     transform="matrix(1.25,0,0,1.6666666,-1.25,3.6666666)" />
</svg>
