<?xml version="1.0" encoding="UTF-8" standalone="no"?>
<!-- Created with Inkscape (http://www.inkscape.org/) -->

<svg
   xmlns:dc="http://purl.org/dc/elements/1.1/"
   xmlns:cc="http://creativecommons.org/ns#"
   xmlns:rdf="http://www.w3.org/1999/02/22-rdf-syntax-ns#"
   xmlns:svg="http://www.w3.org/2000/svg"
   xmlns="http://www.w3.org/2000/svg"
   xmlns:xlink="http://www.w3.org/1999/xlink"
   xmlns:sodipodi="http://sodipodi.sourceforge.net/DTD/sodipodi-0.dtd"
   xmlns:inkscape="http://www.inkscape.org/namespaces/inkscape"
   width="48px"
   height="48px"
   id="svg4700"
   version="1.1"
   inkscape:version="0.91 r13725"
   sodipodi:docname="virtualbox.svg">
  <defs
     id="defs4702">
    <filter
       id="filter3174"
       color-interpolation-filters="sRGB">
      <feGaussianBlur
         stdDeviation="1.71"
         id="feGaussianBlur3176" />
    </filter>
    <linearGradient
       gradientTransform="scale(1.0058652,0.994169)"
       gradientUnits="userSpaceOnUse"
       id="ButtonShadow"
       y2="7.0165396"
       x2="45.447727"
       y1="92.539597"
       x1="45.447727">
      <stop
         offset="0"
         style="stop-color:#000000;stop-opacity:1"
         id="stop3750" />
      <stop
         offset="1"
         style="stop-color:#000000;stop-opacity:0.58823532"
         id="stop3752" />
    </linearGradient>
    <linearGradient
       id="linearGradient5048-8-7">
      <stop
         offset="0"
         style="stop-color:#000000;stop-opacity:0"
         id="stop5050-4-2" />
      <stop
         offset="0.5"
         style="stop-color:#000000;stop-opacity:1"
         id="stop5056-7-4" />
      <stop
         offset="1"
         style="stop-color:#000000;stop-opacity:0"
         id="stop5052-0-1-7" />
    </linearGradient>
    <linearGradient
       id="linearGradient5060-29-0">
      <stop
         offset="0"
         style="stop-color:#000000;stop-opacity:1"
         id="stop5062-9-7" />
      <stop
         offset="1"
         style="stop-color:#000000;stop-opacity:0"
         id="stop5064-08-2" />
    </linearGradient>
    <filter
       id="filter3174-0"
       color-interpolation-filters="sRGB">
      <feGaussianBlur
         stdDeviation="1.71"
         id="feGaussianBlur3176-9" />
    </filter>
    <linearGradient
       gradientTransform="scale(1.0058652,0.994169)"
       gradientUnits="userSpaceOnUse"
       id="ButtonShadow-3"
       y2="7.0165396"
       x2="45.447727"
       y1="92.539597"
       x1="45.447727">
      <stop
         offset="0"
         style="stop-color:#000000;stop-opacity:1"
         id="stop3750-8" />
      <stop
         offset="1"
         style="stop-color:#000000;stop-opacity:0.58823532"
         id="stop3752-1" />
    </linearGradient>
    <radialGradient
       inkscape:collect="always"
       xlink:href="#linearGradient5060-29-0"
       id="radialGradient4030"
       gradientUnits="userSpaceOnUse"
       gradientTransform="matrix(0.06214224,0,0,0.02900085,1.6365015,28.953157)"
       cx="605.71429"
       cy="486.64789"
       fx="605.71429"
       fy="486.64789"
       r="117.14286" />
    <linearGradient
       inkscape:collect="always"
       xlink:href="#linearGradient5048-8-7"
       id="linearGradient4032"
       gradientUnits="userSpaceOnUse"
       gradientTransform="matrix(0.06214224,0,0,0.02900085,1.6242719,28.953157)"
       x1="302.85715"
       y1="366.64789"
       x2="302.85715"
       y2="609.50507" />
    <radialGradient
       inkscape:collect="always"
       xlink:href="#linearGradient5060-29-0"
       id="radialGradient4034"
       gradientUnits="userSpaceOnUse"
       gradientTransform="matrix(-0.06214224,0,0,0.02900085,46.53201,28.953157)"
       cx="605.71429"
       cy="486.64789"
       fx="605.71429"
       fy="486.64789"
       r="117.14286" />
    <linearGradient
       gradientUnits="userSpaceOnUse"
       y2="1051.3622"
       x2="10"
       y1="1005.3622"
       x1="10"
       id="linearGradient3786"
       xlink:href="#linearGradient3780"
       inkscape:collect="always"
       gradientTransform="matrix(0.86666668,0,0,0.86666726,3.2,-867.24782)" />
    <linearGradient
       id="linearGradient3780">
      <stop
         id="stop3782"
         offset="0"
         style="stop-color:#ffffff;stop-opacity:0.39175257" />
      <stop
         style="stop-color:#ffffff;stop-opacity:0"
         offset="0.5"
         id="stop4585" />
      <stop
         id="stop3784"
         offset="1"
         style="stop-color:#ffffff;stop-opacity:0.30927834" />
    </linearGradient>
    <linearGradient
       id="linearGradient2490-3">
      <stop
         offset="0"
         style="stop-color:#136383;stop-opacity:1;"
         id="stop2492-3" />
      <stop
         offset="1"
         style="stop-color:#46a9d2;stop-opacity:1;"
         id="stop2494-8" />
    </linearGradient>
    <linearGradient
       id="linearGradient3242-7">
      <stop
         offset="0"
         style="stop-color:#92e1f4;stop-opacity:1;"
         id="stop3244-5" />
      <stop
         offset="0.26238"
         style="stop-color:#8cd9f0;stop-opacity:1;"
         id="stop3246-9" />
      <stop
         offset="0.66093999"
         style="stop-color:#38a4cd;stop-opacity:1;"
         id="stop3248-7" />
      <stop
         offset="1"
         style="stop-color:#37a4cd;stop-opacity:1;"
         id="stop3250-8" />
    </linearGradient>
    <radialGradient
       r="19.99999"
       fy="8.4497671"
       fx="7.4956832"
       cy="8.4497671"
       cx="7.4956832"
       gradientTransform="matrix(1.9428467e-8,2.3296741,-2.4722567,-4.2921487e-8,40.890102,-16.372413)"
       gradientUnits="userSpaceOnUse"
       id="radialGradient3117"
       xlink:href="#linearGradient3242-7"
       inkscape:collect="always" />
    <linearGradient
       y2="3.8990016"
       x2="24"
       y1="44"
       x1="24"
       gradientTransform="matrix(1,0,0,0.9968695,-4.000001,-3.976541)"
       gradientUnits="userSpaceOnUse"
       id="linearGradient3119"
       xlink:href="#linearGradient2490-3"
       inkscape:collect="always" />
    <filter
       color-interpolation-filters="sRGB"
       id="filter3174-2">
      <feGaussianBlur
         id="feGaussianBlur3176-68"
         stdDeviation="1.71" />
    </filter>
    <filter
       id="filter3174-8"
       color-interpolation-filters="sRGB">
      <feGaussianBlur
         stdDeviation="1.71"
         id="feGaussianBlur3176-3" />
    </filter>
    <filter
       id="filter3174-4"
       color-interpolation-filters="sRGB">
      <feGaussianBlur
         stdDeviation="1.71"
         id="feGaussianBlur3176-4" />
    </filter>
    <linearGradient
       y2="7.0165396"
       x2="45.447727"
       y1="92.539597"
       x1="45.447727"
       gradientTransform="scale(1.0058652,0.994169)"
       gradientUnits="userSpaceOnUse"
       id="linearGradient3857"
       xlink:href="#ButtonShadow"
       inkscape:collect="always" />
    <filter
       id="filter3174-0-8"
       color-interpolation-filters="sRGB">
      <feGaussianBlur
         stdDeviation="1.71"
         id="feGaussianBlur3176-9-70" />
    </filter>
    <filter
       id="filter3174-9"
       color-interpolation-filters="sRGB">
      <feGaussianBlur
         stdDeviation="1.71"
         id="feGaussianBlur3176-5" />
    </filter>
    <filter
       id="filter3174-0-5"
       color-interpolation-filters="sRGB">
      <feGaussianBlur
         stdDeviation="1.71"
         id="feGaussianBlur3176-9-9" />
    </filter>
    <filter
       id="filter3174-3"
       color-interpolation-filters="sRGB">
      <feGaussianBlur
         stdDeviation="1.71"
         id="feGaussianBlur3176-2" />
    </filter>
    <filter
       id="filter3174-0-2"
       color-interpolation-filters="sRGB">
      <feGaussianBlur
         stdDeviation="1.71"
         id="feGaussianBlur3176-9-7" />
    </filter>
    <filter
       id="filter3174-7"
       color-interpolation-filters="sRGB">
      <feGaussianBlur
         stdDeviation="1.71"
         id="feGaussianBlur3176-1" />
    </filter>
    <filter
       id="filter3174-0-7"
       color-interpolation-filters="sRGB">
      <feGaussianBlur
         stdDeviation="1.71"
         id="feGaussianBlur3176-9-0" />
    </filter>
    <filter
       id="filter3174-00"
       color-interpolation-filters="sRGB">
      <feGaussianBlur
         stdDeviation="1.71"
         id="feGaussianBlur3176-28" />
    </filter>
    <filter
       id="filter3174-88"
       color-interpolation-filters="sRGB">
      <feGaussianBlur
         stdDeviation="1.71"
         id="feGaussianBlur3176-8" />
    </filter>
    <filter
       id="filter3174-0-35"
       color-interpolation-filters="sRGB">
      <feGaussianBlur
         stdDeviation="1.71"
         id="feGaussianBlur3176-9-75" />
    </filter>
    <filter
       color-interpolation-filters="sRGB"
       id="filter3174-31">
      <feGaussianBlur
         id="feGaussianBlur3176-22"
         stdDeviation="1.71" />
    </filter>
    <filter
       id="filter3174-8-7"
       color-interpolation-filters="sRGB">
      <feGaussianBlur
         stdDeviation="1.71"
         id="feGaussianBlur3176-3-7" />
    </filter>
    <filter
       id="filter3174-4-1"
       color-interpolation-filters="sRGB">
      <feGaussianBlur
         stdDeviation="1.71"
         id="feGaussianBlur3176-4-5" />
    </filter>
    <filter
       id="filter3174-0-3"
       color-interpolation-filters="sRGB">
      <feGaussianBlur
         stdDeviation="1.71"
         id="feGaussianBlur3176-9-4" />
    </filter>
    <filter
       id="filter3174-9-0"
       color-interpolation-filters="sRGB">
      <feGaussianBlur
         stdDeviation="1.71"
         id="feGaussianBlur3176-5-9" />
    </filter>
    <filter
       id="filter3174-0-5-6"
       color-interpolation-filters="sRGB">
      <feGaussianBlur
         stdDeviation="1.71"
         id="feGaussianBlur3176-9-9-7" />
    </filter>
    <filter
       id="filter3174-3-8"
       color-interpolation-filters="sRGB">
      <feGaussianBlur
         stdDeviation="1.71"
         id="feGaussianBlur3176-2-5" />
    </filter>
    <filter
       id="filter3174-0-2-4"
       color-interpolation-filters="sRGB">
      <feGaussianBlur
         stdDeviation="1.71"
         id="feGaussianBlur3176-9-7-1" />
    </filter>
    <filter
       id="filter3174-7-4"
       color-interpolation-filters="sRGB">
      <feGaussianBlur
         stdDeviation="1.71"
         id="feGaussianBlur3176-1-4" />
    </filter>
    <filter
       id="filter3174-0-7-1"
       color-interpolation-filters="sRGB">
      <feGaussianBlur
         stdDeviation="1.71"
         id="feGaussianBlur3176-9-0-4" />
    </filter>
    <filter
       id="filter3174-00-3"
       color-interpolation-filters="sRGB">
      <feGaussianBlur
         stdDeviation="1.71"
         id="feGaussianBlur3176-28-1" />
    </filter>
    <linearGradient
       inkscape:collect="always"
       xlink:href="#ButtonShadow"
       id="linearGradient3595"
       gradientUnits="userSpaceOnUse"
       gradientTransform="scale(1.0058652,0.994169)"
       x1="45.447727"
       y1="92.539597"
       x2="45.447727"
       y2="7.0165396" />
    <linearGradient
       inkscape:collect="always"
       xlink:href="#ButtonShadow"
       id="linearGradient3597"
       gradientUnits="userSpaceOnUse"
       gradientTransform="scale(1.0058652,0.994169)"
       x1="45.447727"
       y1="92.539597"
       x2="45.447727"
       y2="7.0165396" />
    <linearGradient
       inkscape:collect="always"
       xlink:href="#ButtonShadow"
       id="linearGradient3599"
       gradientUnits="userSpaceOnUse"
       gradientTransform="scale(1.0058652,0.994169)"
       x1="45.447727"
       y1="92.539597"
       x2="45.447727"
       y2="7.0165396" />
    <linearGradient
       inkscape:collect="always"
       xlink:href="#ButtonShadow"
       id="linearGradient3601"
       gradientUnits="userSpaceOnUse"
       gradientTransform="scale(1.0058652,0.994169)"
       x1="45.447727"
       y1="92.539597"
       x2="45.447727"
       y2="7.0165396" />
    <linearGradient
       inkscape:collect="always"
       xlink:href="#ButtonShadow"
       id="linearGradient3603"
       gradientUnits="userSpaceOnUse"
       gradientTransform="scale(1.0058652,0.994169)"
       x1="45.447727"
       y1="92.539597"
       x2="45.447727"
       y2="7.0165396" />
    <linearGradient
       inkscape:collect="always"
       xlink:href="#ButtonShadow"
       id="linearGradient3605"
       gradientUnits="userSpaceOnUse"
       gradientTransform="scale(1.0058652,0.994169)"
       x1="45.447727"
       y1="92.539597"
       x2="45.447727"
       y2="7.0165396" />
    <linearGradient
       inkscape:collect="always"
       xlink:href="#ButtonShadow"
       id="linearGradient3607"
       gradientUnits="userSpaceOnUse"
       gradientTransform="scale(1.0058652,0.994169)"
       x1="45.447727"
       y1="92.539597"
       x2="45.447727"
       y2="7.0165396" />
    <linearGradient
       inkscape:collect="always"
       xlink:href="#ButtonShadow"
       id="linearGradient3609"
       gradientUnits="userSpaceOnUse"
       gradientTransform="scale(1.0058652,0.994169)"
       x1="45.447727"
       y1="92.539597"
       x2="45.447727"
       y2="7.0165396" />
    <linearGradient
       inkscape:collect="always"
       xlink:href="#ButtonShadow"
       id="linearGradient3611"
       gradientUnits="userSpaceOnUse"
       gradientTransform="scale(1.0058652,0.994169)"
       x1="45.447727"
       y1="92.539597"
       x2="45.447727"
       y2="7.0165396" />
    <linearGradient
       inkscape:collect="always"
       xlink:href="#ButtonShadow"
       id="linearGradient3613"
       gradientUnits="userSpaceOnUse"
       gradientTransform="scale(1.0058652,0.994169)"
       x1="45.447727"
       y1="92.539597"
       x2="45.447727"
       y2="7.0165396" />
    <linearGradient
       y2="7.0165396"
       x2="45.447727"
       y1="92.539597"
       x1="45.447727"
       gradientTransform="scale(1.0058652,0.994169)"
       gradientUnits="userSpaceOnUse"
       id="linearGradient4539"
       xlink:href="#ButtonShadow"
       inkscape:collect="always" />
    <linearGradient
       y2="7.0165396"
       x2="45.447727"
       y1="92.539597"
       x1="45.447727"
       gradientTransform="scale(1.0058652,0.994169)"
       gradientUnits="userSpaceOnUse"
       id="linearGradient4541"
       xlink:href="#ButtonShadow"
       inkscape:collect="always" />
    <linearGradient
       y2="7.0165396"
       x2="45.447727"
       y1="92.539597"
       x1="45.447727"
       gradientTransform="scale(1.0058652,0.994169)"
       gradientUnits="userSpaceOnUse"
       id="linearGradient4543"
       xlink:href="#ButtonShadow"
       inkscape:collect="always" />
    <filter
       id="filter3174-34"
       color-interpolation-filters="sRGB">
      <feGaussianBlur
         stdDeviation="1.71"
         id="feGaussianBlur3176-41" />
    </filter>
    <filter
       id="filter3174-0-6"
       color-interpolation-filters="sRGB">
      <feGaussianBlur
         stdDeviation="1.71"
         id="feGaussianBlur3176-9-3" />
    </filter>
    <filter
       color-interpolation-filters="sRGB"
       id="filter3174-31-4">
      <feGaussianBlur
         id="feGaussianBlur3176-22-8"
         stdDeviation="1.71" />
    </filter>
    <filter
       id="filter3174-8-1"
       color-interpolation-filters="sRGB">
      <feGaussianBlur
         stdDeviation="1.71"
         id="feGaussianBlur3176-3-3" />
    </filter>
    <filter
       id="filter3174-4-2"
       color-interpolation-filters="sRGB">
      <feGaussianBlur
         stdDeviation="1.71"
         id="feGaussianBlur3176-4-1" />
    </filter>
    <filter
       id="filter3174-0-3-3"
       color-interpolation-filters="sRGB">
      <feGaussianBlur
         stdDeviation="1.71"
         id="feGaussianBlur3176-9-4-7" />
    </filter>
    <filter
       id="filter3174-9-00"
       color-interpolation-filters="sRGB">
      <feGaussianBlur
         stdDeviation="1.71"
         id="feGaussianBlur3176-5-0" />
    </filter>
    <filter
       id="filter3174-0-5-3"
       color-interpolation-filters="sRGB">
      <feGaussianBlur
         stdDeviation="1.71"
         id="feGaussianBlur3176-9-9-9" />
    </filter>
    <filter
       id="filter3174-3-0"
       color-interpolation-filters="sRGB">
      <feGaussianBlur
         stdDeviation="1.71"
         id="feGaussianBlur3176-2-8" />
    </filter>
    <filter
       id="filter3174-0-2-45"
       color-interpolation-filters="sRGB">
      <feGaussianBlur
         stdDeviation="1.71"
         id="feGaussianBlur3176-9-7-2" />
    </filter>
    <filter
       id="filter3174-7-6"
       color-interpolation-filters="sRGB">
      <feGaussianBlur
         stdDeviation="1.71"
         id="feGaussianBlur3176-1-8" />
    </filter>
    <filter
       id="filter3174-0-7-11"
       color-interpolation-filters="sRGB">
      <feGaussianBlur
         stdDeviation="1.71"
         id="feGaussianBlur3176-9-0-9" />
    </filter>
    <filter
       id="filter3174-00-7"
       color-interpolation-filters="sRGB">
      <feGaussianBlur
         stdDeviation="1.71"
         id="feGaussianBlur3176-28-5" />
    </filter>
    <linearGradient
       inkscape:collect="always"
       xlink:href="#ButtonShadow"
       id="linearGradient3601-1"
       gradientUnits="userSpaceOnUse"
       gradientTransform="scale(1.0058652,0.994169)"
       x1="45.447727"
       y1="92.539597"
       x2="45.447727"
       y2="7.0165396" />
    <linearGradient
       inkscape:collect="always"
       xlink:href="#ButtonShadow"
       id="linearGradient3605-5"
       gradientUnits="userSpaceOnUse"
       gradientTransform="scale(1.0058652,0.994169)"
       x1="45.447727"
       y1="92.539597"
       x2="45.447727"
       y2="7.0165396" />
    <linearGradient
       inkscape:collect="always"
       xlink:href="#ButtonShadow"
       id="linearGradient3609-0"
       gradientUnits="userSpaceOnUse"
       gradientTransform="scale(1.0058652,0.994169)"
       x1="45.447727"
       y1="92.539597"
       x2="45.447727"
       y2="7.0165396" />
    <linearGradient
       inkscape:collect="always"
       xlink:href="#ButtonShadow"
       id="linearGradient3613-7"
       gradientUnits="userSpaceOnUse"
       gradientTransform="scale(1.0058652,0.994169)"
       x1="45.447727"
       y1="92.539597"
       x2="45.447727"
       y2="7.0165396" />
    <linearGradient
       y2="7.0165396"
       x2="45.447727"
       y1="92.539597"
       x1="45.447727"
       gradientTransform="scale(1.0058652,0.994169)"
       gradientUnits="userSpaceOnUse"
       id="linearGradient5181"
       xlink:href="#ButtonShadow"
       inkscape:collect="always" />
    <linearGradient
       y2="7.0165396"
       x2="45.447727"
       y1="92.539597"
       x1="45.447727"
       gradientTransform="scale(1.0058652,0.994169)"
       gradientUnits="userSpaceOnUse"
       id="linearGradient5183"
       xlink:href="#ButtonShadow"
       inkscape:collect="always" />
    <linearGradient
       y2="7.0165396"
       x2="45.447727"
       y1="92.539597"
       x1="45.447727"
       gradientTransform="scale(1.0058652,0.994169)"
       gradientUnits="userSpaceOnUse"
       id="linearGradient5185"
       xlink:href="#ButtonShadow"
       inkscape:collect="always" />
    <linearGradient
       y2="7.0165396"
       x2="45.447727"
       y1="92.539597"
       x1="45.447727"
       gradientTransform="scale(1.0058652,0.994169)"
       gradientUnits="userSpaceOnUse"
       id="linearGradient5187"
       xlink:href="#ButtonShadow"
       inkscape:collect="always" />
    <linearGradient
       y2="7.0165396"
       x2="45.447727"
       y1="92.539597"
       x1="45.447727"
       gradientTransform="scale(1.0058652,0.994169)"
       gradientUnits="userSpaceOnUse"
       id="linearGradient5189"
       xlink:href="#ButtonShadow"
       inkscape:collect="always" />
    <linearGradient
       y2="7.0165396"
       x2="45.447727"
       y1="92.539597"
       x1="45.447727"
       gradientTransform="scale(1.0058652,0.994169)"
       gradientUnits="userSpaceOnUse"
       id="linearGradient5191"
       xlink:href="#ButtonShadow"
       inkscape:collect="always" />
    <linearGradient
       y2="7.0165396"
       x2="45.447727"
       y1="92.539597"
       x1="45.447727"
       gradientTransform="scale(1.0058652,0.994169)"
       gradientUnits="userSpaceOnUse"
       id="linearGradient5193"
       xlink:href="#ButtonShadow"
       inkscape:collect="always" />
    <linearGradient
       y2="7.0165396"
       x2="45.447727"
       y1="92.539597"
       x1="45.447727"
       gradientTransform="scale(1.0058652,0.994169)"
       gradientUnits="userSpaceOnUse"
       id="linearGradient5195"
       xlink:href="#ButtonShadow"
       inkscape:collect="always" />
    <linearGradient
       y2="7.0165396"
       x2="45.447727"
       y1="92.539597"
       x1="45.447727"
       gradientTransform="scale(1.0058652,0.994169)"
       gradientUnits="userSpaceOnUse"
       id="linearGradient5197"
       xlink:href="#ButtonShadow"
       inkscape:collect="always" />
    <filter
       id="filter3174-97"
       color-interpolation-filters="sRGB">
      <feGaussianBlur
         stdDeviation="1.71"
         id="feGaussianBlur3176-11" />
    </filter>
    <filter
       id="filter3174-0-54"
       color-interpolation-filters="sRGB">
      <feGaussianBlur
         stdDeviation="1.71"
         id="feGaussianBlur3176-9-96" />
    </filter>
    <filter
       color-interpolation-filters="sRGB"
       id="filter3174-31-7">
      <feGaussianBlur
         id="feGaussianBlur3176-22-2"
         stdDeviation="1.71" />
    </filter>
    <filter
       id="filter3174-8-3"
       color-interpolation-filters="sRGB">
      <feGaussianBlur
         stdDeviation="1.71"
         id="feGaussianBlur3176-3-8" />
    </filter>
    <filter
       id="filter3174-4-6"
       color-interpolation-filters="sRGB">
      <feGaussianBlur
         stdDeviation="1.71"
         id="feGaussianBlur3176-4-0" />
    </filter>
    <filter
       id="filter3174-0-3-4"
       color-interpolation-filters="sRGB">
      <feGaussianBlur
         stdDeviation="1.71"
         id="feGaussianBlur3176-9-4-3" />
    </filter>
    <filter
       id="filter3174-9-3"
       color-interpolation-filters="sRGB">
      <feGaussianBlur
         stdDeviation="1.71"
         id="feGaussianBlur3176-5-98" />
    </filter>
    <filter
       id="filter3174-0-5-1"
       color-interpolation-filters="sRGB">
      <feGaussianBlur
         stdDeviation="1.71"
         id="feGaussianBlur3176-9-9-1" />
    </filter>
    <filter
       id="filter3174-3-06"
       color-interpolation-filters="sRGB">
      <feGaussianBlur
         stdDeviation="1.71"
         id="feGaussianBlur3176-2-0" />
    </filter>
    <filter
       id="filter3174-0-2-1"
       color-interpolation-filters="sRGB">
      <feGaussianBlur
         stdDeviation="1.71"
         id="feGaussianBlur3176-9-7-5" />
    </filter>
    <filter
       id="filter3174-7-1"
       color-interpolation-filters="sRGB">
      <feGaussianBlur
         stdDeviation="1.71"
         id="feGaussianBlur3176-1-3" />
    </filter>
    <filter
       id="filter3174-0-7-5"
       color-interpolation-filters="sRGB">
      <feGaussianBlur
         stdDeviation="1.71"
         id="feGaussianBlur3176-9-0-40" />
    </filter>
    <filter
       id="filter3174-00-2"
       color-interpolation-filters="sRGB">
      <feGaussianBlur
         stdDeviation="1.71"
         id="feGaussianBlur3176-28-9" />
    </filter>
    <linearGradient
       y2="7.0165396"
       x2="45.447727"
       y1="92.539597"
       x1="45.447727"
       gradientTransform="scale(1.0058652,0.994169)"
       gradientUnits="userSpaceOnUse"
       id="linearGradient4881"
       xlink:href="#ButtonShadow"
       inkscape:collect="always" />
    <linearGradient
       y2="7.0165396"
       x2="45.447727"
       y1="92.539597"
       x1="45.447727"
       gradientTransform="scale(1.0058652,0.994169)"
       gradientUnits="userSpaceOnUse"
       id="linearGradient4883"
       xlink:href="#ButtonShadow"
       inkscape:collect="always" />
    <linearGradient
       y2="7.0165396"
       x2="45.447727"
       y1="92.539597"
       x1="45.447727"
       gradientTransform="scale(1.0058652,0.994169)"
       gradientUnits="userSpaceOnUse"
       id="linearGradient4886"
       xlink:href="#ButtonShadow"
       inkscape:collect="always" />
    <linearGradient
       y2="7.0165396"
       x2="45.447727"
       y1="92.539597"
       x1="45.447727"
       gradientTransform="scale(1.0058652,0.994169)"
       gradientUnits="userSpaceOnUse"
       id="linearGradient4888"
       xlink:href="#ButtonShadow"
       inkscape:collect="always" />
    <linearGradient
       y2="7.0165396"
       x2="45.447727"
       y1="92.539597"
       x1="45.447727"
       gradientTransform="scale(1.0058652,0.994169)"
       gradientUnits="userSpaceOnUse"
       id="linearGradient4890"
       xlink:href="#ButtonShadow"
       inkscape:collect="always" />
    <linearGradient
       y2="7.0165396"
       x2="45.447727"
       y1="92.539597"
       x1="45.447727"
       gradientTransform="scale(1.0058652,0.994169)"
       gradientUnits="userSpaceOnUse"
       id="linearGradient4892"
       xlink:href="#ButtonShadow"
       inkscape:collect="always" />
    <linearGradient
       y2="7.0165396"
       x2="45.447727"
       y1="92.539597"
       x1="45.447727"
       gradientTransform="scale(1.0058652,0.994169)"
       gradientUnits="userSpaceOnUse"
       id="linearGradient4894"
       xlink:href="#ButtonShadow"
       inkscape:collect="always" />
    <linearGradient
       y2="7.0165396"
       x2="45.447727"
       y1="92.539597"
       x1="45.447727"
       gradientTransform="scale(1.0058652,0.994169)"
       gradientUnits="userSpaceOnUse"
       id="linearGradient4896"
       xlink:href="#ButtonShadow"
       inkscape:collect="always" />
    <linearGradient
       y2="7.0165396"
       x2="45.447727"
       y1="92.539597"
       x1="45.447727"
       gradientTransform="scale(1.0058652,0.994169)"
       gradientUnits="userSpaceOnUse"
       id="linearGradient4898"
       xlink:href="#ButtonShadow"
       inkscape:collect="always" />
    <linearGradient
       y2="7.0165396"
       x2="45.447727"
       y1="92.539597"
       x1="45.447727"
       gradientTransform="scale(1.0058652,0.994169)"
       gradientUnits="userSpaceOnUse"
       id="linearGradient4900"
       xlink:href="#ButtonShadow"
       inkscape:collect="always" />
    <linearGradient
       y2="7.0165396"
       x2="45.447727"
       y1="92.539597"
       x1="45.447727"
       gradientTransform="scale(1.0058652,0.994169)"
       gradientUnits="userSpaceOnUse"
       id="linearGradient4902"
       xlink:href="#ButtonShadow"
       inkscape:collect="always" />
    <linearGradient
       y2="7.0165396"
       x2="45.447727"
       y1="92.539597"
       x1="45.447727"
       gradientTransform="scale(1.0058652,0.994169)"
       gradientUnits="userSpaceOnUse"
       id="linearGradient4904"
       xlink:href="#ButtonShadow"
       inkscape:collect="always" />
    <linearGradient
       y2="7.0165396"
       x2="45.447727"
       y1="92.539597"
       x1="45.447727"
       gradientTransform="scale(1.0058652,0.994169)"
       gradientUnits="userSpaceOnUse"
       id="linearGradient4906"
       xlink:href="#ButtonShadow"
       inkscape:collect="always" />
    <filter
       id="filter3174-43"
       color-interpolation-filters="sRGB">
      <feGaussianBlur
         stdDeviation="1.71"
         id="feGaussianBlur3176-6" />
    </filter>
    <filter
       id="filter3174-0-53"
       color-interpolation-filters="sRGB">
      <feGaussianBlur
         stdDeviation="1.71"
         id="feGaussianBlur3176-9-97" />
    </filter>
    <filter
       color-interpolation-filters="sRGB"
       id="filter3174-31-74">
      <feGaussianBlur
         id="feGaussianBlur3176-22-3"
         stdDeviation="1.71" />
    </filter>
    <filter
       id="filter3174-8-5"
       color-interpolation-filters="sRGB">
      <feGaussianBlur
         stdDeviation="1.71"
         id="feGaussianBlur3176-3-6" />
    </filter>
    <filter
       id="filter3174-4-5"
       color-interpolation-filters="sRGB">
      <feGaussianBlur
         stdDeviation="1.71"
         id="feGaussianBlur3176-4-2" />
    </filter>
    <filter
       id="filter3174-0-3-7"
       color-interpolation-filters="sRGB">
      <feGaussianBlur
         stdDeviation="1.71"
         id="feGaussianBlur3176-9-4-5" />
    </filter>
    <filter
       id="filter3174-9-6"
       color-interpolation-filters="sRGB">
      <feGaussianBlur
         stdDeviation="1.71"
         id="feGaussianBlur3176-5-4" />
    </filter>
    <filter
       id="filter3174-0-5-2"
       color-interpolation-filters="sRGB">
      <feGaussianBlur
         stdDeviation="1.71"
         id="feGaussianBlur3176-9-9-3" />
    </filter>
    <filter
       id="filter3174-3-2"
       color-interpolation-filters="sRGB">
      <feGaussianBlur
         stdDeviation="1.71"
         id="feGaussianBlur3176-2-1" />
    </filter>
    <filter
       id="filter3174-0-2-7"
       color-interpolation-filters="sRGB">
      <feGaussianBlur
         stdDeviation="1.71"
         id="feGaussianBlur3176-9-7-20" />
    </filter>
    <filter
       id="filter3174-7-17"
       color-interpolation-filters="sRGB">
      <feGaussianBlur
         stdDeviation="1.71"
         id="feGaussianBlur3176-1-6" />
    </filter>
    <filter
       id="filter3174-0-7-0"
       color-interpolation-filters="sRGB">
      <feGaussianBlur
         stdDeviation="1.71"
         id="feGaussianBlur3176-9-0-1" />
    </filter>
    <filter
       id="filter3174-00-35"
       color-interpolation-filters="sRGB">
      <feGaussianBlur
         stdDeviation="1.71"
         id="feGaussianBlur3176-28-0" />
    </filter>
    <linearGradient
       y2="7.0165396"
       x2="45.447727"
       y1="92.539597"
       x1="45.447727"
       gradientTransform="scale(1.0058652,0.994169)"
       gradientUnits="userSpaceOnUse"
       id="linearGradient4824"
       xlink:href="#ButtonShadow"
       inkscape:collect="always" />
    <linearGradient
       y2="7.0165396"
       x2="45.447727"
       y1="92.539597"
       x1="45.447727"
       gradientTransform="scale(1.0058652,0.994169)"
       gradientUnits="userSpaceOnUse"
       id="linearGradient4826"
       xlink:href="#ButtonShadow"
       inkscape:collect="always" />
    <linearGradient
       y2="7.0165396"
       x2="45.447727"
       y1="92.539597"
       x1="45.447727"
       gradientTransform="scale(1.0058652,0.994169)"
       gradientUnits="userSpaceOnUse"
       id="linearGradient4828"
       xlink:href="#ButtonShadow"
       inkscape:collect="always" />
    <linearGradient
       y2="7.0165396"
       x2="45.447727"
       y1="92.539597"
       x1="45.447727"
       gradientTransform="scale(1.0058652,0.994169)"
       gradientUnits="userSpaceOnUse"
       id="linearGradient4830"
       xlink:href="#ButtonShadow"
       inkscape:collect="always" />
    <linearGradient
       y2="7.0165396"
       x2="45.447727"
       y1="92.539597"
       x1="45.447727"
       gradientTransform="scale(1.0058652,0.994169)"
       gradientUnits="userSpaceOnUse"
       id="linearGradient4832"
       xlink:href="#ButtonShadow"
       inkscape:collect="always" />
    <linearGradient
       y2="7.0165396"
       x2="45.447727"
       y1="92.539597"
       x1="45.447727"
       gradientTransform="scale(1.0058652,0.994169)"
       gradientUnits="userSpaceOnUse"
       id="linearGradient4834"
       xlink:href="#ButtonShadow"
       inkscape:collect="always" />
    <linearGradient
       y2="7.0165396"
       x2="45.447727"
       y1="92.539597"
       x1="45.447727"
       gradientTransform="scale(1.0058652,0.994169)"
       gradientUnits="userSpaceOnUse"
       id="linearGradient4836"
       xlink:href="#ButtonShadow"
       inkscape:collect="always" />
    <linearGradient
       y2="7.0165396"
       x2="45.447727"
       y1="92.539597"
       x1="45.447727"
       gradientTransform="scale(1.0058652,0.994169)"
       gradientUnits="userSpaceOnUse"
       id="linearGradient4838"
       xlink:href="#ButtonShadow"
       inkscape:collect="always" />
    <linearGradient
       y2="7.0165396"
       x2="45.447727"
       y1="92.539597"
       x1="45.447727"
       gradientTransform="scale(1.0058652,0.994169)"
       gradientUnits="userSpaceOnUse"
       id="linearGradient4840"
       xlink:href="#ButtonShadow"
       inkscape:collect="always" />
    <linearGradient
       y2="7.0165396"
       x2="45.447727"
       y1="92.539597"
       x1="45.447727"
       gradientTransform="scale(1.0058652,0.994169)"
       gradientUnits="userSpaceOnUse"
       id="linearGradient4842"
       xlink:href="#ButtonShadow"
       inkscape:collect="always" />
    <linearGradient
       y2="7.0165396"
       x2="45.447727"
       y1="92.539597"
       x1="45.447727"
       gradientTransform="scale(1.0058652,0.994169)"
       gradientUnits="userSpaceOnUse"
       id="linearGradient4844"
       xlink:href="#ButtonShadow"
       inkscape:collect="always" />
    <linearGradient
       y2="7.0165396"
       x2="45.447727"
       y1="92.539597"
       x1="45.447727"
       gradientTransform="scale(1.0058652,0.994169)"
       gradientUnits="userSpaceOnUse"
       id="linearGradient4846"
       xlink:href="#ButtonShadow"
       inkscape:collect="always" />
    <linearGradient
       y2="7.0165396"
       x2="45.447727"
       y1="92.539597"
       x1="45.447727"
       gradientTransform="scale(1.0058652,0.994169)"
       gradientUnits="userSpaceOnUse"
       id="linearGradient4848"
       xlink:href="#ButtonShadow"
       inkscape:collect="always" />
    <linearGradient
       inkscape:collect="always"
       xlink:href="#ButtonShadow"
       id="linearGradient5131"
       gradientUnits="userSpaceOnUse"
       gradientTransform="scale(1.0058652,0.994169)"
       x1="45.447727"
       y1="92.539597"
       x2="45.447727"
       y2="7.0165396" />
    <linearGradient
       inkscape:collect="always"
       xlink:href="#ButtonShadow"
       id="linearGradient5133"
       gradientUnits="userSpaceOnUse"
       gradientTransform="scale(1.0058652,0.994169)"
       x1="45.447727"
       y1="92.539597"
       x2="45.447727"
       y2="7.0165396" />
    <linearGradient
       inkscape:collect="always"
       xlink:href="#ButtonShadow"
       id="linearGradient5135"
       gradientUnits="userSpaceOnUse"
       gradientTransform="scale(1.0058652,0.994169)"
       x1="45.447727"
       y1="92.539597"
       x2="45.447727"
       y2="7.0165396" />
    <linearGradient
       inkscape:collect="always"
       xlink:href="#ButtonShadow"
       id="linearGradient5137"
       gradientUnits="userSpaceOnUse"
       gradientTransform="scale(1.0058652,0.994169)"
       x1="45.447727"
       y1="92.539597"
       x2="45.447727"
       y2="7.0165396" />
    <linearGradient
       inkscape:collect="always"
       xlink:href="#ButtonShadow"
       id="linearGradient5139"
       gradientUnits="userSpaceOnUse"
       gradientTransform="scale(1.0058652,0.994169)"
       x1="45.447727"
       y1="92.539597"
       x2="45.447727"
       y2="7.0165396" />
    <linearGradient
       inkscape:collect="always"
       xlink:href="#ButtonShadow"
       id="linearGradient5141"
       gradientUnits="userSpaceOnUse"
       gradientTransform="scale(1.0058652,0.994169)"
       x1="45.447727"
       y1="92.539597"
       x2="45.447727"
       y2="7.0165396" />
    <linearGradient
       inkscape:collect="always"
       xlink:href="#ButtonShadow"
       id="linearGradient5143"
       gradientUnits="userSpaceOnUse"
       gradientTransform="scale(1.0058652,0.994169)"
       x1="45.447727"
       y1="92.539597"
       x2="45.447727"
       y2="7.0165396" />
    <linearGradient
       inkscape:collect="always"
       xlink:href="#ButtonShadow"
       id="linearGradient5145"
       gradientUnits="userSpaceOnUse"
       gradientTransform="scale(1.0058652,0.994169)"
       x1="45.447727"
       y1="92.539597"
       x2="45.447727"
       y2="7.0165396" />
    <linearGradient
       inkscape:collect="always"
       xlink:href="#ButtonShadow"
       id="linearGradient5147"
       gradientUnits="userSpaceOnUse"
       gradientTransform="scale(1.0058652,0.994169)"
       x1="45.447727"
       y1="92.539597"
       x2="45.447727"
       y2="7.0165396" />
    <linearGradient
       inkscape:collect="always"
       xlink:href="#ButtonShadow"
       id="linearGradient5149"
       gradientUnits="userSpaceOnUse"
       gradientTransform="scale(1.0058652,0.994169)"
       x1="45.447727"
       y1="92.539597"
       x2="45.447727"
       y2="7.0165396" />
  </defs>
  <sodipodi:namedview
     id="base"
     pagecolor="#ffffff"
     bordercolor="#666666"
     borderopacity="1.0"
     inkscape:pageopacity="0.0"
     inkscape:pageshadow="2"
     inkscape:zoom="11.313708"
     inkscape:cx="44.442219"
     inkscape:cy="23.723571"
     inkscape:current-layer="layer1"
     showgrid="true"
     inkscape:grid-bbox="true"
     inkscape:document-units="px"
     inkscape:window-width="1366"
     inkscape:window-height="704"
     inkscape:window-x="0"
     inkscape:window-y="27"
     inkscape:window-maximized="1"
     inkscape:snap-to-guides="false"
     inkscape:snap-grids="true"
     inkscape:snap-page="true"
     inkscape:snap-center="false"
     inkscape:snap-object-midpoints="false"
     inkscape:snap-bbox="true"
     inkscape:object-nodes="true"
     inkscape:snap-intersection-paths="true"
     inkscape:object-paths="true"
     inkscape:bbox-paths="true"
     inkscape:bbox-nodes="true">
    <inkscape:grid
       type="xygrid"
       id="grid1021" />
  </sodipodi:namedview>
  <metadata
     id="metadata4705">
    <rdf:RDF>
      <cc:Work
         rdf:about="">
        <dc:format>image/svg+xml</dc:format>
        <dc:type
           rdf:resource="http://purl.org/dc/dcmitype/StillImage" />
        <dc:title />
      </cc:Work>
    </rdf:RDF>
  </metadata>
  <g
     id="layer1"
     inkscape:label="Layer 1"
     inkscape:groupmode="layer">
    <g
       id="g1017-7"
       transform="matrix(0.96748515,0,0,0.99388573,0.69884492,1.6557907)">
      <path
         inkscape:connector-curvature="0"
         style="opacity:0.5;fill:url(#radialGradient4030);fill-opacity:1;fill-rule:nonzero;stroke:none;stroke-width:104.96237946;marker:none;visibility:visible;display:inline;overflow:visible"
         id="path5058-0-2"
         d="m 39.087163,39.586499 c 0,0 0,7.042675 0,7.042675 3.200171,0.01326 7.736457,-1.577906 7.736455,-3.52179 0,-1.943885 -3.57115,-3.520884 -7.736455,-3.520885 z" />
      <rect
         style="opacity:0.5;fill:url(#linearGradient4032);fill-opacity:1;fill-rule:nonzero;stroke:none;stroke-width:104.96237946;marker:none;visibility:visible;display:inline;overflow:visible"
         id="rect4173-6-3"
         y="39.58625"
         x="9.0813398"
         height="7.0430632"
         width="30.005821" />
      <path
         inkscape:connector-curvature="0"
         style="opacity:0.5;fill:url(#radialGradient4034);fill-opacity:1;fill-rule:nonzero;stroke:none;stroke-width:104.96237946;marker:none;visibility:visible;display:inline;overflow:visible"
         id="path5018-7-4"
         d="m 9.0813406,39.586499 c 0,0 0,7.042675 0,7.042675 -3.2001721,0.01326 -7.7364568,-1.577906 -7.7364568,-3.52179 0,-1.943885 3.57115,-3.520884 7.7364568,-3.520885 z" />
    </g>
    <g
       id="g4574"
       transform="matrix(1.6071093,0,0,1.6011113,-22.853896,-14.42229)" />
    <g
       id="layer4"
       transform="translate(-54.795509,-178.6879)" />
    <g
       id="layer2"
       style="display:none"
       transform="translate(5.204491,-179.6879)">
      <rect
         width="86"
         height="85"
         rx="6"
         ry="6"
         x="5"
         y="7"
         id="rect3745"
         style="opacity:0.9;fill:url(#ButtonShadow);fill-opacity:1;fill-rule:nonzero;stroke:none;filter:url(#filter3174)" />
    </g>
    <g
       id="layer2-0"
       style="display:none"
       transform="matrix(1.9515901,0,0,1.9515901,-37.264816,-396.93714)">
      <rect
         width="86"
         height="85"
         rx="3.0744162"
         ry="3.0744162"
         x="5"
         y="7"
         id="rect3745-9"
         style="opacity:0.9;fill:url(#ButtonShadow-3);fill-opacity:1;fill-rule:nonzero;stroke:none;filter:url(#filter3174-0)" />
    </g>
    <g
       id="layer4-7"
       transform="matrix(1.9515901,0,0,1.9515901,-37.264816,-396.93714)" />
    <rect
       style="color:#000000;clip-rule:nonzero;display:inline;overflow:visible;visibility:visible;opacity:1;isolation:auto;mix-blend-mode:normal;color-interpolation:sRGB;color-interpolation-filters:linearRGB;solid-color:#000000;solid-opacity:1;fill:url(#radialGradient3117);fill-opacity:1;fill-rule:nonzero;stroke:url(#linearGradient3119);stroke-width:1;stroke-linecap:round;stroke-linejoin:round;stroke-miterlimit:4;stroke-dasharray:none;stroke-dashoffset:0;stroke-opacity:1;marker:none;color-rendering:auto;image-rendering:auto;shape-rendering:auto;text-rendering:auto;enable-background:accumulate"
       id="rect2996"
       width="41"
       height="41"
       x="3.5"
       y="3.5"
       ry="4" />
    <rect
       ry="3"
       y="4.4999728"
       x="4.5"
       height="39.000027"
       width="39"
       id="rect3776"
       style="color:#000000;display:inline;overflow:visible;visibility:visible;fill:none;stroke:url(#linearGradient3786);stroke-width:0.99999994;stroke-linecap:round;stroke-linejoin:round;stroke-miterlimit:4;stroke-dasharray:none;stroke-dashoffset:0;stroke-opacity:1;marker:none;enable-background:accumulate" />
    <path
       inkscape:connector-curvature="0"
       id="path4480"
       d="m 9,22.000234 4,0 5,15 5,-17 3,10 4,-10 3,10 6,0 0,-2 -4,0 -5,-14 -4,10 -3,-11 -5,17 -3,-10 -6,0 z"
       style="color:black;clip-rule:nonzero;display:inline;overflow:visible;visibility:visible;opacity:1;isolation:auto;mix-blend-mode:normal;color-interpolation:sRGB;color-interpolation-filters:linearRGB;solid-color:black;solid-opacity:1;fill:none;fill-opacity:1;fill-rule:nonzero;stroke:black;stroke-width:2;stroke-linecap:butt;stroke-linejoin:round;stroke-miterlimit:4;stroke-dasharray:none;stroke-dashoffset:0;stroke-opacity:0.25098039;color-rendering:auto;image-rendering:auto;shape-rendering:auto;text-rendering:auto;enable-background:accumulate"
       sodipodi:nodetypes="cccccccccccccccc" />
    <path
       style="color:black;clip-rule:nonzero;display:inline;overflow:visible;visibility:visible;opacity:1;isolation:auto;mix-blend-mode:normal;color-interpolation:sRGB;color-interpolation-filters:linearRGB;solid-color:black;solid-opacity:1;fill:white;fill-opacity:1;fill-rule:nonzero;stroke:none;stroke-width:2;stroke-linecap:butt;stroke-linejoin:miter;stroke-miterlimit:4;stroke-dasharray:none;stroke-dashoffset:0;stroke-opacity:1;color-rendering:auto;image-rendering:auto;shape-rendering:auto;text-rendering:auto;enable-background:accumulate"
       d="m 9,22.000234 4,0 5,15 5,-17 3,10 4,-10 3,10 6,0 0,-2 -4,0 -5,-14 -4,10 -3,-11 -5,17 -3,-10 -6,0 z"
       id="path3908"
       inkscape:connector-curvature="0"
       sodipodi:nodetypes="cccccccccccccccc" />
    <g
       id="layer2-23"
       style="display:none"
       transform="translate(52.704491,-177.9379)">
      <rect
         width="86"
         height="85"
         rx="6"
         ry="6"
         x="5"
         y="7"
         id="rect3745-76"
         style="opacity:0.9;fill:url(#linearGradient5131);fill-opacity:1;fill-rule:nonzero;stroke:none;filter:url(#filter3174-2)" />
    </g>
    <g
       id="layer2-6"
       style="display:none"
       transform="translate(-5.467913,-175.42602)">
      <rect
         width="86"
         height="85"
         rx="6"
         ry="6"
         x="5"
         y="7"
         id="rect3745-4"
         style="opacity:0.9;fill:url(#linearGradient5133);fill-opacity:1;fill-rule:nonzero;stroke:none;filter:url(#filter3174-8)" />
    </g>
    <g
       id="layer4-88"
       transform="matrix(1.3333333,0,0,1.3333333,54.439321,-253.83386)" />
    <g
       id="layer4-8"
       transform="matrix(1.3333333,0,0,1.3333333,-23.123882,-250.48469)" />
    <g
       id="layer2-2"
       style="display:none"
       transform="matrix(2.5228235,0,0,2.5228235,62.366483,-526.38215)">
      <rect
         width="86"
         height="85"
         rx="2.3782876"
         ry="2.3782876"
         x="5"
         y="7"
         id="rect3745-3"
         style="opacity:0.9;fill:url(#linearGradient3857);fill-opacity:1;fill-rule:nonzero;stroke:none;filter:url(#filter3174-4)" />
    </g>
    <g
       id="layer4-1"
       transform="matrix(2.5228235,0,0,2.5228235,62.366483,-526.38215)" />
    <g
       id="g4574-09"
       transform="matrix(1.6071093,0,0,1.6011113,85.646104,-19.67229)" />
    <g
       id="layer4-19"
       transform="translate(53.704491,-183.9379)" />
    <g
       id="layer2-7"
       style="display:none"
       transform="translate(113.70449,-184.9379)">
      <rect
         width="86"
         height="85"
         rx="6"
         ry="6"
         x="5"
         y="7"
         id="rect3745-94"
         style="opacity:0.9;fill:url(#linearGradient5135);fill-opacity:1;fill-rule:nonzero;stroke:none;filter:url(#filter3174-9)" />
    </g>
    <g
       id="layer2-0-7"
       style="display:none"
       transform="matrix(1.9515901,0,0,1.9515901,71.235184,-402.18714)">
      <rect
         width="86"
         height="85"
         rx="3.0744162"
         ry="3.0744162"
         x="5"
         y="7"
         id="rect3745-9-22"
         style="opacity:0.9;fill:url(#linearGradient5137);fill-opacity:1;fill-rule:nonzero;stroke:none;filter:url(#filter3174-0-8)" />
    </g>
    <g
       id="layer4-7-21"
       transform="matrix(1.9515901,0,0,1.9515901,71.235184,-402.18714)" />
    <g
       id="g4574-4"
       transform="matrix(1.6071093,0,0,1.6011113,93.646104,-17.67229)" />
    <g
       id="layer4-3"
       transform="translate(61.704491,-181.9379)" />
    <g
       id="layer2-22"
       style="display:none"
       transform="translate(121.70449,-182.9379)">
      <rect
         width="86"
         height="85"
         rx="6"
         ry="6"
         x="5"
         y="7"
         id="rect3745-1"
         style="opacity:0.9;fill:url(#linearGradient5139);fill-opacity:1;fill-rule:nonzero;stroke:none;filter:url(#filter3174-3)" />
    </g>
    <g
       id="layer2-0-0"
       style="display:none"
       transform="matrix(1.9515901,0,0,1.9515901,79.235184,-400.18714)">
      <rect
         width="86"
         height="85"
         rx="3.0744162"
         ry="3.0744162"
         x="5"
         y="7"
         id="rect3745-9-9"
         style="opacity:0.9;fill:url(#linearGradient5141);fill-opacity:1;fill-rule:nonzero;stroke:none;filter:url(#filter3174-0-5)" />
    </g>
    <g
       id="layer4-7-2"
       transform="matrix(1.9515901,0,0,1.9515901,79.235184,-400.18714)" />
    <g
       id="g4574-0"
       transform="matrix(1.6071093,0,0,1.6011113,92.646104,-22.67229)" />
    <g
       id="layer4-6"
       transform="translate(60.704491,-186.9379)" />
    <g
       id="layer2-9"
       style="display:none"
       transform="translate(120.70449,-187.9379)">
      <rect
         width="86"
         height="85"
         rx="6"
         ry="6"
         x="5"
         y="7"
         id="rect3745-18"
         style="opacity:0.9;fill:url(#linearGradient5143);fill-opacity:1;fill-rule:nonzero;stroke:none;filter:url(#filter3174-7)" />
    </g>
    <g
       id="layer2-0-1"
       style="display:none"
       transform="matrix(1.9515901,0,0,1.9515901,78.235184,-405.18714)">
      <rect
         width="86"
         height="85"
         rx="3.0744162"
         ry="3.0744162"
         x="5"
         y="7"
         id="rect3745-9-0"
         style="opacity:0.9;fill:url(#linearGradient5145);fill-opacity:1;fill-rule:nonzero;stroke:none;filter:url(#filter3174-0-2)" />
    </g>
    <g
       id="layer4-7-4"
       transform="matrix(1.9515901,0,0,1.9515901,78.235184,-405.18714)" />
    <g
       id="g4574-9"
       transform="matrix(1.6071093,0,0,1.6011113,17.146104,-58.17229)" />
    <g
       id="layer4-0"
       transform="translate(-14.795509,-222.4379)" />
    <g
       id="layer2-97"
       style="display:none"
       transform="translate(45.204491,-223.4379)">
      <rect
         width="86"
         height="85"
         rx="6"
         ry="6"
         x="5"
         y="7"
         id="rect3745-2"
         style="opacity:0.9;fill:url(#linearGradient5147);fill-opacity:1;fill-rule:nonzero;stroke:none;filter:url(#filter3174-00)" />
    </g>
    <g
       id="layer2-0-12"
       style="display:none"
       transform="matrix(1.9515901,0,0,1.9515901,2.735184,-440.68714)">
      <rect
         width="86"
         height="85"
         rx="3.0744162"
         ry="3.0744162"
         x="5"
         y="7"
         id="rect3745-9-2"
         style="opacity:0.9;fill:url(#linearGradient5149);fill-opacity:1;fill-rule:nonzero;stroke:none;filter:url(#filter3174-0-7)" />
    </g>
    <g
       id="layer4-7-8"
       transform="matrix(1.9515901,0,0,1.9515901,2.735184,-440.68714)" />
    <g
       id="g4574-3"
       transform="matrix(1.6071093,0,0,1.6011113,91.86288,-19.694008)" />
    <g
       id="layer4-55"
       transform="translate(59.921267,-183.95962)" />
    <g
       id="layer2-78"
       style="display:none"
       transform="translate(119.92127,-184.95962)">
      <rect
         width="86"
         height="85"
         rx="6"
         ry="6"
         x="5"
         y="7"
         id="rect3745-47"
         style="opacity:0.9;fill:url(#linearGradient4539);fill-opacity:1;fill-rule:nonzero;stroke:none;filter:url(#filter3174-88)" />
    </g>
    <g
       id="layer2-0-9"
       style="display:none"
       transform="matrix(1.9515901,0,0,1.9515901,77.45196,-402.20886)">
      <rect
         width="86"
         height="85"
         rx="3.0744162"
         ry="3.0744162"
         x="5"
         y="7"
         id="rect3745-9-3"
         style="opacity:0.9;fill:url(#linearGradient4541);fill-opacity:1;fill-rule:nonzero;stroke:none;filter:url(#filter3174-0-35)" />
    </g>
    <g
       id="layer4-7-6"
       transform="matrix(1.9515901,0,0,1.9515901,77.45196,-402.20886)" />
    <g
       id="layer2-21"
       style="display:none"
       transform="translate(192.42127,-183.45962)">
      <rect
         width="86"
         height="85"
         rx="6"
         ry="6"
         x="5"
         y="7"
         id="rect3745-7"
         style="opacity:0.9;fill:url(#linearGradient3595);fill-opacity:1;fill-rule:nonzero;stroke:none;filter:url(#filter3174-31)" />
    </g>
    <g
       id="layer2-6-6"
       style="display:none"
       transform="translate(134.24886,-180.94774)">
      <rect
         width="86"
         height="85"
         rx="6"
         ry="6"
         x="5"
         y="7"
         id="rect3745-4-2"
         style="opacity:0.9;fill:url(#linearGradient3597);fill-opacity:1;fill-rule:nonzero;stroke:none;filter:url(#filter3174-8-7)" />
    </g>
    <g
       id="layer4-5"
       transform="matrix(1.3333333,0,0,1.3333333,194.1561,-259.35558)" />
    <g
       id="layer4-8-5"
       transform="matrix(1.3333333,0,0,1.3333333,116.59289,-256.00641)" />
    <g
       id="layer2-2-3"
       style="display:none"
       transform="matrix(2.5228235,0,0,2.5228235,202.08326,-531.90387)">
      <rect
         width="86"
         height="85"
         rx="2.3782876"
         ry="2.3782876"
         x="5"
         y="7"
         id="rect3745-3-0"
         style="opacity:0.9;fill:url(#linearGradient4543);fill-opacity:1;fill-rule:nonzero;stroke:none;filter:url(#filter3174-4-1)" />
    </g>
    <g
       id="layer4-1-2"
       transform="matrix(2.5228235,0,0,2.5228235,202.08326,-531.90387)" />
    <g
       id="g4574-6"
       transform="matrix(1.6071093,0,0,1.6011113,225.36288,-25.194012)" />
    <g
       id="layer4-19-0"
       transform="translate(193.42127,-189.45962)" />
    <g
       id="layer2-7-4"
       style="display:none"
       transform="translate(253.42127,-190.45962)">
      <rect
         width="86"
         height="85"
         rx="6"
         ry="6"
         x="5"
         y="7"
         id="rect3745-94-8"
         style="opacity:0.9;fill:url(#linearGradient3599);fill-opacity:1;fill-rule:nonzero;stroke:none;filter:url(#filter3174-9-0)" />
    </g>
    <g
       id="layer2-0-122"
       style="display:none"
       transform="matrix(1.9515901,0,0,1.9515901,210.95196,-407.70886)">
      <rect
         width="86"
         height="85"
         rx="3.0744162"
         ry="3.0744162"
         x="5"
         y="7"
         id="rect3745-9-4"
         style="opacity:0.9;fill:url(#linearGradient3601);fill-opacity:1;fill-rule:nonzero;stroke:none;filter:url(#filter3174-0-3)" />
    </g>
    <g
       id="layer4-7-7"
       transform="matrix(1.9515901,0,0,1.9515901,210.95196,-407.70886)" />
    <g
       id="g4574-4-4"
       transform="matrix(1.6071093,0,0,1.6011113,233.36288,-23.194012)" />
    <g
       id="layer4-3-7"
       transform="translate(201.42127,-187.45962)" />
    <g
       id="layer2-22-3"
       style="display:none"
       transform="translate(261.42127,-188.45962)">
      <rect
         width="86"
         height="85"
         rx="6"
         ry="6"
         x="5"
         y="7"
         id="rect3745-1-7"
         style="opacity:0.9;fill:url(#linearGradient3603);fill-opacity:1;fill-rule:nonzero;stroke:none;filter:url(#filter3174-3-8)" />
    </g>
    <g
       id="layer2-0-0-8"
       style="display:none"
       transform="matrix(1.9515901,0,0,1.9515901,218.95196,-405.70886)">
      <rect
         width="86"
         height="85"
         rx="3.0744162"
         ry="3.0744162"
         x="5"
         y="7"
         id="rect3745-9-9-2"
         style="opacity:0.9;fill:url(#linearGradient3605);fill-opacity:1;fill-rule:nonzero;stroke:none;filter:url(#filter3174-0-5-6)" />
    </g>
    <g
       id="layer4-7-2-1"
       transform="matrix(1.9515901,0,0,1.9515901,218.95196,-405.70886)" />
    <g
       id="g4574-0-7"
       transform="matrix(1.6071093,0,0,1.6011113,232.36288,-28.194012)" />
    <g
       id="layer4-6-2"
       transform="translate(200.42127,-192.45962)" />
    <g
       id="layer2-9-1"
       style="display:none"
       transform="translate(260.42127,-193.45962)">
      <rect
         width="86"
         height="85"
         rx="6"
         ry="6"
         x="5"
         y="7"
         id="rect3745-18-0"
         style="opacity:0.9;fill:url(#linearGradient3607);fill-opacity:1;fill-rule:nonzero;stroke:none;filter:url(#filter3174-7-4)" />
    </g>
    <g
       id="layer2-0-1-0"
       style="display:none"
       transform="matrix(1.9515901,0,0,1.9515901,217.95196,-410.70886)">
      <rect
         width="86"
         height="85"
         rx="3.0744162"
         ry="3.0744162"
         x="5"
         y="7"
         id="rect3745-9-0-6"
         style="opacity:0.9;fill:url(#linearGradient3609);fill-opacity:1;fill-rule:nonzero;stroke:none;filter:url(#filter3174-0-2-4)" />
    </g>
    <g
       id="layer4-7-4-9"
       transform="matrix(1.9515901,0,0,1.9515901,217.95196,-410.70886)" />
    <g
       id="g4574-9-8"
       transform="matrix(1.6071093,0,0,1.6011113,156.86288,-63.694012)" />
    <g
       id="layer4-0-2"
       transform="translate(124.92127,-227.95962)" />
    <g
       id="layer2-97-6"
       style="display:none"
       transform="translate(184.92127,-228.95962)">
      <rect
         width="86"
         height="85"
         rx="6"
         ry="6"
         x="5"
         y="7"
         id="rect3745-2-7"
         style="opacity:0.9;fill:url(#linearGradient3611);fill-opacity:1;fill-rule:nonzero;stroke:none;filter:url(#filter3174-00-3)" />
    </g>
    <g
       id="layer2-0-12-6"
       style="display:none"
       transform="matrix(1.9515901,0,0,1.9515901,142.45196,-446.20886)">
      <rect
         width="86"
         height="85"
         rx="3.0744162"
         ry="3.0744162"
         x="5"
         y="7"
         id="rect3745-9-2-4"
         style="opacity:0.9;fill:url(#linearGradient3613);fill-opacity:1;fill-rule:nonzero;stroke:none;filter:url(#filter3174-0-7-1)" />
    </g>
    <g
       id="layer4-7-8-0"
       transform="matrix(1.9515901,0,0,1.9515901,142.45196,-446.20886)" />
    <g
       id="g4574-96"
       transform="matrix(1.6071093,0,0,1.6011113,80.646104,-64.67229)" />
    <g
       id="layer4-07"
       transform="translate(48.704491,-228.9379)" />
    <g
       id="layer2-8"
       style="display:none"
       transform="translate(108.70449,-229.9379)">
      <rect
         width="86"
         height="85"
         rx="6"
         ry="6"
         x="5"
         y="7"
         id="rect3745-0"
         style="opacity:0.9;fill:url(#linearGradient5181);fill-opacity:1;fill-rule:nonzero;stroke:none;filter:url(#filter3174-34)" />
    </g>
    <g
       id="layer2-0-91"
       style="display:none"
       transform="matrix(1.9515901,0,0,1.9515901,66.235184,-447.18714)">
      <rect
         width="86"
         height="85"
         rx="3.0744162"
         ry="3.0744162"
         x="5"
         y="7"
         id="rect3745-9-1"
         style="opacity:0.9;fill:url(#linearGradient5183);fill-opacity:1;fill-rule:nonzero;stroke:none;filter:url(#filter3174-0-6)" />
    </g>
    <g
       id="layer4-7-20"
       transform="matrix(1.9515901,0,0,1.9515901,66.235184,-447.18714)" />
    <g
       id="layer2-21-2"
       style="display:none"
       transform="translate(181.20449,-228.4379)">
      <rect
         width="86"
         height="85"
         rx="6"
         ry="6"
         x="5"
         y="7"
         id="rect3745-7-3"
         style="opacity:0.9;fill:url(#linearGradient5185);fill-opacity:1;fill-rule:nonzero;stroke:none;filter:url(#filter3174-31-4)" />
    </g>
    <g
       id="layer2-6-9"
       style="display:none"
       transform="translate(123.03209,-225.92602)">
      <rect
         width="86"
         height="85"
         rx="6"
         ry="6"
         x="5"
         y="7"
         id="rect3745-4-5"
         style="opacity:0.9;fill:url(#linearGradient5187);fill-opacity:1;fill-rule:nonzero;stroke:none;filter:url(#filter3174-8-1)" />
    </g>
    <g
       id="layer4-5-5"
       transform="matrix(1.3333333,0,0,1.3333333,182.93932,-304.33386)" />
    <g
       id="layer4-8-9"
       transform="matrix(1.3333333,0,0,1.3333333,105.37612,-300.98469)" />
    <g
       id="layer2-2-5"
       style="display:none"
       transform="matrix(2.5228235,0,0,2.5228235,190.86648,-576.88215)">
      <rect
         width="86"
         height="85"
         rx="2.3782876"
         ry="2.3782876"
         x="5"
         y="7"
         id="rect3745-3-02"
         style="opacity:0.9;fill:url(#linearGradient5189);fill-opacity:1;fill-rule:nonzero;stroke:none;filter:url(#filter3174-4-2)" />
    </g>
    <g
       id="layer4-1-0"
       transform="matrix(2.5228235,0,0,2.5228235,190.86648,-576.88215)" />
    <g
       id="g4574-6-1"
       transform="matrix(1.6071093,0,0,1.6011113,214.1461,-70.172294)" />
    <g
       id="layer4-19-9"
       transform="translate(182.20449,-234.4379)" />
    <g
       id="layer2-7-7"
       style="display:none"
       transform="translate(242.20449,-235.4379)">
      <rect
         width="86"
         height="85"
         rx="6"
         ry="6"
         x="5"
         y="7"
         id="rect3745-94-6"
         style="opacity:0.9;fill:url(#linearGradient5191);fill-opacity:1;fill-rule:nonzero;stroke:none;filter:url(#filter3174-9-00)" />
    </g>
    <g
       id="layer2-0-122-3"
       style="display:none"
       transform="matrix(1.9515901,0,0,1.9515901,199.73518,-452.68714)">
      <rect
         width="86"
         height="85"
         rx="3.0744162"
         ry="3.0744162"
         x="5"
         y="7"
         id="rect3745-9-4-4"
         style="opacity:0.9;fill:url(#linearGradient3601-1);fill-opacity:1;fill-rule:nonzero;stroke:none;filter:url(#filter3174-0-3-3)" />
    </g>
    <g
       id="layer4-7-7-1"
       transform="matrix(1.9515901,0,0,1.9515901,199.73518,-452.68714)" />
    <g
       id="g4574-4-2"
       transform="matrix(1.6071093,0,0,1.6011113,222.1461,-68.172294)" />
    <g
       id="layer4-3-4"
       transform="translate(190.20449,-232.4379)" />
    <g
       id="layer2-22-0"
       style="display:none"
       transform="translate(250.20449,-233.4379)">
      <rect
         width="86"
         height="85"
         rx="6"
         ry="6"
         x="5"
         y="7"
         id="rect3745-1-2"
         style="opacity:0.9;fill:url(#linearGradient5193);fill-opacity:1;fill-rule:nonzero;stroke:none;filter:url(#filter3174-3-0)" />
    </g>
    <g
       id="layer2-0-0-3"
       style="display:none"
       transform="matrix(1.9515901,0,0,1.9515901,207.73518,-450.68714)">
      <rect
         width="86"
         height="85"
         rx="3.0744162"
         ry="3.0744162"
         x="5"
         y="7"
         id="rect3745-9-9-8"
         style="opacity:0.9;fill:url(#linearGradient3605-5);fill-opacity:1;fill-rule:nonzero;stroke:none;filter:url(#filter3174-0-5-3)" />
    </g>
    <g
       id="layer4-7-2-4"
       transform="matrix(1.9515901,0,0,1.9515901,207.73518,-450.68714)" />
    <g
       id="g4574-0-4"
       transform="matrix(1.6071093,0,0,1.6011113,221.1461,-73.172294)" />
    <g
       id="layer4-6-25"
       transform="translate(189.20449,-237.4379)" />
    <g
       id="layer2-9-6"
       style="display:none"
       transform="translate(249.20449,-238.4379)">
      <rect
         width="86"
         height="85"
         rx="6"
         ry="6"
         x="5"
         y="7"
         id="rect3745-18-4"
         style="opacity:0.9;fill:url(#linearGradient5195);fill-opacity:1;fill-rule:nonzero;stroke:none;filter:url(#filter3174-7-6)" />
    </g>
    <g
       id="layer2-0-1-3"
       style="display:none"
       transform="matrix(1.9515901,0,0,1.9515901,206.73518,-455.68714)">
      <rect
         width="86"
         height="85"
         rx="3.0744162"
         ry="3.0744162"
         x="5"
         y="7"
         id="rect3745-9-0-5"
         style="opacity:0.9;fill:url(#linearGradient3609-0);fill-opacity:1;fill-rule:nonzero;stroke:none;filter:url(#filter3174-0-2-45)" />
    </g>
    <g
       id="layer4-7-4-8"
       transform="matrix(1.9515901,0,0,1.9515901,206.73518,-455.68714)" />
    <g
       id="g4574-9-6"
       transform="matrix(1.6071093,0,0,1.6011113,145.6461,-108.67229)" />
    <g
       id="layer4-0-7"
       transform="translate(113.70449,-272.9379)" />
    <g
       id="layer2-97-3"
       style="display:none"
       transform="translate(173.70449,-273.9379)">
      <rect
         width="86"
         height="85"
         rx="6"
         ry="6"
         x="5"
         y="7"
         id="rect3745-2-3"
         style="opacity:0.9;fill:url(#linearGradient5197);fill-opacity:1;fill-rule:nonzero;stroke:none;filter:url(#filter3174-00-7)" />
    </g>
    <g
       id="layer2-0-12-60"
       style="display:none"
       transform="matrix(1.9515901,0,0,1.9515901,131.23518,-491.18714)">
      <rect
         width="86"
         height="85"
         rx="3.0744162"
         ry="3.0744162"
         x="5"
         y="7"
         id="rect3745-9-2-40"
         style="opacity:0.9;fill:url(#linearGradient3613-7);fill-opacity:1;fill-rule:nonzero;stroke:none;filter:url(#filter3174-0-7-11)" />
    </g>
    <g
       id="layer4-7-8-1"
       transform="matrix(1.9515901,0,0,1.9515901,131.23518,-491.18714)" />
    <g
       id="g4574-8"
       transform="matrix(1.6071093,0,0,1.6011113,91.646104,-16.67229)" />
    <g
       id="layer4-10"
       transform="translate(59.704491,-180.9379)" />
    <g
       id="layer2-1"
       style="display:none"
       transform="translate(119.70449,-181.9379)">
      <rect
         width="86"
         height="85"
         rx="6"
         ry="6"
         x="5"
         y="7"
         id="rect3745-06"
         style="opacity:0.9;fill:url(#linearGradient4881);fill-opacity:1;fill-rule:nonzero;stroke:none;filter:url(#filter3174-97)" />
    </g>
    <g
       id="layer2-0-3"
       style="display:none"
       transform="matrix(1.9515901,0,0,1.9515901,77.235184,-399.18714)">
      <rect
         width="86"
         height="85"
         rx="3.0744162"
         ry="3.0744162"
         x="5"
         y="7"
         id="rect3745-9-6"
         style="opacity:0.9;fill:url(#linearGradient4883);fill-opacity:1;fill-rule:nonzero;stroke:none;filter:url(#filter3174-0-54)" />
    </g>
    <g
       id="layer4-7-28"
       transform="matrix(1.9515901,0,0,1.9515901,77.235184,-399.18714)" />
    <g
       id="layer2-21-9"
       style="display:none"
       transform="translate(192.20449,-180.4379)">
      <rect
         width="86"
         height="85"
         rx="6"
         ry="6"
         x="5"
         y="7"
         id="rect3745-7-8"
         style="opacity:0.9;fill:url(#linearGradient4886);fill-opacity:1;fill-rule:nonzero;stroke:none;filter:url(#filter3174-31-7)" />
    </g>
    <g
       id="layer2-6-2"
       style="display:none"
       transform="translate(134.03209,-177.92602)">
      <rect
         width="86"
         height="85"
         rx="6"
         ry="6"
         x="5"
         y="7"
         id="rect3745-4-7"
         style="opacity:0.9;fill:url(#linearGradient4888);fill-opacity:1;fill-rule:nonzero;stroke:none;filter:url(#filter3174-8-3)" />
    </g>
    <g
       id="layer4-5-8"
       transform="matrix(1.3333333,0,0,1.3333333,193.93932,-256.33386)" />
    <g
       id="layer4-8-4"
       transform="matrix(1.3333333,0,0,1.3333333,116.37612,-252.98469)" />
    <g
       id="layer2-2-2"
       style="display:none"
       transform="matrix(2.5228235,0,0,2.5228235,201.86648,-528.88215)">
      <rect
         width="86"
         height="85"
         rx="2.3782876"
         ry="2.3782876"
         x="5"
         y="7"
         id="rect3745-3-9"
         style="opacity:0.9;fill:url(#linearGradient4890);fill-opacity:1;fill-rule:nonzero;stroke:none;filter:url(#filter3174-4-6)" />
    </g>
    <g
       id="layer4-1-7"
       transform="matrix(2.5228235,0,0,2.5228235,201.86648,-528.88215)" />
    <g
       id="g4574-6-9"
       transform="matrix(1.6071093,0,0,1.6011113,225.1461,-22.172294)" />
    <g
       id="layer4-19-5"
       transform="translate(193.20449,-186.4379)" />
    <g
       id="layer2-7-9"
       style="display:none"
       transform="translate(253.20449,-187.4379)">
      <rect
         width="86"
         height="85"
         rx="6"
         ry="6"
         x="5"
         y="7"
         id="rect3745-94-1"
         style="opacity:0.9;fill:url(#linearGradient4892);fill-opacity:1;fill-rule:nonzero;stroke:none;filter:url(#filter3174-9-3)" />
    </g>
    <g
       id="layer2-0-122-6"
       style="display:none"
       transform="matrix(1.9515901,0,0,1.9515901,210.73518,-404.68714)">
      <rect
         width="86"
         height="85"
         rx="3.0744162"
         ry="3.0744162"
         x="5"
         y="7"
         id="rect3745-9-4-6"
         style="opacity:0.9;fill:url(#linearGradient4894);fill-opacity:1;fill-rule:nonzero;stroke:none;filter:url(#filter3174-0-3-4)" />
    </g>
    <g
       id="layer4-7-7-4"
       transform="matrix(1.9515901,0,0,1.9515901,210.73518,-404.68714)" />
    <g
       id="g4574-4-5"
       transform="matrix(1.6071093,0,0,1.6011113,233.1461,-20.172294)" />
    <g
       id="layer4-3-0"
       transform="translate(201.20449,-184.4379)" />
    <g
       id="layer2-22-2"
       style="display:none"
       transform="translate(261.20449,-185.4379)">
      <rect
         width="86"
         height="85"
         rx="6"
         ry="6"
         x="5"
         y="7"
         id="rect3745-1-3"
         style="opacity:0.9;fill:url(#linearGradient4896);fill-opacity:1;fill-rule:nonzero;stroke:none;filter:url(#filter3174-3-06)" />
    </g>
    <g
       id="layer2-0-0-33"
       style="display:none"
       transform="matrix(1.9515901,0,0,1.9515901,218.73518,-402.68714)">
      <rect
         width="86"
         height="85"
         rx="3.0744162"
         ry="3.0744162"
         x="5"
         y="7"
         id="rect3745-9-9-6"
         style="opacity:0.9;fill:url(#linearGradient4898);fill-opacity:1;fill-rule:nonzero;stroke:none;filter:url(#filter3174-0-5-1)" />
    </g>
    <g
       id="layer4-7-2-5"
       transform="matrix(1.9515901,0,0,1.9515901,218.73518,-402.68714)" />
    <g
       id="g4574-0-9"
       transform="matrix(1.6071093,0,0,1.6011113,232.1461,-25.172294)" />
    <g
       id="layer4-6-9"
       transform="translate(200.20449,-189.4379)" />
    <g
       id="layer2-9-4"
       style="display:none"
       transform="translate(260.20449,-190.4379)">
      <rect
         width="86"
         height="85"
         rx="6"
         ry="6"
         x="5"
         y="7"
         id="rect3745-18-3"
         style="opacity:0.9;fill:url(#linearGradient4900);fill-opacity:1;fill-rule:nonzero;stroke:none;filter:url(#filter3174-7-1)" />
    </g>
    <g
       id="layer2-0-1-8"
       style="display:none"
       transform="matrix(1.9515901,0,0,1.9515901,217.73518,-407.68714)">
      <rect
         width="86"
         height="85"
         rx="3.0744162"
         ry="3.0744162"
         x="5"
         y="7"
         id="rect3745-9-0-1"
         style="opacity:0.9;fill:url(#linearGradient4902);fill-opacity:1;fill-rule:nonzero;stroke:none;filter:url(#filter3174-0-2-1)" />
    </g>
    <g
       id="layer4-7-4-3"
       transform="matrix(1.9515901,0,0,1.9515901,217.73518,-407.68714)" />
    <g
       id="g4574-9-9"
       transform="matrix(1.6071093,0,0,1.6011113,156.6461,-60.672294)" />
    <g
       id="layer4-0-26"
       transform="translate(124.70449,-224.9379)" />
    <g
       id="layer2-97-9"
       style="display:none"
       transform="translate(184.70449,-225.9379)">
      <rect
         width="86"
         height="85"
         rx="6"
         ry="6"
         x="5"
         y="7"
         id="rect3745-2-0"
         style="opacity:0.9;fill:url(#linearGradient4904);fill-opacity:1;fill-rule:nonzero;stroke:none;filter:url(#filter3174-00-2)" />
    </g>
    <g
       id="layer2-0-12-0"
       style="display:none"
       transform="matrix(1.9515901,0,0,1.9515901,142.23518,-443.18714)">
      <rect
         width="86"
         height="85"
         rx="3.0744162"
         ry="3.0744162"
         x="5"
         y="7"
         id="rect3745-9-2-3"
         style="opacity:0.9;fill:url(#linearGradient4906);fill-opacity:1;fill-rule:nonzero;stroke:none;filter:url(#filter3174-0-7-5)" />
    </g>
    <g
       id="layer4-7-8-2"
       transform="matrix(1.9515901,0,0,1.9515901,142.23518,-443.18714)" />
    <g
       id="g4574-48"
       transform="matrix(1.6071093,0,0,1.6011113,87.646104,-23.67229)" />
    <g
       id="layer4-2"
       transform="translate(55.704491,-187.9379)" />
    <g
       id="layer2-16"
       style="display:none"
       transform="translate(115.70449,-188.9379)">
      <rect
         width="86"
         height="85"
         rx="6"
         ry="6"
         x="5"
         y="7"
         id="rect3745-73"
         style="opacity:0.9;fill:url(#linearGradient4824);fill-opacity:1;fill-rule:nonzero;stroke:none;filter:url(#filter3174-43)" />
    </g>
    <g
       id="layer2-0-32"
       style="display:none"
       transform="matrix(1.9515901,0,0,1.9515901,73.235184,-406.18714)">
      <rect
         width="86"
         height="85"
         rx="3.0744162"
         ry="3.0744162"
         x="5"
         y="7"
         id="rect3745-9-19"
         style="opacity:0.9;fill:url(#linearGradient4826);fill-opacity:1;fill-rule:nonzero;stroke:none;filter:url(#filter3174-0-53)" />
    </g>
    <g
       id="layer4-7-77"
       transform="matrix(1.9515901,0,0,1.9515901,73.235184,-406.18714)" />
    <g
       id="layer2-21-0"
       style="display:none"
       transform="translate(188.20449,-187.4379)">
      <rect
         width="86"
         height="85"
         rx="6"
         ry="6"
         x="5"
         y="7"
         id="rect3745-7-4"
         style="opacity:0.9;fill:url(#linearGradient4828);fill-opacity:1;fill-rule:nonzero;stroke:none;filter:url(#filter3174-31-74)" />
    </g>
    <g
       id="layer2-6-60"
       style="display:none"
       transform="translate(130.03209,-184.92602)">
      <rect
         width="86"
         height="85"
         rx="6"
         ry="6"
         x="5"
         y="7"
         id="rect3745-4-75"
         style="opacity:0.9;fill:url(#linearGradient4830);fill-opacity:1;fill-rule:nonzero;stroke:none;filter:url(#filter3174-8-5)" />
    </g>
    <g
       id="layer4-5-6"
       transform="matrix(1.3333333,0,0,1.3333333,189.93932,-263.33386)" />
    <g
       id="layer4-8-7"
       transform="matrix(1.3333333,0,0,1.3333333,112.37612,-259.98469)" />
    <g
       id="layer2-2-6"
       style="display:none"
       transform="matrix(2.5228235,0,0,2.5228235,197.86648,-535.88215)">
      <rect
         width="86"
         height="85"
         rx="2.3782876"
         ry="2.3782876"
         x="5"
         y="7"
         id="rect3745-3-1"
         style="opacity:0.9;fill:url(#linearGradient4832);fill-opacity:1;fill-rule:nonzero;stroke:none;filter:url(#filter3174-4-5)" />
    </g>
    <g
       id="layer4-1-4"
       transform="matrix(2.5228235,0,0,2.5228235,197.86648,-535.88215)" />
    <g
       id="g4574-6-6"
       transform="matrix(1.6071093,0,0,1.6011113,221.1461,-29.172294)" />
    <g
       id="layer4-19-3"
       transform="translate(189.20449,-193.4379)" />
    <g
       id="layer2-7-1"
       style="display:none"
       transform="translate(249.20449,-194.4379)">
      <rect
         width="86"
         height="85"
         rx="6"
         ry="6"
         x="5"
         y="7"
         id="rect3745-94-5"
         style="opacity:0.9;fill:url(#linearGradient4834);fill-opacity:1;fill-rule:nonzero;stroke:none;filter:url(#filter3174-9-6)" />
    </g>
    <g
       id="layer2-0-122-9"
       style="display:none"
       transform="matrix(1.9515901,0,0,1.9515901,206.73518,-411.68714)">
      <rect
         width="86"
         height="85"
         rx="3.0744162"
         ry="3.0744162"
         x="5"
         y="7"
         id="rect3745-9-4-0"
         style="opacity:0.9;fill:url(#linearGradient4836);fill-opacity:1;fill-rule:nonzero;stroke:none;filter:url(#filter3174-0-3-7)" />
    </g>
    <g
       id="layer4-7-7-17"
       transform="matrix(1.9515901,0,0,1.9515901,206.73518,-411.68714)" />
    <g
       id="g4574-4-22"
       transform="matrix(1.6071093,0,0,1.6011113,229.1461,-27.172294)" />
    <g
       id="layer4-3-3"
       transform="translate(197.20449,-191.4379)" />
    <g
       id="layer2-22-9"
       style="display:none"
       transform="translate(257.20449,-192.4379)">
      <rect
         width="86"
         height="85"
         rx="6"
         ry="6"
         x="5"
         y="7"
         id="rect3745-1-8"
         style="opacity:0.9;fill:url(#linearGradient4838);fill-opacity:1;fill-rule:nonzero;stroke:none;filter:url(#filter3174-3-2)" />
    </g>
    <g
       id="layer2-0-0-6"
       style="display:none"
       transform="matrix(1.9515901,0,0,1.9515901,214.73518,-409.68714)">
      <rect
         width="86"
         height="85"
         rx="3.0744162"
         ry="3.0744162"
         x="5"
         y="7"
         id="rect3745-9-9-4"
         style="opacity:0.9;fill:url(#linearGradient4840);fill-opacity:1;fill-rule:nonzero;stroke:none;filter:url(#filter3174-0-5-2)" />
    </g>
    <g
       id="layer4-7-2-18"
       transform="matrix(1.9515901,0,0,1.9515901,214.73518,-409.68714)" />
    <g
       id="g4574-0-1"
       transform="matrix(1.6071093,0,0,1.6011113,228.1461,-32.172294)" />
    <g
       id="layer4-6-8"
       transform="translate(196.20449,-196.4379)" />
    <g
       id="layer2-9-0"
       style="display:none"
       transform="translate(256.20449,-197.4379)">
      <rect
         width="86"
         height="85"
         rx="6"
         ry="6"
         x="5"
         y="7"
         id="rect3745-18-1"
         style="opacity:0.9;fill:url(#linearGradient4842);fill-opacity:1;fill-rule:nonzero;stroke:none;filter:url(#filter3174-7-17)" />
    </g>
    <g
       id="layer2-0-1-4"
       style="display:none"
       transform="matrix(1.9515901,0,0,1.9515901,213.73518,-414.68714)">
      <rect
         width="86"
         height="85"
         rx="3.0744162"
         ry="3.0744162"
         x="5"
         y="7"
         id="rect3745-9-0-8"
         style="opacity:0.9;fill:url(#linearGradient4844);fill-opacity:1;fill-rule:nonzero;stroke:none;filter:url(#filter3174-0-2-7)" />
    </g>
    <g
       id="layer4-7-4-33"
       transform="matrix(1.9515901,0,0,1.9515901,213.73518,-414.68714)" />
    <g
       id="g4574-9-3"
       transform="matrix(1.6071093,0,0,1.6011113,152.6461,-67.672294)" />
    <g
       id="layer4-0-1"
       transform="translate(120.70449,-231.9379)" />
    <g
       id="layer2-97-2"
       style="display:none"
       transform="translate(180.70449,-232.9379)">
      <rect
         width="86"
         height="85"
         rx="6"
         ry="6"
         x="5"
         y="7"
         id="rect3745-2-1"
         style="opacity:0.9;fill:url(#linearGradient4846);fill-opacity:1;fill-rule:nonzero;stroke:none;filter:url(#filter3174-00-35)" />
    </g>
    <g
       id="layer2-0-12-2"
       style="display:none"
       transform="matrix(1.9515901,0,0,1.9515901,138.23518,-450.18714)">
      <rect
         width="86"
         height="85"
         rx="3.0744162"
         ry="3.0744162"
         x="5"
         y="7"
         id="rect3745-9-2-6"
         style="opacity:0.9;fill:url(#linearGradient4848);fill-opacity:1;fill-rule:nonzero;stroke:none;filter:url(#filter3174-0-7-0)" />
    </g>
    <g
       id="layer4-7-8-7"
       transform="matrix(1.9515901,0,0,1.9515901,138.23518,-450.18714)" />
  </g>
</svg>
