<?xml version="1.0" encoding="UTF-8" standalone="no"?>
<!-- Created with Inkscape (http://www.inkscape.org/) -->

<svg
   xmlns:dc="http://purl.org/dc/elements/1.1/"
   xmlns:cc="http://creativecommons.org/ns#"
   xmlns:rdf="http://www.w3.org/1999/02/22-rdf-syntax-ns#"
   xmlns:svg="http://www.w3.org/2000/svg"
   xmlns="http://www.w3.org/2000/svg"
   xmlns:xlink="http://www.w3.org/1999/xlink"
   xmlns:sodipodi="http://sodipodi.sourceforge.net/DTD/sodipodi-0.dtd"
   xmlns:inkscape="http://www.inkscape.org/namespaces/inkscape"
   width="22"
   height="22"
   id="svg4700"
   version="1.1"
   inkscape:version="0.92.1 r15371"
   sodipodi:docname="video-display.svg">
  <defs
     id="defs4702">
    <linearGradient
       id="linearGradient4050">
      <stop
         id="stop4052"
         offset="0"
         style="stop-color:#ffffff;stop-opacity:0.66929132;" />
      <stop
         id="stop4054"
         offset="1"
         style="stop-color:#ffffff;stop-opacity:0;" />
    </linearGradient>
    <filter
       id="filter3174"
       color-interpolation-filters="sRGB">
      <feGaussianBlur
         stdDeviation="1.71"
         id="feGaussianBlur3176" />
    </filter>
    <linearGradient
       gradientTransform="scale(1.0058652,0.994169)"
       gradientUnits="userSpaceOnUse"
       id="ButtonShadow"
       y2="7.0165396"
       x2="45.447727"
       y1="92.539597"
       x1="45.447727">
      <stop
         offset="0"
         style="stop-color:#000000;stop-opacity:1"
         id="stop3750" />
      <stop
         offset="1"
         style="stop-color:#000000;stop-opacity:0.58823532"
         id="stop3752" />
    </linearGradient>
    <linearGradient
       inkscape:collect="always"
       xlink:href="#linearGradient4050"
       id="linearGradient3120"
       gradientUnits="userSpaceOnUse"
       gradientTransform="matrix(0.53950485,0,0,0.45066006,-1.9715264,24.60476)"
       x1="22.440199"
       y1="4.8942533"
       x2="22.440199"
       y2="38.21666" />
    <linearGradient
       y2="9.4076004"
       y1="32.059502"
       x2="21.9424"
       x1="27.5068"
       id="linearGradient5775-3"
       gradientUnits="userSpaceOnUse">
      <stop
         id="stop3648-3"
         stop-color="#5489a7"
         offset="0"
         style="stop-color:#8fa754;stop-opacity:1" />
      <stop
         id="stop3650-1"
         stop-color="#242e4f"
         offset="1"
         style="stop-color:#424f24;stop-opacity:1" />
    </linearGradient>
    <linearGradient
       y2="25.279301"
       y1="-5.7136998"
       x2="32.9515"
       x1="10.1889"
       id="linearGradient5660"
       gradientUnits="userSpaceOnUse"
       gradientTransform="matrix(1,0,0,0.84932,2.4060994e-7,-1.09589)">
      <stop
         id="stop3643"
         stop-color="#fff"
         offset="0" />
      <stop
         id="stop3645"
         stop-opacity="0"
         stop-color="#fff"
         offset="1" />
    </linearGradient>
    <linearGradient
       inkscape:collect="always"
       xlink:href="#linearGradient5775-3"
       id="linearGradient3153"
       gradientUnits="userSpaceOnUse"
       x1="27.5068"
       y1="32.059502"
       x2="21.9424"
       y2="9.4076004"
       gradientTransform="matrix(0.49999992,0,0,0.52092638,-0.99999999,23.707083)" />
    <radialGradient
       inkscape:collect="always"
       xlink:href="#radialGradient4327-5-5"
       id="radialGradient3165-8"
       gradientUnits="userSpaceOnUse"
       gradientTransform="matrix(0.49669567,0,0,0.38494408,-1.2750925,26.22095)"
       cx="24.0002"
       cy="20.5"
       r="19.9998" />
    <radialGradient
       r="19.9998"
       id="radialGradient4327-5-5"
       gradientUnits="userSpaceOnUse"
       gradientTransform="matrix(1,0,0,0.77501,0,3.61238)"
       cy="20.5"
       cx="24.0002">
      <stop
         id="stop3673-5-2"
         stop-color="#0f86c8"
         offset="0"
         style="stop-color:#92c80f;stop-opacity:1" />
      <stop
         id="stop3675-1-1"
         stop-color="#0e2731"
         offset="1"
         style="stop-color:#1e310e;stop-opacity:1" />
    </radialGradient>
    <linearGradient
       inkscape:collect="always"
       xlink:href="#linearGradient3780-6-2-1-8"
       id="linearGradient4187-9"
       gradientUnits="userSpaceOnUse"
       x1="16.132845"
       x2="27.589365"
       gradientTransform="matrix(0.99852857,0,0,0.99837368,-11.042656,-19.295855)"
       y1="57.076187"
       y2="57.076187" />
    <linearGradient
       x2="38.898602"
       x1="8.4863997"
       id="linearGradient3780-6-2-1-8"
       gradientUnits="userSpaceOnUse">
      <stop
         id="stop3631-4-7-5"
         stop-color="#b3b3b3"
         offset="0" />
      <stop
         id="stop3633-2-56-8"
         stop-color="#e7e7e7"
         offset="1" />
    </linearGradient>
    <linearGradient
       inkscape:collect="always"
       xlink:href="#linearGradient3780-6-2-1-8-9"
       id="linearGradient4187-9-9"
       gradientUnits="userSpaceOnUse"
       x1="16.132845"
       x2="27.589365"
       gradientTransform="matrix(0.86460659,0,0,0.9897,-8.0863099,-18.712455)"
       y1="57.076187"
       y2="57.076187" />
    <linearGradient
       x2="38.898602"
       x1="8.4863997"
       id="linearGradient3780-6-2-1-8-9"
       gradientUnits="userSpaceOnUse">
      <stop
         id="stop3631-4-7-5-9"
         stop-color="#b3b3b3"
         offset="0" />
      <stop
         id="stop3633-2-56-8-9"
         stop-color="#e7e7e7"
         offset="1" />
    </linearGradient>
  </defs>
  <sodipodi:namedview
     id="base"
     pagecolor="#ffffff"
     bordercolor="#666666"
     borderopacity="1.0"
     inkscape:pageopacity="0.0"
     inkscape:pageshadow="2"
     inkscape:zoom="13.070249"
     inkscape:cx="31.735254"
     inkscape:cy="16.21239"
     inkscape:current-layer="layer1"
     showgrid="true"
     inkscape:grid-bbox="true"
     inkscape:document-units="px"
     inkscape:window-width="1366"
     inkscape:window-height="704"
     inkscape:window-x="0"
     inkscape:window-y="27"
     inkscape:window-maximized="1"
     inkscape:snap-to-guides="true"
     inkscape:snap-grids="true"
     inkscape:snap-bbox="true">
    <inkscape:grid
       type="xygrid"
       id="grid1021"
       empspacing="5"
       visible="true"
       enabled="true"
       snapvisiblegridlinesonly="true" />
  </sodipodi:namedview>
  <metadata
     id="metadata4705">
    <rdf:RDF>
      <cc:Work
         rdf:about="">
        <dc:format>image/svg+xml</dc:format>
        <dc:type
           rdf:resource="http://purl.org/dc/dcmitype/StillImage" />
        <dc:title />
      </cc:Work>
    </rdf:RDF>
  </metadata>
  <g
     id="layer1"
     inkscape:label="Layer 1"
     inkscape:groupmode="layer"
     transform="translate(0,-26)">
    <rect
       ry="1"
       y="44.51545"
       x="4.51545"
       height="2.9691"
       width="12.9691"
       id="rect3975"
       style="color:black;fill:url(#linearGradient4187-9-9);fill-opacity:1;fill-rule:nonzero;stroke:#2a2a2a;stroke-width:1.0309;stroke-linecap:butt;stroke-linejoin:miter;stroke-miterlimit:4;stroke-opacity:1;stroke-dasharray:none;stroke-dashoffset:0;marker:none;visibility:visible;display:inline;overflow:visible;enable-background:accumulate"
       rx="1" />
    <g
       id="layer2"
       style="display:none"
       transform="translate(5.204491,-179.6879)">
      <rect
         width="86"
         height="85"
         rx="6"
         ry="6"
         x="5"
         y="7"
         id="rect3745"
         style="opacity:0.9;fill:url(#ButtonShadow);fill-opacity:1;fill-rule:nonzero;stroke:none;filter:url(#filter3174)" />
    </g>
    <g
       id="layer4"
       transform="translate(5.204491,-179.6879)" />
    <rect
       style="color:#000000;fill:url(#linearGradient4187-9);fill-opacity:1;fill-rule:nonzero;stroke:#2a2a2a;stroke-width:1.0309;stroke-linecap:butt;stroke-linejoin:miter;stroke-miterlimit:4;stroke-opacity:1;stroke-dasharray:none;stroke-dashoffset:0;marker:none;visibility:visible;display:inline;overflow:visible;enable-background:accumulate"
       id="rect3874"
       width="20.969099"
       height="18.969099"
       x="0.51545"
       y="26.51545"
       ry="2"
       rx="1.9999999" />
    <rect
       rx="1"
       style="color:#000000;fill:url(#radialGradient3165-8);fill-opacity:1;fill-rule:nonzero;stroke:none;stroke-width:1;marker:none;visibility:visible;display:inline;overflow:visible;enable-background:accumulate"
       id="rect3979"
       y="27"
       x="1"
       ry="1.5"
       height="15"
       width="20" />
    <path
       inkscape:connector-curvature="0"
       id="path3691"
       d="M 7.3593991,34.402327 C 4.0306501,34.398657 1.4171497,36.340069 1,36.665128 V 38 c 0.4307496,-0.615317 3.6399486,-4.853887 9.265598,-3.060442 -0.9989,-0.38012 -1.9806001,-0.536189 -2.9062492,-0.537179 z M 4.3124997,33.213989 c -2.1855503,0.01167 -3.2968996,0.553485 -3.2968996,0.553485 l 0.015603,2.539516 c 0,0 3.8301495,-3.922055 9.9218979,-1.48141 5.07215,2.032134 8.902949,1.456821 10.046899,1.204641 v -2.734862 c -1.195649,1.000283 -4.79305,3.402222 -9.921898,1.334873 C 8.3000021,33.510396 6.0123531,33.204925 4.3125027,33.213938 z M 2.9843999,32.009348 C 2.0998494,32.006516 1.4452998,32.118637 1,32.237252 v 1.074411 c 1.3850994,-0.590678 4.5717987,-1.29971 9.937498,1.009295 C 7.3761488,32.49011 4.7388492,32.015078 2.9843999,32.009348 z M 20.999997,31.000052 c -1.000001,1.472243 -4.06025,5.1367 -8.984398,3.597623 4.221648,1.765991 7.861948,-0.847496 8.984398,-1.790685 V 31 z"
       style="opacity:0.403;color:#000000;fill:url(#linearGradient3153);fill-opacity:1;fill-rule:nonzero;stroke-width:1;stroke-linecap:butt;stroke-linejoin:miter;stroke-miterlimit:4;stroke-opacity:1;stroke-dasharray:none;stroke-dashoffset:0;marker:none;visibility:visible;display:inline;overflow:visible;enable-background:accumulate" />
    <path
       style="fill:#b4ff00;stroke:none;fill-opacity:1"
       inkscape:connector-curvature="0"
       d="m 17,43 h 2 v 1 h -2 z"
       id="path3697" />
    <rect
       width="19"
       height="14"
       ry="1.3610822"
       x="1.5"
       y="27.5"
       id="rect4513"
       style="fill:none;stroke:url(#linearGradient3120);stroke-width:1;stroke-miterlimit:4;stroke-opacity:1;stroke-dasharray:none"
       rx="1.3610822" />
  </g>
</svg>
